<svg width="140" height="162" viewBox="0 0 140 162" fill="none" xmlns="http://www.w3.org/2000/svg">
<path d="M77.7001 0C78.1001 0.1 78.4 0.099707 78.8 0.199707C78.4 2.49971 78.1001 4.89971 77.7001 7.19971C79.5001 7.49971 81.3001 7.8 83.1001 8C84.4001 6.2 85.8001 4.39961 87.1001 2.59961C87.5001 1.99961 88.3 1.7998 89 1.7998C88.9 2.0998 88.9 2.4998 88.8 2.7998C88.4 2.9998 88 3.1 87.8 3.5C86.6 5.1 85.5 6.59971 84.3 8.19971C84.1 8.49971 83.8 8.79961 84 9.09961C84.9 12.2996 85.8001 15.4996 86.6001 18.5996C86.2001 18.4996 85.8 18.4999 85.4 18.3999C84.6 15.3999 83.7 12.4 82.9 9.5C82.8 9.3 82.8 9.09961 82.5 9.09961C80.8 8.79961 79.1 8.5998 77.4 8.2998C77 11.1998 76.5001 13.9999 76.1001 16.8999C75.8001 17.0999 75.4 16.7999 75 16.8999C75.9 11.0999 76.8001 5.5 77.7001 0Z" fill="white"/>
<path d="M25.0766 16.7379C26.1766 15.7379 28.0767 15.738 29.1767 16.838C29.8767 17.538 30.4767 18.2377 31.1767 19.0377C30.8767 19.2377 30.6767 19.5379 30.3767 19.7379C29.7767 19.0379 29.1766 18.4379 28.5766 17.7379C27.8766 16.8379 26.3767 16.8379 25.6767 17.7379C24.6767 18.6379 23.6767 19.5381 22.6767 20.4381C22.1767 20.8381 21.8767 21.4378 21.9767 22.1378C21.9767 22.8378 22.4767 23.338 22.9767 23.838C25.3767 26.438 27.6766 29.0378 30.0766 31.6378C30.7766 32.4378 31.9767 32.4379 32.7767 31.7379C33.8767 30.7379 34.9766 29.7379 36.0766 28.7379C36.7766 28.1379 36.8767 26.8378 36.2767 26.1378C35.4767 25.2378 34.6767 24.4377 33.8767 23.5377C34.1767 23.2377 34.4767 23.0379 34.7767 22.7379C35.5767 23.6379 36.3767 24.438 37.1767 25.338C38.1767 26.538 38.0767 28.4381 36.8767 29.4381C35.7767 30.4381 34.6766 31.4377 33.5766 32.5377C32.3766 33.5377 30.4767 33.438 29.3767 32.338C26.8767 29.538 24.2767 26.7377 21.7767 24.0377C20.6767 22.9377 20.7767 20.938 21.8767 19.838C22.7767 18.738 23.9766 17.7379 25.0766 16.7379Z" fill="white"/>
<path d="M51.2966 24.1125C52.1966 23.8125 53.2966 24.1124 53.7966 25.0124C54.1966 25.6124 54.3966 26.3124 54.6966 27.0124C54.4966 27.1124 54.1966 27.2127 53.9966 27.3127C53.6966 26.7127 53.3965 26.0123 53.0965 25.4123C52.7965 24.8123 51.9966 24.6123 51.4966 24.9123C50.6966 25.2123 49.9966 25.6123 49.2966 25.9123C48.7966 26.1123 48.1966 26.3123 47.9966 26.9123C47.7966 27.3123 47.8965 27.8126 48.0965 28.2126C49.0965 30.5126 50.1966 32.7124 51.1966 35.0124C51.3966 35.4124 51.6966 35.8123 52.1966 35.9123C52.6966 36.0123 53.1965 35.8125 53.5965 35.6125C54.3965 35.2125 55.1966 34.9124 55.8966 34.5124C56.4966 34.2124 56.6966 33.5123 56.4966 32.9123C56.1966 32.1123 55.7966 31.4125 55.4966 30.6125C55.6966 30.5125 55.9966 30.4127 56.1966 30.3127C56.4966 31.0127 56.8966 31.8124 57.1966 32.5124C57.5966 33.4124 57.2966 34.5125 56.4966 35.1125C55.7966 35.5125 55.0966 35.8125 54.3966 36.1125C53.6966 36.4125 52.9966 36.9127 52.1966 36.8127C51.3966 36.8127 50.6966 36.2124 50.3966 35.5124C49.3966 33.3124 48.3966 31.1123 47.3966 28.9123C46.9966 28.2123 46.7966 27.3124 47.2966 26.5124C47.5966 25.8124 48.3966 25.5126 48.9966 25.2126C49.7966 24.8126 50.4966 24.4125 51.2966 24.1125Z" fill="white"/>
<path d="M90.4 24C90.6 24.1 90.9 24.2003 91.1 24.3003C90.4 25.8003 89.6 27.3003 88.9 28.8003C90 29.4003 91.1999 29.9 92.2999 30.5C93.5999 29.6 94.9 28.7002 96.2 27.7002C96.6 27.4002 97.2 27.4 97.7 27.5C97.6 27.7 97.4999 28.0001 97.2999 28.1001C96.9999 28.2001 96.5999 28.2 96.2999 28.5C95.0999 29.4 93.9 30.2001 92.7 31.1001C92.6 33.5001 92.5 35.9003 92.4 38.3003C92.1 38.1003 91.6 38.0001 91.7 37.6001C91.8 35.4001 91.9 33.3001 92 31.1001C90.9 30.5001 89.7 29.8999 88.5 29.3999C87.6 31.2999 86.7 33.1 85.7 35C85.5 34.9 85.2 34.8001 85 34.6001C86.9 31.1001 88.6 27.5 90.4 24Z" fill="white"/>
<path d="M116 39.3999C120.9 36.5999 125.8 33.8 130.7 31C132 33.2 133.3 35.5002 134.6 37.7002C135.1 38.6002 135.1 39.8001 134.4 40.6001C133.9 41.3001 133.1 41.6 132.4 42C131.5 42.4 130.7 43.1002 129.7 43.2002C129.1 43.2002 128.6 43.0003 128.1 42.8003C128.2 43.8003 127.7 44.9 126.8 45.5C125.7 46.2 124.6 46.7999 123.4 47.3999C122.2 48.0999 120.6 47.5999 119.9 46.3999C118.6 43.9999 117.3 41.6999 116 39.3999ZM124.7 35.7002C125.8 37.6002 126.8 39.4003 127.9 41.3003C128.5 41.9003 129.6 42.3003 130.4 41.8003C131.3 41.3003 132.2 40.8003 133.1 40.3003C133.8 39.9003 134 39.0003 133.6 38.3003C132.5 36.4003 131.4 34.5001 130.3 32.6001C128.4 33.6001 126.5 34.6002 124.7 35.7002ZM117.5 39.8999C118.5 41.6999 119.6 43.4999 120.6 45.3999C120.8 45.6999 121 46.1003 121.3 46.3003C121.7 46.6003 122.3 46.5999 122.8 46.3999C123.7 45.8999 124.6 45.3999 125.5 44.8999C126 44.5999 126.5 44.4003 126.8 43.8003C127.1 43.1003 127.2 42.3001 126.8 41.6001C125.8 39.9001 124.8 38.1003 123.8 36.3003C121.6 37.5003 119.6 38.6999 117.5 39.8999Z" fill="white"/>
<path d="M69.1127 36.0361C69.6127 35.9361 70.2127 36.036 70.6127 36.436C71.2127 37.036 71.0127 37.9362 71.1127 38.6362C70.9127 38.6362 70.7127 38.6362 70.6127 38.6362C70.5127 38.0362 70.6127 37.4359 70.3127 36.8359C70.1127 36.4359 69.6127 36.436 69.2127 36.436C68.6127 36.436 67.9127 36.5361 67.3127 36.5361C66.8127 36.6361 66.5127 37.1361 66.6127 37.5361C66.7127 39.2361 66.8128 40.9362 66.9128 42.6362C66.9128 43.0362 67.1127 43.5362 67.6127 43.6362C68.2127 43.7362 68.8128 43.5361 69.4128 43.5361C69.9128 43.5361 70.5127 43.436 70.7127 42.936C70.9127 42.336 70.6127 41.636 70.7127 40.936C70.9127 40.936 71.0127 40.8359 71.2127 40.8359C71.2127 41.7359 71.6127 42.7361 71.0127 43.5361C70.5127 44.1361 69.7127 44.0362 69.0127 44.1362C68.4127 44.1362 67.7127 44.3361 67.1127 44.0361C66.6127 43.8361 66.4128 43.3358 66.4128 42.7358C66.3128 41.0358 66.2127 39.2361 66.0127 37.5361C65.9127 36.8361 66.4127 36.1361 67.1127 36.0361C67.7127 36.1361 68.4127 36.0361 69.1127 36.0361Z" fill="white"/>
<path d="M88 50.5C90 48.7 91.9999 46.8 93.8999 45C93.9999 45.1 94.1 45.2999 94.2 45.3999C93.4 46.1999 92.6 46.8997 91.7 47.6997C92.3 48.2997 92.9 48.9996 93.5 49.5996C94.5 49.2996 95.5 49.0998 96.5 48.7998C96.9 48.6998 97.2 48.9 97.6 49C97.5 49.1 97.3999 49.1999 97.2999 49.3999C96.4999 49.2999 95.8 49.5998 95 49.7998C94.5 49.8998 94.1 49.9997 93.6 50.1997C92.9 51.6997 92.3 53.1997 91.7 54.6997C91.6 54.5997 91.3999 54.3998 91.2999 54.2998C91.8999 52.8998 92.5 51.5 93.1 50C92.5 49.4 91.8999 48.6996 91.2999 48.0996C90.2999 49.0996 89.3 49.9999 88.2 50.8999C88.2 50.6999 88.1 50.6 88 50.5Z" fill="white"/>
<path d="M44.2193 49.0637C44.8193 48.8637 45.4194 49.1637 45.9194 49.5637C47.2194 50.4637 48.5193 51.3635 49.8193 52.3635C50.4193 52.7635 50.6193 53.5638 50.3193 54.1638C50.0193 54.6638 49.6193 55.1638 49.3193 55.6638C49.0193 56.0638 48.7194 56.5638 48.1194 56.6638C47.6194 56.7638 47.1193 56.5639 46.7193 56.2639C45.3193 55.2639 44.0194 54.3635 42.6194 53.3635C42.2194 53.0635 41.9194 52.5637 42.0194 52.0637C42.0194 51.4637 42.5193 50.9636 42.8193 50.4636C43.2193 49.9636 43.5193 49.2637 44.2193 49.0637ZM44.4194 49.6638C44.0194 49.7638 43.8194 50.2637 43.5194 50.5637C43.2194 51.0637 42.8194 51.4636 42.6194 51.9636C42.4194 52.3636 42.7194 52.8637 43.1194 53.0637C44.4194 53.9637 45.7194 54.8635 47.0194 55.8635C47.3194 56.0635 47.6194 56.3639 48.0194 56.2639C48.5194 56.1639 48.7194 55.6635 48.9194 55.3635C49.2194 54.8635 49.6193 54.4636 49.8193 53.9636C50.0193 53.5636 49.7194 53.0635 49.4194 52.8635C48.2194 51.9635 46.9194 51.0638 45.6194 50.1638C45.3194 49.8638 44.9194 49.4638 44.4194 49.6638Z" fill="white"/>
<path d="M24.2617 55.1155C24.7617 54.9155 25.2617 55.0155 25.7617 55.1155C28.1617 55.7155 30.6617 56.4154 33.1617 57.0154C34.0617 57.2154 34.7617 58.1155 34.7617 59.1155C34.6617 59.9155 34.3617 60.7158 34.2617 61.4158C34.0617 62.2158 33.9617 63.1156 33.2617 63.7156C32.6617 64.3156 31.7617 64.3155 30.9617 64.1155C28.7617 63.5155 26.6617 63.0158 24.4617 62.4158C23.8617 62.2158 23.2617 62.1156 22.7617 61.7156C22.1617 61.2156 21.8617 60.3155 22.0617 59.6155C22.2617 58.6155 22.5618 57.6155 22.8618 56.6155C23.0618 55.9155 23.5617 55.3155 24.2617 55.1155ZM24.6617 55.8157C24.1617 55.9157 23.7617 56.3157 23.6617 56.8157C23.3617 57.8157 23.1617 58.7156 22.9617 59.7156C22.6617 60.5156 23.2617 61.3154 24.0617 61.5154C26.5617 62.1154 29.0617 62.8158 31.4617 63.4158C31.9617 63.6158 32.6617 63.3158 32.9617 62.9158C33.3617 62.2158 33.3617 61.4156 33.6617 60.7156C33.7617 60.0156 34.2618 59.2154 33.8618 58.5154C33.6618 58.0154 33.0617 57.8156 32.4617 57.7156C30.1617 57.1156 27.8617 56.5158 25.5617 55.9158C25.2617 55.8158 24.9617 55.7157 24.6617 55.8157Z" fill="white"/>
<path d="M108.1 59.5C111.9 58.7 115.7 57.8 119.6 57C120 58.8 120.4 60.6004 120.8 62.4004C121 63.2004 120.5 64.2004 119.7 64.4004C119.2 64.6004 118.6 64.7003 118 64.8003C117.5 64.9003 117 65.1004 116.5 64.9004C116.1 64.8004 115.7 64.5003 115.4 64.3003C115.2 64.9003 114.8 65.5002 114.2 65.7002C113.3 66.0002 112.4 66.1003 111.5 66.3003C110.9 66.5003 110.1 66.4004 109.7 65.9004C109.2 65.4004 109.1 64.7001 109 64.1001C108.7 62.6001 108.3 61.1001 108 59.6001C108 59.6001 108 59.5 108.1 59.5ZM114.5 58.9004C114.8 60.3004 115.1 61.7001 115.4 63.1001C115.5 63.6001 115.9 63.9001 116.3 64.1001C116.7 64.3001 117.2 64.1001 117.6 64.1001C118.2 64.0001 118.7 63.9002 119.3 63.7002C119.8 63.6002 120.1 63 120 62.5C119.7 61 119.3 59.5 119 58C117.5 58.2 116 58.6004 114.5 58.9004ZM108.8 60.1001C109.1 61.6001 109.5 63.2002 109.8 64.7002C109.9 65.2002 110.4 65.7001 110.9 65.6001C111.8 65.5001 112.6 65.2001 113.5 65.1001C114.3 65.0001 114.8 64.0002 114.6 63.2002C114.3 61.8002 114 60.5001 113.7 59.1001C112.1 59.4001 110.5 59.8001 108.8 60.1001Z" fill="white"/>
<path d="M12.925 69.0499C13.725 69.0499 14.725 68.8501 15.525 69.2501C16.525 69.6501 17.225 70.7502 17.325 71.8502C17.425 73.3502 17.525 74.8502 17.525 76.3502C17.625 77.6502 16.725 78.8501 15.525 79.2501C15.125 79.4501 14.625 79.4498 14.125 79.4498C10.525 79.6498 6.925 79.8499 3.325 80.0499C1.825 80.1499 0.425024 78.8502 0.225024 77.3502C0.125024 76.1502 0.124951 74.95 0.0249512 73.65C0.0249512 72.95 -0.0749512 72.1498 0.125049 71.4498C0.425049 70.5498 1.22502 69.85 2.22502 69.65C2.72502 69.55 3.22502 69.5499 3.72502 69.5499C6.72502 69.3499 9.82498 69.2499 12.925 69.0499ZM13.025 70.15C9.92495 70.35 6.82502 70.55 3.72502 70.65C3.22502 70.65 2.62505 70.6498 2.12505 70.9498C1.42505 71.2498 1.02495 72.0502 1.02495 72.8502C1.12495 74.3502 1.22502 75.7501 1.22502 77.2501C1.32502 78.3501 2.325 79.1499 3.325 79.0499C7.025 78.8499 10.725 78.6498 14.325 78.4498C15.325 78.4498 16.325 77.5498 16.225 76.4498C16.225 75.0498 16.025 73.55 16.025 72.15C16.025 71.45 15.625 70.7498 15.025 70.4498C14.525 69.9498 13.725 70.15 13.025 70.15Z" fill="white"/>
<path d="M96.6153 72C99.3153 72.4 101.915 72.8002 104.615 73.2002C104.415 74.4002 104.215 75.6999 104.015 76.8999C103.915 77.4999 103.315 77.9999 102.715 77.8999C102.115 77.7999 101.615 77.8001 101.015 77.6001C100.615 77.5001 100.315 77.1999 100.115 76.8999C99.8153 77.0999 99.4153 77.3999 99.0153 77.3999C98.3153 77.2999 97.6152 77.2001 96.9152 77.1001C96.3152 77.0001 95.9153 76.3003 96.0153 75.8003C96.2153 74.5003 96.4153 73.3 96.6153 72ZM96.6153 75.8003C96.5153 76.1003 96.8153 76.4 97.1153 76.5C97.7153 76.6 98.3152 76.7003 98.9152 76.8003C99.5152 76.9003 100.015 76.4003 100.015 75.8003C100.115 74.9003 100.315 74.0001 100.415 73.1001C99.3152 72.9001 98.2153 72.8001 97.0153 72.6001C96.9153 73.7001 96.7153 74.8003 96.6153 75.8003ZM100.915 73.2002C100.815 74.1002 100.615 75.1 100.515 76C100.415 76.5 100.715 77.0001 101.215 77.1001C101.715 77.2001 102.215 77.3003 102.815 77.3003C103.115 77.3003 103.415 77.1002 103.515 76.7002C103.715 75.7002 103.815 74.6001 104.015 73.6001C102.915 73.5001 101.915 73.4002 100.915 73.2002Z" fill="white"/>
<path d="M38 77.6001C40.5 76.7001 43.1 75.8 45.6 75C45.7 75.2 45.6999 75.3 45.7999 75.5C43.9999 76.1 42.1999 76.6999 40.3999 77.3999C39.7999 77.5999 39.1 77.8001 38.5 78.1001C38.7 78.1001 39 78.1997 39.2 78.1997C41.6 78.0997 43.8999 77.8997 46.2999 77.6997C46.2999 77.8997 46.3999 77.9997 46.3999 78.1997C44.6999 79.1997 42.9 80.1997 41.2 81.1997C40.7 81.4997 40.2 81.6997 39.7 82.1997C40.4 82.0997 41.1999 81.8997 41.8999 81.6997C43.6999 81.1997 45.4 80.7998 47.2 80.2998C47.3 80.4998 47.2999 80.5998 47.3999 80.7998C44.7999 81.4998 42.2 82.1999 39.6 82.8999C39.5 82.4999 39.4 82.0998 39.2 81.7998C41.2 80.5998 43.2999 79.4998 45.2999 78.2998C42.9999 78.3998 40.5999 78.5998 38.2999 78.7998C38.1999 78.3998 38.1 78.0001 38 77.6001Z" fill="white"/>
<path d="M124.5 85C129.2 87.9 133.9 90.7001 138.6 93.6001C139 93.8001 139.2 94.2998 139.1 94.7998C138.6 96.0998 138.1 97.4001 137.6 98.6001C137.5 98.9001 137.4 99.3 137 99.5C136.7 99.7 136.4 99.7001 136 99.6001C130.7 98.6001 125.3 97.6001 120 96.6001C120.1 96.3001 120.3 95.9001 120.4 95.6001C121.9 95.9001 123.4 96.1999 124.9 96.3999C125.9 93.6999 127 91.0999 128 88.3999C126.7 87.5999 125.4 86.8 124.1 86C124.3 85.7 124.4 85.3 124.5 85ZM126.1 96.6001C129.6 97.2001 133 97.9 136.4 98.5C136.9 97.2 137.4 95.8 138 94.5C135 92.6 132 90.8 129 89C128 91.6 127 94.1001 126.1 96.6001Z" fill="white"/>
<path d="M29 97.6997C32.1 95.1997 35.1 92.6 38.2 90C38.4 90.2 38.5 90.4001 38.7 90.6001C36 92.9001 33.3 95.0999 30.6 97.3999C30.4 97.5999 30.3 97.8 30.2 98C30.5 97.9 30.8 97.8001 31.1 97.6001C34.1 96.2001 37.2 94.8 40.2 93.5C40.4 93.4 40.5 93.2999 40.7 93.3999C40.9 93.5999 41 93.6999 41.2 93.8999C39.1 96.4999 36.9999 99.0997 34.7999 101.7C34.4999 102.1 34.1 102.4 34 103C34.2 102.9 34.5 102.8 34.7 102.6C37.6 100.6 40.3999 98.5 43.2999 96.5C43.4999 96.7 43.5999 96.9001 43.7999 97.1001C40.5999 99.4001 37.3 101.7 34.1 104C33.7 103.5 33.4 103.1 33 102.6C35.2 99.9001 37.4 97.3001 39.6 94.6001C36.4 96.0001 33.3 97.4999 30.1 98.8999C29.8 98.6999 29.4 98.1997 29 97.6997Z" fill="white"/>
<path d="M85.7 91.2998C85.9 91.1998 86 91.1 86.2 91C87.1 93.4 87.9 95.6996 88.8 98.0996C88.9 98.3996 89.1 98.6999 88.8 98.8999C88.2 99.2999 87.5 99.6996 86.8 100.1C86.5 100.3 86.2 99.9998 86 99.7998C84.4 97.8998 82.7 95.9996 81 94.0996C81.2 93.9996 81.3 93.8998 81.5 93.7998C82 94.3998 82.5 94.9 82.9 95.5C84.1 94.8 85.2 94.0999 86.4 93.3999C86.2 92.6999 85.9 91.9998 85.7 91.2998ZM83.3 95.7998C84.4 97.0998 85.5 98.2996 86.6 99.5996C87.2 99.2996 87.8 98.8996 88.4 98.5996C87.8 96.9996 87.3 95.4999 86.7 93.8999C85.5 94.4999 84.4 95.1998 83.3 95.7998Z" fill="white"/>
<path d="M103.6 91C106.1 93.9 108.6 96.8002 111.1 99.7002C111.4 100 111.5 100.4 111.2 100.7C110.6 101.5 109.9 102.4 109.2 103.2C109 103.6 108.5 103.5 108.1 103.3C104.7 101.5 101.4 99.6998 98 97.7998C98.2 97.5998 98.3 97.4002 98.5 97.2002C99.5 97.7002 100.4 98.2002 101.4 98.7002C102.6 97.1002 103.9 95.6 105.2 94C104.5 93.2 103.8 92.4 103.1 91.5C103.3 91.4 103.4 91.2 103.6 91ZM102.2 99.1001C104.4 100.3 106.5 101.4 108.7 102.6C109.3 101.8 110 101 110.6 100.2C109 98.3002 107.4 96.5001 105.8 94.6001C104.6 96.1001 103.3 97.6001 102.2 99.1001Z" fill="white"/>
<path d="M35.2001 112C35.5001 112.2 35.8001 112.4 36.1001 112.6C33.3001 117.1 30.4001 121.5 27.6001 126C27.7001 126.1 27.9 126.2 28 126.3C31.9 122.7 35.9 119.1 39.9 115.5C40.2 115.7 40.5 115.9 40.8 116.1C38.9 121.1 36.9 126.1 34.9 131C35 131.1 35.2 131.2 35.3 131.3C38.5 127.1 41.7 122.9 44.8 118.6C45.1 118.8 45.4001 119 45.7001 119.2C42.3001 123.7 38.9 128.3 35.5 132.8C34.8 132.3 34.2 131.9 33.5 131.4C35.2 127.1 36.9001 122.9 38.6001 118.6C38.7001 118.3 38.8 118 38.9 117.7C35.2 121 31.6 124.3 28 127.6C27.3 127.1 26.7 126.7 26 126.2C29.1 121.5 32.1001 116.7 35.2001 112Z" fill="white"/>
<path d="M48.5 143.224C49.4 142.824 50.7 142.924 51.3 143.824C51.9 144.824 51.9001 146.524 50.7001 147.224C51.2001 147.424 51.7 147.824 51.8 148.424C52 149.424 52 150.624 51.3 151.424C50.6 152.224 49.3 152.224 48.3 151.824C47.4 151.424 47.1 150.224 47 149.324C47.2 149.324 47.4001 149.324 47.6001 149.324C47.7001 149.924 47.8 150.624 48.3 151.124C48.8 151.624 49.6001 151.624 50.2001 151.424C50.9001 151.224 51.1001 150.424 51.2001 149.824C51.2001 149.124 51.2001 148.324 50.7001 147.824C50.2001 147.324 49.5 147.524 48.9 147.424C48.9 147.224 48.9 147.124 48.9 146.924C49.5 146.924 50.3001 147.024 50.7001 146.424C51.2001 145.624 51.1 144.424 50.4 143.824C49.8 143.324 48.7 143.424 48.3 144.124C48.1 144.524 48 145.024 47.9 145.524C47.7 145.524 47.5 145.524 47.3 145.524C47.5 144.724 47.7 143.624 48.5 143.224Z" fill="white"/>
<path d="M63.9 143C64.1 143 64.4 143 64.6 143C64.6 145.9 64.6 148.7 64.6 151.6C64.4 151.6 64.2 151.6 64 151.6C64 149.4 64 147.1 64 144.9C63.5 146.2 63.1 147.5 62.6 148.8C62.5 149 62.4 149.3 62.2 149.5C61.6 148 61.2 146.5 60.6 145C60.6 147.2 60.6 149.5 60.6 151.7C60.4 151.7 60.2 151.7 60 151.7C60 148.8 60 146 60 143.1C60.2 143.1 60.5 143.1 60.7 143.1C61.2 144.8 61.8 146.4 62.3 148.1C62.8 146.3 63.3 144.7 63.9 143Z" fill="white"/>
<path d="M70.7 143C70.9 143 71.1 143 71.3 143C71.3 145.9 71.4 148.7 71.3 151.6C71.1 151.6 70.9 151.6 70.7 151.6C70.7 149.2 70.7 146.8 70.7 144.4C69.6 146.8 68.7 149.2 67.6 151.6C67.4 151.6 67.2 151.6 67 151.6C67 148.7 67 145.9 67 143C67.2 143 67.4 143 67.6 143C67.6 145.4 67.6 147.8 67.6 150.2C68.7 147.8 69.7 145.4 70.7 143Z" fill="white"/>
<path d="M80.0444 143.1C80.2444 143.1 80.4444 143.1 80.6444 143.1C80.6444 145.5 80.5444 147.9 80.7444 150.3C81.7444 148 82.7444 145.7 83.6444 143.3C83.7444 143 84.1444 143.1 84.3444 143C84.3444 145.9 84.3444 148.7 84.3444 151.6C84.1444 151.6 83.9444 151.6 83.7444 151.6C83.7444 149.2 83.7444 146.7 83.7444 144.3C82.7444 146.7 81.6444 149.2 80.6444 151.6C80.4444 151.6 80.2444 151.6 80.0444 151.6C80.0444 148.8 79.9444 145.9 80.0444 143.1Z" fill="white"/>
<path d="M86 143C86.2 143 86.4 143 86.6 143C86.6 144.2 86.6 145.4 86.6 146.7C87.6 146.7 88.6 146.7 89.6 146.7C89.6 145.5 89.6 144.3 89.6 143C89.8 143 90 143 90.2 143C90.2 145.9 90.2 148.7 90.2 151.6C90 151.6 89.8 151.6 89.6 151.6C89.6 150.1 89.6 148.7 89.6 147.2C88.6 147.2 87.6 147.2 86.6 147.2C86.6 148.7 86.6 150.1 86.6 151.6C86.4 151.6 86.2 151.6 86 151.6C86 148.7 86 145.8 86 143Z" fill="white"/>
<path d="M92 143C92.2 143 92.4 143 92.6 143C93.1 144.3 93.6 145.5 94.1 146.8C94.3 146.8 94.5999 146.8 94.7999 146.8C94.7999 145.5 94.7999 144.3 94.7999 143C94.9999 143 95.1999 143 95.2999 143C95.2999 144.3 95.2999 145.5 95.2999 146.8C95.4999 146.8 95.8 146.8 96 146.8C96.5 145.5 97 144.3 97.5 143C97.7 143 97.9 143 98.2 143C97.7 144.3 97.2 145.5 96.7 146.8C96.6 147.1 96.6999 147.3 96.7999 147.6C97.2999 148.9 97.7999 150.3 98.2999 151.6C98.0999 151.6 97.9 151.6 97.7 151.6C97.2 150.2 96.7 148.7 96.2 147.3C95.9 147.3 95.6999 147.3 95.3999 147.3C95.3999 148.7 95.3999 150.2 95.3999 151.6C95.1999 151.6 94.9999 151.6 94.8999 151.6C94.8999 150.2 94.8999 148.7 94.8999 147.3C94.5999 147.3 94.4 147.3 94.1 147.3C93.6 148.7 93.1 150.2 92.6 151.6C92.4 151.6 92.2 151.6 92 151.6C92.5 150.3 93 148.9 93.5 147.6C93.6 147.4 93.7 147.1 93.6 146.8C93 145.5 92.5 144.2 92 143Z" fill="white"/>
<path d="M99 143C100.5 143 102.1 143 103.6 143C103.6 143.2 103.6 143.4 103.6 143.5C102.3 143.5 101 143.5 99.7 143.5C99.7 144.6 99.7 145.7 99.7 146.8C100.9 146.7 102.1 146.8 103.3 146.8C103.3 147 103.3 147.2 103.3 147.4C102.1 147.4 100.9 147.4 99.7 147.4C99.7 148.6 99.7 149.9 99.7 151.1C101.1 151.1 102.4 151.1 103.8 151.1C103.8 151.3 103.8 151.5 103.8 151.6C102.2 151.6 100.6 151.6 99.1 151.6C99 148.8 99 145.9 99 143Z" fill="white"/>
<path d="M105.1 143C105.3 143 105.5 143 105.7 143C105.7 144.2 105.7 145.4 105.7 146.7C106.7 146.7 107.7 146.7 108.7 146.7C108.7 145.5 108.7 144.2 108.7 143C108.9 143 109.1 143 109.3 143C109.3 145.9 109.3 148.7 109.3 151.6C109.1 151.6 108.9 151.6 108.7 151.6C108.7 150.1 108.7 148.7 108.7 147.2C107.7 147.2 106.7 147.2 105.7 147.2C105.7 148.7 105.7 150.1 105.7 151.6C105.5 151.6 105.3 151.6 105 151.6C105 148.8 105 145.9 105.1 143Z" fill="white"/>
<path d="M112 143C113.5 143 115.1 143 116.6 143C116.6 143.2 116.6 143.4 116.6 143.6C115.3 143.6 113.9 143.6 112.6 143.6C112.6 144.7 112.6 145.8 112.6 146.8C113.8 146.8 115 146.8 116.2 146.8C116.2 147 116.2 147.2 116.2 147.3C115 147.3 113.8 147.3 112.6 147.3C112.6 148.5 112.7 149.8 112.6 151C114 151 115.3 150.9 116.7 151C116.7 151.2 116.7 151.4 116.7 151.6C115.1 151.6 113.6 151.6 112 151.6C112 148.8 112 145.9 112 143Z" fill="white"/>
<path d="M118 143C118.9 143 119.8 143 120.7 143C121.3 143 121.9 143.2 122.2 143.7C122.7 144.4 122.7 145.3 122.6 146.1C122.5 146.9 122 147.7 121.1 147.9C120.3 148 119.5 147.9 118.7 148C118.7 149.2 118.7 150.4 118.7 151.6C118.5 151.6 118.3 151.6 118.1 151.6C118.1 148.7 118.1 145.9 118 143ZM118.7 143.5C118.7 144.8 118.8 146.1 118.7 147.4C119.4 147.4 120.2 147.5 120.9 147.3C121.7 147.1 121.9 146.3 121.9 145.6C121.9 144.9 121.9 144 121.2 143.7C120.5 143.4 119.5 143.6 118.7 143.5Z" fill="white"/>
<path d="M126.3 143.311C126.3 142.911 126.8 143.011 127.1 143.011C128 145.911 128.8 148.711 129.7 151.611C129.5 151.611 129.2 151.611 129 151.611C128.8 150.711 128.5 149.911 128.3 149.011C127.3 149.011 126.4 149.011 125.4 149.011C125.2 149.911 124.9 150.711 124.7 151.611C124.5 151.611 124.2 151.611 124 151.611C124.6 148.811 125.4 146.111 126.3 143.311ZM126.7 143.811C126.3 145.311 125.8 146.911 125.4 148.411C126.3 148.411 127.1 148.411 128 148.411C127.6 146.911 127.1 145.411 126.7 143.811Z" fill="white"/>
<path d="M29 143C30.5 143 31.9 143 33.4 143C33.4 143.2 33.4 143.4 33.4 143.5C32.1 143.5 30.9 143.5 29.6 143.5C29.6 146.2 29.6 148.9 29.6 151.5C29.4 151.5 29.2 151.5 29 151.5C29 148.7 29 145.8 29 143Z" fill="white"/>
<path d="M35.5 143C36.7 143 37.8 143 39 143C39 145.9 39 148.7 39 151.6C38.8 151.6 38.6 151.6 38.4 151.6C38.4 148.9 38.4 146.2 38.4 143.6C37.6 143.6 36.9 143.6 36.1 143.6C36 145.4 36.1 147.2 35.9 149C35.8 149.8 35.6 150.7 35.1 151.3C34.8 151.6 34.4 151.6 34 151.7C34 151.5 34 151.3 34 151.1C34.3 151 34.6 151 34.8 150.7C35.2 150.1 35.3 149.4 35.3 148.7C35.5 146.8 35.4 144.9 35.5 143Z" fill="white"/>
<path d="M43.4 143.011C43.7 143.011 44.2001 142.911 44.2001 143.311C45.0001 146.111 45.9001 148.811 46.7001 151.611C46.5001 151.611 46.2 151.611 46 151.611C45.8 150.711 45.5 149.911 45.3 149.011C44.3 149.011 43.4 149.011 42.4 149.011C42.2 149.911 41.9001 150.711 41.7001 151.611C41.5001 151.611 41.2 151.611 41 151.611C41.7 148.811 42.5 145.911 43.4 143.011ZM43.7001 143.911C43.3001 145.411 42.9 147.011 42.4 148.511C43.3 148.511 44.1 148.511 45 148.511C44.6 146.911 44.2001 145.411 43.7001 143.911Z" fill="white"/>
<path d="M55.3 143C55.6 143 55.8 143 56.1 143C57 145.9 57.8001 148.7 58.7001 151.6C58.5001 151.6 58.2 151.6 58 151.6C57.8 150.7 57.5 149.9 57.3 149C56.3 149 55.4 149 54.4 149C54.2 149.9 53.9001 150.7 53.7001 151.6C53.5001 151.6 53.2 151.6 53 151.6C53.6 148.7 54.5 145.8 55.3 143ZM54.4 148.4C55.3 148.4 56.1 148.4 57 148.4C56.6 146.8 56.1001 145.3 55.7001 143.7C55.3001 145.2 54.8 146.8 54.4 148.4Z" fill="white"/>
<path d="M39 17.2998C48.2 11.5998 58.8 8.4 69.6 8C69.6 8.3 69.5 8.5999 69.5 8.8999C59 9.2999 48.6 12.5 39.6 18C39.4 17.8 39.2 17.5998 39 17.2998Z" fill="#10A19A"/>
<path d="M93.2 12C103.4 15.6 112.7 21.9001 119.9 30.1001C119.6 30.3001 119.4 30.5001 119.1 30.6001C112.1 22.6001 103.1 16.4004 93 12.9004C93 12.6004 93.1 12.3 93.2 12Z" fill="#10A19A"/>
<path d="M61 27.279C68.4 25.479 76.2 25.5788 83.5 27.5788C83.4 27.7788 83.3 27.9789 83.2 28.1789C76 26.1789 68.4 26.0786 61.2 27.8786C61.2 27.6786 61.1 27.479 61 27.279Z" fill="#10A19A"/>
<path d="M21 33C21.2 33.2 21.5 33.4001 21.7 33.6001C15.4 42.0001 11.3 51.9999 9.90002 62.3999C9.60002 62.3999 9.3 62.3998 9 62.2998C10.4 51.6998 14.6 41.5 21 33Z" fill="#10A19A"/>
<path d="M31 52.0996C34.2 45.2996 39.2 39.4 45.4 35C45.5 35.2 45.6 35.3996 45.7 35.5996C39.7 39.8996 34.8 45.6999 31.6 52.3999C31.5 52.2999 31.2 52.1996 31 52.0996Z" fill="#10A19A"/>
<path d="M98.2743 35C104.374 39.6 109.274 45.8999 112.274 52.8999C112.074 52.9999 111.874 53.0001 111.674 53.1001C108.774 46.3001 104.074 40.3003 98.1743 35.8003C97.7743 35.6003 98.1743 35.3 98.2743 35Z" fill="#10A19A"/>
<path d="M75 41C80.1 41.6 85.1 43.4996 89.2 46.5996C89.1 46.6996 89 46.7999 88.9 46.8999C84.9 43.9999 80.3 42.1 75.4 41.5C75.1 41.5 75.1 41.2 75 41Z" fill="#10A19A"/>
<path d="M55.8 44.1001C58.2 42.7001 60.7 41.6 63.3 41C63.3 41.1 63.2 41.3 63.2 41.5C58.5 42.8 54.1 45.2 50.6 48.5C50.4 48.7 50.2 48.5 50 48.5C51.8 46.8 53.8 45.4001 55.8 44.1001Z" fill="#10A19A"/>
<path d="M130 50.3999C130.3 50.2999 130.6 50.1 130.8 50C134.4 60.1 135.3 71.1998 133.4 81.7998C133.1 81.6998 132.8 81.6 132.5 81.5C134.3 71.2 133.5 60.2999 130 50.3999Z" fill="#10A19A"/>
<path d="M96 54.2998C96.1 54.1998 96.3 54.1 96.4 54C99.1 58.4 100.7 63.5002 101 68.7002C100.8 68.7002 100.7 68.7002 100.5 68.7002C100.2 63.6002 98.7 58.5998 96 54.2998Z" fill="#10A19A"/>
<path d="M43.7345 58C43.8345 58.1 44.0345 58.1997 44.1345 58.1997C41.9345 62.9997 41.1345 68.3001 41.6345 73.6001C41.4345 73.6001 41.3345 73.5997 41.1345 73.6997C40.6345 68.2997 41.5345 62.8 43.7345 58Z" fill="#10A19A"/>
<path d="M27.0895 68C27.2895 68 27.4895 68.1001 27.7895 68.1001C27.2895 75.9001 28.8895 83.7002 32.3895 90.7002C32.1895 90.8002 31.9895 90.9 31.7895 91C28.1895 84 26.5895 75.9 27.0895 68Z" fill="#10A19A"/>
<path d="M114.9 70.0996C115.1 70.0996 115.3 70 115.6 70C115.8 77.6 114.1 85.1999 110.5 91.8999C110.3 91.7999 110.1 91.6 110 91.5C113.4 85 115.2 77.4996 114.9 70.0996Z" fill="#10A19A"/>
<path d="M99.2001 80C99.4001 80 99.5001 80.0001 99.7001 80.1001C98.0001 85.0001 95.1001 89.4003 91.2001 92.8003C91.1001 92.7003 91 92.5004 91 92.4004C94.7 89.0004 97.6001 84.7 99.2001 80Z" fill="#10A19A"/>
<path d="M44 84.2002C44.1 84.1002 44.3 84.1 44.4 84C46.6 88.1 49.7 91.7004 53.5 94.4004C57.9 97.5004 63.1 99.4002 68.5 99.7002C72.6 100 76.7 99.4 80.6 98C80.6 98.1 80.6999 98.3004 80.7999 98.4004C76.0999 100.1 70.9 100.6 66 99.8003C60.9 99.0003 56 96.9002 52 93.7002C48.7 91.2002 45.9 87.9002 44 84.2002Z" fill="#10A19A"/>
<path d="M10 86.1001C10.3 86.0001 10.6 86 10.9 86C13.5 96.7 19.1 106.7 26.9 114.5C26.7 114.7 26.5 115 26.3 115.2C18.4 107.2 12.6 97.0001 10 86.1001Z" fill="#10A19A"/>
<path d="M42 104.5C42.2 104.3 42.3 104.2 42.5 104C49.4 110.2 58.3 114.1 67.6 114.9C75.7 115.7 83.9001 114.1 91.2001 110.5C94.4001 108.9 97.4 106.9 100.1 104.6C100.3 104.7 100.4 104.9 100.6 105C95.6 109.3 89.6001 112.5 83.2001 114.2C74.5001 116.6 65 116.2 56.5 113.1C51.2 111.2 46.2 108.3 42 104.5Z" fill="#10A19A"/>
<path d="M124.5 104C124.8 104.1 125.1 104.2 125.4 104.4C120.1 112.9 112.8 120.2 104.2 125.4C94.7 131.1 83.7999 134.2 72.7 134.4C63.6 134.6 54.4 132.7 46 129C46.1 128.7 46.3 128.4 46.4 128.2C53.1 131.2 60.4 133 67.7 133.4C79.7 134.2 91.9 131.3 102.4 125.4C111.4 120.1 119.1 112.7 124.5 104Z" fill="#10A19A"/>
<path d="M79.7001 155.9C79.9001 155.6 79.9 155.1 80.3 155C80.2 155.8 79.8 156.5 79.5 157.2C79.1 158.2 78.8 159.3 78.3 160.2C78.2 160.2 78.1 160.3 78 160.3C78.5 158.8 79.2001 157.4 79.7001 155.9Z" fill="#10A19A"/>
<path d="M56.6 156C56.7 155.6 56.8 155.2 57.2 155C56.8 156.5 56.1 157.9 55.6 159.4C55.4 159.7 55.4 160.2 55 160.4C55.4 158.9 56 157.5 56.6 156Z" fill="#10A19A"/>
<path d="M110.7 155.062C111.4 154.862 112.2 155.161 112.5 155.761C112.8 156.361 112.7 157.061 112.6 157.761C112.5 158.461 112.2 159.162 111.5 159.462C111 159.662 110.3 159.562 110.1 159.062C109.8 158.262 110.2 157.161 111 156.761C111.4 156.561 111.8 156.761 112.2 156.761C112.1 156.361 112.1 155.962 111.8 155.562C111.6 155.362 111.1 155.262 110.7 155.062ZM111.2 157.062C110.6 157.362 110.5 158.262 110.6 158.862C110.7 159.262 111.1 159.461 111.4 159.161C111.9 158.761 112.1 158.062 112.1 157.362C112 157.062 111.5 156.862 111.2 157.062Z" fill="#B1B3B1"/>
<path d="M28.8 157.105C29.4 157.005 30.2 156.805 30.5 157.505C30.7 158.305 30.4 159.205 29.8 159.705C29.3 160.005 28.6 159.905 28 159.605C28.1 159.505 28.3 159.305 28.4 159.205C28.7 159.405 28.9001 159.705 29.2001 159.605C29.7001 159.505 29.8 159.005 29.9 158.605C29.5 158.605 29.1 158.605 28.6 158.605C28.8 158.105 29.5 158.405 29.9 158.305C29.9 158.005 30 157.605 29.8 157.405C29.2 157.105 28.8 157.705 28.3 158.005C28.5 157.705 28.5 157.405 28.8 157.105Z" fill="#B1B3B1"/>
<path d="M34.1253 159.444C33.7253 158.444 34.3252 157.244 35.3252 157.044C35.6252 156.944 36.0252 157.044 36.3252 157.044C36.3252 157.444 36.3253 157.745 36.1253 158.145C35.9253 157.845 35.9252 157.245 35.4252 157.245C34.6252 157.445 34.3253 158.445 34.6253 159.145C35.0253 159.745 35.7253 159.345 36.2253 159.145C35.9253 159.945 34.6253 160.144 34.1253 159.444Z" fill="#B1B3B1"/>
<path d="M40.8 157C41 157 41.2 157 41.4 157C41 157.9 40.5 158.7 40 159.6C39.7 160.1 39.4 160.6 38.9 160.9C38.6 161.1 38.3 161 38 160.9C38.1 160.8 38.2 160.6 38.4 160.5C38.8 160.6 39.3 160.6 39.4 160.1C39.5 159.2 39.2 158.4 39.1 157.5C38.9 157.4 38.8 157.3 38.6 157.3C38.9 157.2 39.2 157.1 39.5 157.1C39.7 157.8 39.8 158.6 39.9 159.4C40.2 158.5 40.6 157.8 40.8 157Z" fill="#B1B3B1"/>
<path d="M42.8999 157.283C43.1999 157.083 43.6 156.883 44 157.083C44.4 157.183 44.4999 157.583 44.3999 157.883C44.3999 158.583 43.9999 159.383 43.3999 159.683C42.9999 159.883 42.6 159.883 42.2 159.783C42.2 159.983 42.1 160.283 42.1 160.583C42.3 160.583 42.5 160.683 42.7 160.683C42.7 160.783 42.6 160.883 42.6 160.883C42.1 160.883 41.6 160.883 41 160.883C41.2 160.683 41.6 160.583 41.6 160.283C41.8 159.383 42 158.483 42.2 157.483C42 157.383 41.9 157.283 41.7 157.183C42.1 157.083 42.5999 156.983 42.8999 157.283ZM43 157.583C42.5 157.983 42.4999 158.783 42.2999 159.383C42.5999 159.483 42.9999 159.683 43.2999 159.383C43.6999 158.983 43.8999 158.283 43.7999 157.783C43.7999 157.383 43.3 157.283 43 157.583Z" fill="#B1B3B1"/>
<path d="M45.325 157.761C45.725 157.161 46.725 156.761 47.425 157.161C47.425 157.461 47.3249 157.861 47.2249 158.161C47.1249 157.861 47.025 157.561 46.825 157.361C46.525 157.161 46.125 157.361 45.925 157.661C45.625 158.061 45.5249 158.561 45.6249 159.061C45.7249 159.361 46.025 159.661 46.425 159.561C46.725 159.461 47.025 159.361 47.325 159.261C46.925 159.861 46.025 160.061 45.425 159.661C44.825 159.161 44.925 158.261 45.325 157.761Z" fill="#B1B3B1"/>
<path d="M62.1689 159.418C61.5689 158.318 62.669 156.818 63.869 157.018C64.469 157.018 64.669 157.718 64.369 158.218C63.769 158.418 63.169 158.318 62.569 158.418C62.569 158.818 62.569 159.318 62.969 159.518C63.469 159.718 63.869 159.418 64.369 159.318C63.869 160.018 62.5689 160.218 62.1689 159.418ZM63.369 157.318C62.969 157.418 62.8689 157.818 62.6689 158.118C63.0689 158.118 63.469 158.118 63.869 158.018C63.869 157.818 63.869 157.618 63.869 157.418C63.669 157.418 63.469 157.318 63.369 157.318Z" fill="#B1B3B1"/>
<path d="M82.5 158.016C82.6 157.616 82.6 157.016 83.1 157.016C83.5 157.016 84.0999 156.916 84.3999 157.216C84.6999 157.616 84.2999 158.116 83.8999 158.316C84.1999 158.516 84.4999 158.816 84.2999 159.116C83.8999 159.916 82.7 159.916 82 159.516C82.1 159.316 82.2999 159.216 82.3999 159.116C82.6999 159.316 82.8999 159.616 83.2999 159.516C83.6999 159.516 84 158.916 83.6 158.616C83.3 158.516 83 158.416 82.7 158.416C83 158.316 83.3 158.316 83.6 158.116C83.9 157.916 83.7999 157.516 83.7999 157.316C83.2999 157.116 82.9 157.616 82.5 158.016Z" fill="#B1B3B1"/>
<path d="M85.3 157.165C85.8 156.865 86.4 157.065 87 157.065C86.8 157.765 86.6 158.566 86.4 159.366C86.5 159.466 86.7 159.565 86.8 159.665C86.5 159.765 86.3 159.866 86 159.866C85.9 159.766 85.8 159.565 85.7 159.465C85.3 159.665 84.9 159.966 84.4 159.866C84.1 159.766 84.1 159.465 84 159.265C84.2 158.365 84.6 157.565 85.3 157.165ZM85.3 157.565C84.9 157.965 84.7 158.565 84.8 159.165C84.9 159.565 85.4 159.465 85.6 159.265C86.1 158.765 86.2 158.066 86.3 157.366C86 157.266 85.5 157.265 85.3 157.565Z" fill="#B1B3B1"/>
<path d="M95.2 157.436C95.5 157.236 95.8999 156.936 96.2999 157.036C96.5999 157.036 96.6 157.336 96.7 157.436C97.1 157.036 97.6 156.936 98.2 157.036C98.3 157.836 97.9999 158.536 97.8999 159.236C97.9999 159.436 98.0999 159.536 98.2999 159.736C97.9999 159.736 97.5999 159.736 97.2999 159.736C97.2999 158.936 97.7 158.236 97.6 157.436C97.4 157.436 97.0999 157.436 96.8999 157.636C96.3999 158.136 96.3 159.036 96.2 159.736C96 159.736 95.8 159.836 95.6 159.836C95.7 159.036 96.0999 158.236 95.8999 157.436C95.5999 157.436 95.2 157.536 95.1 157.936C94.8 158.536 94.8 159.136 94.6 159.836C94.4 159.836 94.2 159.836 94 159.936C94.2 159.236 94.4 158.436 94.5 157.736C94.4 157.536 94.3 157.436 94.2 157.336C94.5 157.336 94.8 157.236 95.1 157.236C95.2 157.136 95.2 157.336 95.2 157.436Z" fill="#B1B3B1"/>
<path d="M107.098 157.125C107.498 156.925 107.998 157.025 108.498 157.025C108.498 157.425 108.398 157.725 108.298 158.125C108.098 157.825 107.998 157.525 107.898 157.225C106.898 157.125 106.398 158.425 106.798 159.225C107.198 159.725 107.898 159.325 108.298 159.125C107.898 159.825 106.798 160.025 106.198 159.425C105.698 158.725 106.198 157.425 107.098 157.125Z" fill="#B1B3B1"/>
<path d="M113.159 159.366C112.559 158.166 113.759 156.666 115.059 157.066C115.559 157.166 115.559 157.766 115.459 158.166C114.859 158.266 114.259 158.266 113.559 158.266C113.559 158.666 113.459 159.166 113.859 159.366C114.359 159.566 114.859 159.266 115.259 159.166C114.959 159.966 113.559 160.166 113.159 159.366ZM114.359 157.366C114.059 157.466 113.859 157.866 113.659 158.166C114.059 158.166 114.559 158.166 114.959 158.066C114.959 157.866 114.959 157.666 114.959 157.466C114.659 157.366 114.459 157.266 114.359 157.366Z" fill="#B1B3B1"/>
<path d="M116.3 157.42C116.6 157.22 117 157.02 117.4 157.02C117.6 157.02 117.7 157.32 117.8 157.42C118.1 157.22 118.4 156.92 118.8 157.02C119 157.02 119.3 157.12 119.3 157.42C119.2 158.12 119 158.72 118.9 159.42C119.1 159.52 119.2 159.52 119.4 159.62C119.1 159.82 118.7 159.82 118.3 159.82C118.3 159.02 118.7 158.22 118.6 157.42C118.3 157.52 118 157.52 117.8 157.82C117.4 158.42 117.4 159.12 117.2 159.72C117 159.72 116.8 159.72 116.6 159.82C116.8 159.02 117.1 158.32 117 157.52C116.7 157.52 116.3 157.62 116.1 157.92C115.8 158.52 115.7 159.12 115.6 159.82C115.4 159.82 115.2 159.82 115 159.92C115.2 159.12 115.3 158.32 115.5 157.62C115.4 157.52 115.1 157.42 115 157.42C115.3 157.32 115.6 157.22 115.9 157.12C116.2 157.22 116.2 157.32 116.3 157.42Z" fill="#B1B3B1"/>
<path d="M31.1 157.2C31.4 157 31.8 157 32.2 157C32.1 157.4 32 157.8 32 158.2C32.3 158 32.4999 157.9 32.7999 157.7C32.9999 157.6 32.8999 157.3 32.8999 157.1C33.2999 157.1 33.6 157.1 34 157.1C33.5 157.5 33 157.9 32.5 158.3C32.8 158.8 33.1 159.4 33.6 159.7C33.4 159.8 33.0999 159.8 32.7999 159.8C32.3999 159.4 32.1999 158.9 31.8999 158.4C31.7999 158.8 31.7 159.3 31.6 159.7C31.4 159.7 31.2 159.7 31 159.8C31.2 159 31.3 158.2 31.5 157.5C31.5 157.4 31.2 157.3 31.1 157.2Z" fill="#B1B3B1"/>
<path d="M36.1 157.1C36.4 157 36.8 157 37.1 157C37 157.4 36.8999 157.8 36.8999 158.3C37.1999 158.1 37.4999 157.9 37.7999 157.6C37.7999 157.4 37.7999 157.2 37.7999 157.1C38.1999 157.1 38.4999 157.1 38.8999 157.1C38.3999 157.5 37.8999 157.9 37.3999 158.3C37.6999 158.8 37.9 159.5 38.6 159.6C38.3 159.7 38.0999 159.8 37.7999 159.8C37.4999 159.3 37.1999 158.9 36.8999 158.4C36.7999 158.8 36.7 159.3 36.6 159.7C36.4 159.7 36.2 159.7 36 159.8C36.2 159 36.3 158.3 36.5 157.5C36.4 157.4 36.2 157.2 36.1 157.1Z" fill="#B1B3B1"/>
<path d="M48 157.1C48.3 157.1 48.7 157 49 157C48.9 157.8 48.6 158.5 48.6 159.3C48.9 159.3 49.1999 159.3 49.3999 159.1C49.8999 158.6 49.9 157.8 50 157.1C50.2 157.1 50.4 157 50.6 157C50.5 157.7 50.3 158.5 50.2 159.2C50.3 159.4 50.4 159.5 50.6 159.6C50.3 159.6 50 159.7 49.7 159.7C49.7 159.6 49.7 159.4 49.7 159.2C49.3 159.5 48.7 159.8 48.2 159.6C48 158.9 48.3999 158.2 48.3999 157.4C48.1999 157.4 48.1 157.2 48 157.1Z" fill="#B1B3B1"/>
<path d="M51 157.2C51.3 157.1 51.7 157 52.1 157C52 157.8 51.7 158.5 51.7 159.3C52 159.3 52.3 159.4 52.5 159.2C53.1 158.7 53 157.8 53.2 157.1C53.4 157.1 53.5999 157.1 53.7999 157C53.5999 157.8 53.4999 158.5 53.2999 159.3C53.4999 159.4 53.5999 159.4 53.7999 159.5C53.3999 159.7 52.8 159.9 52.7 159.3C52.4 159.5 52 159.7 51.6 159.7C51.4 159.7 51.2 159.5 51.2 159.2C51.3 158.6 51.4 158 51.6 157.4C51.3 157.4 51.2 157.3 51 157.2Z" fill="#B1B3B1"/>
<path d="M59 157.1C59.7 157 60.5 157 61.2 157C61 157.8 60.9 158.5 60.7 159.3C60.9 159.4 61 159.4 61.2 159.5C60.9 159.7 60.5 159.7 60.1 159.7C60.2 158.9 60.4 158.1 60.6 157.3C60.4 157.3 60.1999 157.3 59.8999 157.3C59.5999 158.1 59.4999 158.9 58.8999 159.5C58.6999 159.8 58.3 159.7 58 159.7C58.1 159.5 58.1 159.4 58.2 159.2C58.4 159.1 58.5999 159.1 58.7999 159C59.1999 158.5 59.1999 157.9 59.3999 157.4C59.3999 157.4 59.2 157.3 59 157.1Z" fill="#B1B3B1"/>
<path d="M65 157.1C65.3 157.1 65.7 157 66 157C65.9 157.4 65.7999 157.8 65.7999 158.2C66.0999 158 66.4 157.8 66.7 157.5C66.7 157.3 66.7 157.1 66.7 157C67.1 157 67.3999 157 67.7999 157C67.2999 157.4 66.7999 157.8 66.2999 158.2C66.5999 158.7 66.9 159.4 67.5 159.6C67.2 159.7 66.9 159.8 66.7 159.7C66.4 159.3 66.1999 158.8 65.8999 158.4C65.7999 158.8 65.7 159.3 65.6 159.7C65.4 159.7 65.2 159.7 65 159.8C65.2 159.1 65.4 158.3 65.5 157.6C65.3 157.4 65.1 157.2 65 157.1Z" fill="#B1B3B1"/>
<path d="M68 157.1C68.3 157.1 68.7 157 69 157C68.8 157.8 68.6001 158.5 68.6001 159.3C68.9001 159.3 69.3 159.3 69.5 159.1C70 158.5 69.9001 157.8 70.1001 157.1C70.3001 157.1 70.5001 157.1 70.7001 157C70.5001 157.8 70.3001 158.6 70.2001 159.4C70.5001 159.3 70.7 159.2 70.9 159.1C70.7 159.6 70.7001 160 70.6001 160.5C70.5001 161 70.0001 161.1 69.6001 161.3C70.0001 160.8 70.2 160.2 70.3 159.6C70.1 159.6 69.9001 159.7 69.7001 159.7C69.7001 159.5 69.6001 159.4 69.6001 159.2C69.3001 159.4 68.9 159.7 68.4 159.7C68.2 159.7 68 159.6 68 159.3C68 158.7 68.2 158.1 68.3 157.5C68.2 157.4 68.1 157.2 68 157.1Z" fill="#B1B3B1"/>
<path d="M71 157.2C71.3 157.1 71.7 157 72.1 157C72 157.8 71.7 158.5 71.7 159.3C72 159.3 72.3 159.4 72.5 159.1C73.1 158.6 73 157.7 73.2 157C73.4 157 73.6 157 73.8 157C73.6 157.8 73.5 158.6 73.3 159.3C73.4 159.3 73.7 159.4 73.8 159.5C73.5 159.7 73.2 159.7 72.9 159.8C72.9 159.6 72.8 159.5 72.8 159.3C72.4 159.6 72 159.9 71.5 159.7C71.2 159.6 71.2 159.3 71.2 159.1C71.3 158.5 71.4 158 71.5 157.4C71.3 157.4 71.2 157.3 71 157.2Z" fill="#B1B3B1"/>
<path d="M74 157.1C74.3 157.1 74.6 157 75 157C74.9 157.8 74.6 158.5 74.6 159.3C74.9 159.3 75.2 159.4 75.5 159.1C76 158.6 76 157.7 76.2 157C76.4 157 76.5999 157 76.7999 157C76.6999 157.8 76.4999 158.5 76.2999 159.3C76.3999 159.4 76.5999 159.5 76.7999 159.6C76.5999 159.7 76.4 159.8 76.1 159.8C75.8 159.9 75.8 159.5 75.7 159.4C75.4 159.6 75 159.9 74.6 159.8C74.3 159.8 74.1 159.6 74.2 159.3C74.2 158.7 74.5 158.2 74.5 157.6C74.2 157.4 74.1 157.2 74 157.1Z" fill="#B1B3B1"/>
<path d="M88.1 157.2C88.4 157.1 88.8 157.1 89.1 157C89 157.4 88.8999 157.8 88.8999 158.2C89.2999 158.2 89.6 158.2 90 158.2C90.1 157.8 90.1 157.4 90.2 157.1C90.4 157.1 90.5999 157.1 90.7999 157C90.5999 157.8 90.4999 158.5 90.2999 159.3C90.3999 159.4 90.6 159.5 90.7 159.7C90.4 159.8 90 159.8 89.7 159.8C89.7 159.4 89.7999 158.9 89.8999 158.5C89.4999 158.5 89.1999 158.5 88.7999 158.5C88.6999 158.9 88.6 159.3 88.6 159.7C88.4 159.7 88.2 159.8 88 159.8C88.2 159.1 88.3 158.4 88.5 157.7C88.6 157.4 88.3 157.3 88.1 157.2Z" fill="#B1B3B1"/>
<path d="M91.3 157.216C91.8 156.916 92.5 157.016 93 157.016C92.8 157.816 92.7 158.516 92.5 159.316C92.7 159.416 92.8 159.416 93 159.516C92.7 159.716 92.3 159.716 91.9 159.716C91.9 159.316 92 158.916 92 158.516C91.6 158.816 91.3 159.216 91 159.616C90.7 159.916 90.3 159.716 90 159.716C90.5 159.416 90.9 159.016 91.3 158.616C91.1 158.516 90.9 158.416 90.8 158.216C90.7 157.816 90.9 157.416 91.3 157.216ZM91.4 157.916C91.4 158.416 91.9 158.416 92.2 158.516C92.3 158.116 92.4 157.716 92.4 157.316C91.9 157.216 91.4 157.416 91.4 157.916Z" fill="#B1B3B1"/>
<path d="M99 157.2C99.3 157.1 99.7001 157 100.1 157C100 157.8 99.7001 158.5 99.7001 159.3C100 159.3 100.3 159.4 100.5 159.1C101.1 158.6 101 157.7 101.2 157C101.4 157 101.6 157 101.8 157C101.7 157.7 101.5 158.4 101.4 159.1C101.3 159.4 101.6 159.5 101.8 159.7C101.5 159.7 101.3 159.8 101 159.8C101 159.6 100.9 159.5 100.9 159.3C100.6 159.5 100.2 159.8 99.7001 159.8C99.4001 159.8 99.3 159.5 99.3 159.3C99.3 158.7 99.5001 158.1 99.6001 157.5C99.3001 157.4 99.1 157.3 99 157.2Z" fill="#B1B3B1"/>
<path d="M101.8 157.526C102.3 156.826 103.2 157.026 103.9 157.026C103.7 157.726 103.5 158.527 103.5 159.227C103.6 159.427 103.7 159.527 103.9 159.727C103.6 159.727 103.3 159.727 102.9 159.727C102.9 159.327 103 158.926 103 158.526C102.6 158.826 102.3 159.227 102 159.627C101.7 159.927 101.3 159.727 101 159.727C101.5 159.427 101.9 159.127 102.2 158.727C101.8 158.327 101.5 157.926 101.8 157.526ZM102.5 157.326C102.2 157.526 102.2 158.027 102.4 158.227C102.6 158.327 102.8 158.326 103 158.426C103.1 158.026 103.2 157.627 103.2 157.227C103 157.227 102.7 157.126 102.5 157.326Z" fill="#B1B3B1"/>
<path d="M120 157.2C120.3 157.1 120.7 157 121.1 157C121 157.4 121 157.7 120.9 158.1C121.3 158.1 121.9 157.9 122.2 158.3C122.5 158.8 122.1 159.5 121.6 159.7C121.1 159.9 120.5 159.8 120.1 159.6C120.3 158.9 120.4 158.2 120.6 157.5C120.4 157.4 120.1 157.3 120 157.2ZM120.8 158.4C120.7 158.8 120.6 159.1 120.6 159.5C120.8 159.5 121.1 159.6 121.3 159.5C121.6 159.3 121.9 158.8 121.6 158.5C121.4 158.3 121.1 158.4 120.8 158.4Z" fill="#B1B3B1"/>
<path d="M122.7 157.3C123.1 157.1 123.5 157.1 123.9 157.1C124 157.7 124.1 158.4 124.2 159C124.6 158.4 125 157.8 125.5 157.1C125.7 157.1 125.9 157.1 126.1 157C125.9 157.8 125.8 158.6 125.6 159.3C125.7 159.3 126 159.4 126.1 159.5C125.8 159.7 125.4 159.7 125 159.7C125 159 125.2 158.4 125.4 157.7C124.9 158.4 124.5 159.1 124 159.8C123.8 159.1 123.8 158.4 123.6 157.8C123.4 158.4 123.3 159.2 122.8 159.6C122.6 159.8 122.3 159.7 122 159.7C122.1 159.1 122.9 159.2 123 158.7C123.2 158.3 123.2 157.8 123.3 157.4C123.1 157.5 122.9 157.4 122.7 157.3Z" fill="#B1B3B1"/>
<path d="M127 157.2C127.3 157 127.7 157 128.1 157C128 157.8 127.7 158.5 127.7 159.3C128 159.3 128.3 159.4 128.5 159.2C129.1 158.7 129 157.8 129.2 157.1C129.4 157.1 129.6 157 129.8 157C129.6 157.8 129.5 158.5 129.3 159.3C129.5 159.4 129.6 159.5 129.8 159.5C129.5 159.6 129.3 159.7 129 159.7C128.9 159.6 128.8 159.4 128.7 159.3C128.3 159.5 127.9 159.8 127.5 159.7C127.2 159.7 127.1 159.3 127.2 159.1C127.3 158.5 127.4 158 127.6 157.4C127.4 157.4 127.2 157.3 127 157.2Z" fill="#B1B3B1"/>
</svg>
