<svg width="186" height="67" viewBox="0 0 186 67" fill="none" xmlns="http://www.w3.org/2000/svg">
<path d="M16.8 0.399902H9.6001L5 31H13.4C23.5 31 30.1001 24.1 30.1001 13.5C30.1001 5.2 25.3 0.399902 16.8 0.399902ZM16.8 2.8999C23.5 2.8999 27.3 6.8 27.3 13.5C27.3 22.9 22.1 28.5 13.4 28.5H8.30005L12.2001 2.8999H16.8ZM35.8 0.399902L31.2001 31H34L38.6001 0.399902H35.8ZM51.5 13.6997C46.5 12.1997 45 10.8998 45 8.2998C45 4.5998 47.4001 2.5 51.6001 2.5C55.7001 2.5 57.9 4.2999 58.3 7.8999V8.19971H61V7.8999C60.7 2.8999 57.4 0.0996094 51.8 0.0996094C46.1 0.0996094 42.3 3.5 42.3 8.5C42.3 12.9 45.3001 14.7998 50.6001 16.2998C55.8001 17.7998 57.3 19.0997 57.3 22.1997C57.3 24.0997 56.7 25.6998 55.5 26.7998C54.2 28.0998 52.2001 28.7998 49.8 28.7998C45 28.7998 42.2 26.3996 41.9 22.0996V21.7998H39.1001V22.0996C39.3001 27.7996 43.3001 31.2998 49.7001 31.2998C55.9001 31.2998 60 27.4999 60 21.8999C60 17.1999 56.9 15.2997 51.5 13.6997ZM85 21C83.5 26 79.8 28.7998 75 28.7998C68.6 28.7998 65 24.6997 65 17.6997C65 8.69971 70.1 2.5 77.5 2.5C82.1 2.5 85.1001 5.0998 85.8 9.7998V10H88.5V9.69971C87.9 3.79971 83.7001 0 77.6001 0C68.8001 0 62.1001 7.59971 62.1001 17.6997C62.1001 26.0997 67.1 31.2998 75 31.2998C81.2 31.2998 86.1001 27.3996 87.7001 21.0996L87.8 20.6997H85.1001L85 21Z" fill="white"/>
<path d="M106.5 0C97.8 0 91 7.60019 91 17.2002C91 25.5002 96.5 31.3003 104.4 31.3003C113 31.3003 119.7 23.7001 119.7 14.1001C119.6 5.8001 114.2 0 106.5 0Z" fill="#E55555"/>
<path d="M141.6 0L128.5 27L123.2 0H120.4L126.4 30.6001H129.5L144.4 0H141.6ZM163.6 2.5L164 0H147.1L142.5 30.6001H160.3L160.7 28.1001H145.7L147.5 16.1997H159.1L159.5 13.6997H148L149.7 2.6001H163.6V2.5ZM185.3 7.69971C185.3 5.49971 184.7 3.8 183.4 2.5C181.8 0.9 179.3 0.100098 176.2 0.100098H168.5L163.9 30.6997H166.7L168.7 17H173.9L180.9 30.6997H184L176.8 16.7998C182.3 15.9998 185.3 12.7997 185.3 7.69971ZM176.2 2.5C178.5 2.5 180.3 3.1001 181.3 4.1001C182.1 4.9001 182.6 6.09971 182.5 7.69971C182.5 12.1997 179.9 14.5 174.6 14.5H169.2L171 2.6001H176.2V2.5ZM28.6 35.3999L14.6 60.6001L8.29993 35.6001L8.19995 35.3999H4.59998L0 66H2.69995L6.59998 40.1997L13.2 66H14.2999L28.7 40.1997L24.7999 66H27.6L32.2 35.3999H28.6ZM49.7999 35C41.0999 35 34.2999 42.5997 34.2999 52.1997C34.2999 60.4997 39.7999 66.2998 47.7 66.2998C56.2999 66.2998 63 58.7001 63 49.1001C63 40.8001 57.5999 35 49.7999 35ZM76.9 48.6997C71.9 47.1997 70.4 45.8998 70.4 43.2998C70.4 39.5998 72.8 37.5 77 37.5C81.1 37.5 83.2999 39.2999 83.7 42.8999V43.1997H86.4V42.8999C86.1 37.8999 82.7999 35.1001 77.2 35.1001C71.5 35.1001 67.7 38.5 67.7 43.5C67.7 47.9 70.7 49.7998 76 51.2998C81.2 52.7998 82.7 54.0997 82.7 57.1997C82.7 59.0997 82.1 60.6998 80.9 61.7998C79.6 63.0998 77.6 63.7998 75.2 63.7998C70.3999 63.7998 67.5999 61.4001 67.2999 57.1001V56.7998H64.5V57.1001C64.7 62.8001 68.7 66.2998 75.1 66.2998C81.3 66.2998 85.4 62.4999 85.4 56.8999C85.4 52.0999 82.3 50.2997 76.9 48.6997ZM111.3 55.8999C109.8 60.8999 106.1 63.6997 101.3 63.6997C94.8999 63.6997 91.2999 59.6001 91.2999 52.6001C91.2999 43.6001 96.3999 37.3999 103.8 37.3999C108.4 37.3999 111.4 39.9997 112.1 44.6997V44.8999H114.8V44.6001C114.2 38.7001 110 34.8999 103.9 34.8999C95.1 34.8999 88.4 42.5001 88.4 52.6001C88.4 61.0001 93.3999 66.1997 101.3 66.1997C107.5 66.1997 112.4 62.3 114 56L114.1 55.6001H111.4L111.3 55.8999Z" fill="white"/>
<path d="M132.5 35C123.8 35 117 42.5997 117 52.1997C117 60.4997 122.5 66.2998 130.4 66.2998C139 66.2998 145.7 58.7001 145.7 49.1001C145.7 40.8001 140.3 35 132.5 35Z" fill="#5605C1"/>
<path d="M180.6 36L170 61.7002L166.5 36H164.6L153.4 61.6001L150.8 36H148L151.2 66.6001H153.8L164.8 41.7002L168.1 66.2998V66.6001H170.8L183.5 36H180.6Z" fill="white"/>
</svg>
