<svg width="190" height="87" viewBox="0 0 190 87" fill="none" xmlns="http://www.w3.org/2000/svg">
<path d="M38.5204 0H41.9204C42.5204 0.2 43.2204 0.199902 43.8204 0.399902C44.5204 0.599902 45.2204 0.900195 45.9204 1.2002C46.8204 1.6002 47.5204 2.1998 48.2204 2.7998C48.6204 3.0998 48.8204 3.5999 49.2204 3.8999C49.9204 4.4999 50.2204 5.4001 50.7204 6.1001C51.1204 6.7001 51.3204 7.5002 51.5204 8.2002C51.7204 8.9002 51.8204 9.6999 52.0204 10.3999C52.2204 10.9999 52.1204 11.6002 52.2204 12.2002C52.3204 13.3002 52.2204 14.4 52.2204 15.5C52.1204 16.1 52.1204 16.7999 52.0204 17.3999C51.7204 18.7999 51.4204 20.2 50.9204 21.5C50.6204 22 50.3204 22.5 50.1204 23C49.6204 23.8 48.9204 24.5002 48.3204 25.2002C47.5204 26.0002 46.6204 26.7 45.6204 27C44.7204 27.4 43.7204 27.7999 42.7204 27.8999C41.3204 28.0999 39.9204 28.1 38.5204 28C37.5204 27.8 36.6204 27.7999 35.7204 27.3999C34.9204 27.0999 34.1204 26.7998 33.4204 26.2998C32.7204 25.7998 32.0204 25.2 31.4204 24.5C31.0204 24.1 30.7204 23.5001 30.3204 23.1001C30.0204 22.7001 29.8204 22.1998 29.6204 21.7998C29.3204 21.1998 29.0204 20.7 28.8204 20C28.6204 19.2 28.3204 18.3 28.2204 17.5C28.2204 16.9 27.9204 16.3998 28.0204 15.7998C28.0204 14.4998 28.0204 13.0998 28.0204 11.7998C28.1204 10.7998 28.3204 9.8999 28.5204 8.8999C28.7204 7.6999 29.3204 6.5999 29.8204 5.3999C30.8204 3.6999 32.3204 2.1001 34.1204 1.1001C34.8204 0.800098 35.4204 0.499805 36.1204 0.299805C36.7204 0.199805 37.6204 0.2 38.5204 0ZM38.6204 4.7998C37.8204 4.8998 37.2204 5.2001 36.5204 5.6001C36.1204 5.9001 35.8204 6.4002 35.3204 6.7002C35.0204 6.9002 34.9204 7.2 34.7204 7.5C34.3204 8.1 34.0204 8.8 33.7204 9.5C33.6204 10.2 33.3204 10.8 33.3204 11.5C33.3204 12 33.1204 12.5 33.1204 13C33.1204 14.2 33.0204 15.5002 33.3204 16.7002C33.4204 17.4002 33.6204 18.1998 33.8204 18.7998C33.9204 19.0998 34.2204 19.4002 34.3204 19.7002C34.7204 20.8002 35.6204 21.6998 36.6204 22.2998C37.2204 22.7998 37.9204 23.1001 38.7204 23.1001C39.8204 23.4001 41.0204 23.2 42.1204 23C43.2204 22.7 44.0204 21.9998 44.8204 21.2998C45.3204 20.5998 45.8204 19.9001 46.2204 19.1001C46.6204 18.2001 46.7204 17.2002 46.9204 16.2002C47.0204 15.1002 46.9204 13.9999 46.9204 12.8999C46.9204 12.4999 46.9204 12.1998 46.8204 11.7998C46.7204 11.3998 46.8204 10.9 46.7204 10.5C46.5204 9.6 46.3204 8.7 45.8204 8C45.5204 7.6 45.2204 7.1001 44.9204 6.6001C44.7204 6.3001 44.3204 6.0998 44.0204 5.7998C43.8204 5.5998 43.6204 5.3002 43.2204 5.2002C42.8204 5.1002 42.4204 4.8002 42.0204 4.7002C41.5204 4.6002 41.1204 4.5 40.6204 4.5C39.9204 4.8 39.2204 4.6998 38.6204 4.7998Z" fill="white"/>
<path d="M61.7 0H65C65.5 0.2 66 0.299805 66.5 0.299805C67.4 0.499805 68.3 0.999805 69.1 1.2998C69.6 1.4998 70 1.9002 70.4 2.2002C71 2.6002 71.4 3.1001 71.8 3.6001C72.3 4.1001 72.5 4.8 72.8 5.5C73.2 6.4 73.4 7.5 73.4 8.5C73.4 8.5 73.3 8.60019 73.3 8.7002C72.2 8.7002 71.1 8.7002 70 8.7002C69.4 8.7002 68.8 8.7001 68.3 8.6001C68.4 7.9001 68.2 7.2001 67.8 6.6001C67.4 6.1001 67.1 5.5998 66.5 5.2998C65.8 4.9998 65 4.7002 64.2 4.7002C63.6 4.7002 63 4.7002 62.4 4.7002C61.6 4.7002 60.9 4.9002 60.2 5.2002C59.7 5.4002 59.5 5.8001 59.1 6.1001C58.9 6.4001 58.6 6.6 58.6 7C58.6 7.6 58.6 8.1998 58.6 8.7998C58.9 9.4998 59.6 9.9998 60.4 10.2998C61 10.4998 61.6 10.6999 62.2 10.8999C63.2 11.1999 64.3 11.4001 65.3 11.6001C66.3 11.8001 67.2 12.0998 68.1 12.2998C69 12.5998 69.9 12.7002 70.7 13.2002C71.1 13.4002 71.5 13.7 71.9 14C72.5 14.3 72.8 14.8999 73.2 15.3999C73.7 16.1999 74 17.1 74.2 18C74.2 18.9 74.4 19.7001 74.2 20.6001C74.3 21.4001 73.9 22.0002 73.6 22.7002C73.3 23.7002 72.6 24.4998 71.9 25.2998C71.5 25.5998 71 25.8998 70.7 26.2998C69.9 26.8998 68.9 27.1001 68 27.6001C66.3 28.1001 64.5 28 62.7 28C61.4 28 60.1 27.7998 58.9 27.2998C58.1 26.9998 57.3 26.8002 56.7 26.2002C56.2 25.8002 55.6 25.3999 55.1 24.8999C54.5 24.3999 54.2 23.7 53.8 23C53.2 21.8 53 20.5002 53 19.2002C53.3 19.1002 53.5 19.1001 53.8 19.1001C54.9 19.1001 56.1 19.1001 57.2 19.1001C57.5 19.1001 57.8 19.2002 58.1 19.2002C58.2 20.2002 58.5 21.1999 59.2 21.8999C59.5 22.1999 59.7 22.5002 60 22.7002C60.7 23.1002 61.6 23.2999 62.4 23.3999C64.1 23.4999 65.9 23.5002 67.4 22.7002C68.9 21.9002 69.5 19.9 68.6 18.5C68.3 18 67.6 17.7 67.1 17.5C65.7 16.7 64 16.6998 62.5 16.2998C61.5 15.9998 60.6 15.8 59.6 15.5C58.3 15.2 57 14.5999 55.8 13.8999C55.4 13.4999 55 13.1002 54.6 12.7002C54.1 12.0002 53.9 11.0998 53.6 10.2998C53.4 9.7998 53.5 9.2998 53.5 8.7998C53.5 8.0998 53.5 7.4998 53.5 6.7998C53.8 5.9998 54 5.0999 54.4 4.3999C54.6 3.8999 55.1 3.5 55.4 3C55.8 2.5 56.3 2.1002 56.8 1.7002C57.4 1.2002 58 0.999805 58.7 0.799805C59.1 0.599805 59.6 0.399805 60 0.299805C60.6 0.199805 61.2 0.2 61.7 0Z" fill="white"/>
<path d="M111.3 0H115.7C116.1 0.3 116.6 0.199902 117 0.399902C117.6 0.599902 118.1 0.8 118.6 1C119.2 1.2 119.7 1.3999 120.2 1.8999C120.7 2.3999 121.3 2.6998 121.8 3.2998C122.3 3.7998 122.8 4.4 123.2 5C123.8 5.7 124.1 6.6 124.4 7.5C124.7 8.3 125.1 9.1 125.1 10C125.5 11.8 125.4 13.7001 125.4 15.6001C125.4 17.4001 125.1 19.1999 124.4 20.8999C124.1 21.6999 123.8 22.5002 123.3 23.2002C122.9 23.7002 122.6 24.3998 122.1 24.7998C121.7 25.1998 121.4 25.6 120.9 26C120.4 26.4 119.9 26.9001 119.3 27.1001C118 27.6001 116.7 28.1998 115.3 28.2998C114.4 28.4998 113.4 28.3999 112.5 28.3999C111.9 28.3999 111.4 28.3002 110.8 28.2002C110.2 28.2002 109.5 27.9998 108.9 27.7998C108 27.3998 107.1 27.1 106.3 26.5C105.7 26 105.1 25.4998 104.6 24.7998C103.8 24.0998 103.4 23.1998 102.8 22.2998C102.4 21.6998 102.2 20.9999 102 20.3999C101.8 19.4999 101.4 18.6998 101.3 17.7998C101.2 17.2998 101.1 16.8999 101.1 16.3999C101.1 15.6999 101 15.0999 101 14.3999C101.1 13.6999 101 13.0002 101.1 12.2002C101.2 10.5002 101.7 8.8002 102.2 7.2002C102.4 6.6002 102.8 6 103.1 5.5C103.4 5.1 103.5 4.6999 103.9 4.3999C104.5 3.7999 105 3.1001 105.7 2.6001C106.3 2.0001 107.1 1.5002 107.9 1.2002C108.6 0.900195 109.4 0.499902 110.2 0.399902C110.6 0.199902 111 0.1 111.3 0ZM111.6 4.8999C111.3 4.9999 111 5.1002 110.7 5.2002C110.1 5.4002 109.7 5.9002 109.2 6.2002C108.7 6.6002 108.4 7.1001 108 7.6001C107.3 8.5001 107.2 9.7002 106.7 10.7002C106.7 11.3002 106.6 12.0001 106.4 12.6001C106.4 13.3001 106.4 14.0998 106.4 14.7998C106.4 15.6998 106.6 16.4999 106.7 17.3999C107.1 18.1999 107.2 18.9998 107.6 19.7998C107.8 20.3998 108.3 20.7998 108.6 21.2998C108.8 21.5998 109 21.8 109.3 22C109.8 22.3 110.3 22.9 110.9 23C112 23.4 113.3 23.4999 114.5 23.3999C115.1 23.2999 115.7 23.0999 116.2 22.8999C117.2 22.2999 118.1 21.6001 118.8 20.6001C119.2 20.0001 119.3 19.3998 119.7 18.7998C120 17.9998 120.1 17.1998 120.3 16.2998C120.3 14.8998 120.3 13.5 120.3 12C120.2 10.9 120 9.7002 119.4 8.7002C119.2 8.0002 118.9 7.3999 118.4 6.8999C117.9 6.3999 117.4 5.7999 116.7 5.3999C116.1 4.9999 115.3 4.9002 114.6 4.7002C113.6 4.8002 112.6 4.5999 111.6 4.8999Z" fill="white"/>
<path d="M86.6111 0.125049C87.5111 -0.0749512 88.4111 0.0249512 89.3111 0.0249512C89.7111 0.0249512 90.0111 0.125049 90.4111 0.125049C91.1111 0.225049 91.8111 0.425147 92.5111 0.725147C93.3111 0.925147 94.2111 1.32524 94.8111 1.82524C95.3111 2.22524 95.9111 2.42495 96.3111 3.02495C96.6111 3.42495 97.1111 3.72515 97.3111 4.22515C97.5111 4.62515 97.8111 5.12495 98.1111 5.52495C98.6111 6.32495 98.8111 7.22515 99.0111 8.22515C99.1111 8.62515 99.0111 9.12495 99.3111 9.52495C99.1111 9.52495 98.9111 9.62505 98.7111 9.62505C97.1111 9.62505 95.5111 9.62505 93.9111 9.62505C93.6111 8.92505 93.6111 8.12495 93.1111 7.52495C92.8111 7.12495 92.6111 6.62524 92.3111 6.32524C92.1111 6.02524 91.7111 5.92515 91.4111 5.72515C90.7111 5.22515 89.9111 5.02495 89.0111 5.02495C87.9111 5.02495 86.8111 4.92495 85.8111 5.52495C85.3111 5.82495 84.8111 6.12505 84.5111 6.62505C84.0111 7.22505 83.4111 7.92515 83.2111 8.72515C83.1111 9.32515 82.8111 9.82534 82.6111 10.4253C82.3111 12.0253 82.0111 13.625 82.3111 15.125C82.3111 16.025 82.3111 16.9252 82.6111 17.8252C82.7111 18.0252 82.7111 18.3251 82.7111 18.625C83.2111 19.225 83.2111 20.025 83.7111 20.625C84.2111 21.3251 84.8111 21.9253 85.5111 22.4253C86.6111 23.3253 88.2111 23.225 89.5111 23.125C90.1111 23.025 90.7111 22.825 91.2111 22.525C91.6111 22.225 92.0111 22.025 92.3111 21.625C92.7111 21.025 93.1111 20.4252 93.4111 19.8252C93.7111 19.3252 93.6111 18.7251 94.0111 18.2251C95.7111 18.2251 97.4111 18.2251 99.2111 18.2251C99.2111 18.6251 99.2111 19.0253 99.0111 19.4253C98.8111 20.4253 98.5111 21.4251 98.0111 22.2251C97.7111 23.0251 97.2111 23.825 96.6111 24.525C96.2111 24.925 95.9111 25.4251 95.5111 25.7251C95.1111 26.0251 94.8111 26.5251 94.3111 26.7251C93.6111 27.1251 92.9111 27.3251 92.2111 27.625C91.6111 27.8251 90.9111 28.025 90.2111 28.025C89.8111 28.125 89.3111 28.125 88.8111 28.125C88.0111 28.125 87.3111 28.225 86.6111 28.025C85.2111 28.025 84.0111 27.3252 82.8111 26.8252C82.3111 26.6252 81.9111 26.1252 81.4111 25.8252C81.1111 25.6252 80.9111 25.425 80.7111 25.125C80.4111 24.725 79.8111 24.4253 79.6111 23.9253C79.4111 23.5253 79.2111 23.2252 78.9111 22.8252C78.3111 21.9252 78.0111 20.925 77.7111 20.025C77.1111 18.425 77.0111 16.6253 77.0111 14.9253C77.0111 13.2253 76.9111 11.4251 77.3111 9.72515C77.4111 8.62515 78.0111 7.72515 78.3111 6.72515C78.6111 6.12515 78.8111 5.52495 79.3111 5.02495C79.6111 4.72495 79.7111 4.22534 80.0111 3.92534C80.3111 3.62534 80.6111 3.32495 80.9111 3.02495C81.2111 2.52495 81.8111 2.32495 82.2111 2.02495C82.4111 1.82495 82.5111 1.62495 82.8111 1.52495C83.9111 0.824951 85.2111 0.225049 86.6111 0.125049Z" fill="white"/>
<path d="M16.7 1.09961C19.3 1.09961 21.9 1.09961 24.5 1.09961C24.5 9.99961 24.5 18.7997 24.5 27.6997C22.8 27.6997 21.2 27.6997 19.5 27.6997C19.4 27.4997 19.4 27.1999 19.4 26.8999C19.4 21.5999 19.4 16.3996 19.4 11.0996C19.6 10.1996 19.3 9.1998 19.4 8.2998C19.5 7.4998 19.5 6.6999 19.5 5.8999C19.3 6.2999 19.1 6.79971 19.1 7.19971C18.9 8.29971 18.7 9.49961 18.4 10.5996C18.1 12.0996 17.8 13.5997 17.5 15.1997C17.3 16.2997 16.9 17.2999 16.8 18.3999C16.5 19.7999 16.4 21.1 15.9 22.5C15.6 23.8 15.4 25.0998 15.1 26.2998C15 26.6998 15 27.1996 15 27.5996C14.8 27.6996 14.5 27.6997 14.3 27.6997C13 27.6997 11.8 27.6997 10.5 27.6997C10.2 27.6997 9.99998 27.6996 9.69998 27.5996C9.19998 25.8996 8.89998 24.2 8.59998 22.5C8.39998 21.5 8.09999 20.3999 7.89999 19.3999C7.49999 17.5999 7.29999 15.8996 6.79999 14.0996C6.59999 12.9996 6.29998 11.9999 6.19998 10.8999C5.69998 9.0999 5.29998 7.4 5.09998 5.5C4.99998 5.8 4.99999 5.9998 4.89999 6.2998C4.89999 13.3998 4.89999 20.4 4.89999 27.5C3.19999 27.5 1.6 27.5 0 27.5V1C2.4 1 4.69998 1 7.09998 1C7.29998 1 7.49998 0.999609 7.69998 1.09961C7.89998 1.79961 7.99998 2.39961 8.19998 3.09961C8.59998 4.39961 8.79998 5.79971 9.09998 7.19971C9.29998 8.19971 9.59999 9.09961 9.79999 10.0996C9.99999 11.2996 10.3 12.4996 10.5 13.5996C10.7 14.5996 11.1 15.5996 11.2 16.5996C11.5 18.2996 11.8 19.9997 12.4 21.6997C12.8 19.9997 13 18.2997 13.5 16.6997C13.9 14.9997 14.2 13.2 14.6 11.5C14.9 10.7 15 9.8 15.2 9C15.4 8.2 15.5 7.49971 15.7 6.69971C15.9 5.69971 16.2 4.7998 16.4 3.7998C16.3 2.9998 16.6 1.99961 16.7 1.09961Z" fill="white"/>
<path d="M126 1.04444C127.6 0.944444 129.1 1.04444 130.7 1.04444C131 1.04444 131.3 1.14454 131.6 1.14454C131.7 1.64454 131.7 2.14444 131.9 2.54444C132.2 3.94444 132.5 5.24454 132.7 6.64454C132.9 7.24454 132.9 7.84484 133.2 8.44484C133.2 9.04484 133.5 9.64474 133.6 10.3447C133.9 11.3447 134 12.4444 134.3 13.5444C134.6 14.8444 134.9 16.0447 135.1 17.3447C135.1 18.0447 135.4 18.6447 135.4 19.3447C135.4 19.6447 135.6 19.9446 135.7 20.2446C135.8 19.9446 135.8 19.5446 135.9 19.2446C136.2 18.1446 136.3 17.0448 136.5 15.9448C136.7 14.8448 136.9 13.7446 137.2 12.7446C137.4 11.5446 137.6 10.3444 137.8 9.04444C138.1 7.44444 138.5 5.94474 138.7 4.34474C138.9 3.34474 139 2.24464 139.3 1.24464C141 1.24464 142.8 1.24464 144.5 1.24464C145 1.24464 144.9 1.74454 145 2.14454C145.3 3.84454 145.5 5.54454 146 7.14454C146.3 8.64454 146.5 10.0444 146.8 11.5444C146.9 12.5444 147.3 13.5444 147.5 14.5444C147.8 16.2444 148.1 17.9445 148.4 19.6445C148.4 20.0445 148.7 20.3445 148.9 20.6445C149 19.4445 149.3 18.2448 149.5 16.9448C149.7 15.9448 150.1 14.9447 150.2 13.8447C150.7 11.1447 151.5 8.44464 152 5.74464C152.2 4.24464 152.9 2.84464 152.9 1.24464C154.7 1.14464 156.4 1.24464 158.2 1.24464C158 2.94464 157.2 4.64474 156.9 6.34474C156.6 7.44474 156.4 8.64454 156 9.64454C155.7 10.4445 155.7 11.3445 155.4 12.1445C155 13.0445 154.8 14.0444 154.6 15.0444C154.3 15.9444 154.2 16.8446 153.9 17.7446C153.4 19.3446 153.1 21.0445 152.5 22.6445C152.1 24.0445 151.8 25.4448 151.4 26.9448C151.3 27.2448 151.2 27.7446 150.8 27.7446C149.3 27.7446 147.8 27.7446 146.3 27.7446C145.9 26.8446 145.8 25.9448 145.6 24.9448C145.2 23.0448 145 21.1446 144.5 19.2446C144.2 17.8446 144 16.4444 143.7 15.0444C143.5 13.8444 143.1 12.7444 142.9 11.5444C142.8 10.6444 142.5 9.74474 142.4 8.84474C142.4 8.34474 142.2 7.94484 142.1 7.44484C141.7 7.64483 142 8.14483 141.9 8.44484C141.6 9.14484 141.7 9.84483 141.5 10.4448C141.4 10.9448 141.4 11.5444 141.2 12.0444C141 13.2444 140.7 14.3444 140.5 15.5444C140.2 16.9444 140 18.3446 139.7 19.7446C139.5 20.1446 139.6 20.5448 139.4 20.9448C139.2 21.4448 139.2 22.0444 139.1 22.5444L139 22.4448C139 22.9448 138.9 23.4448 138.8 23.9448C138.8 24.7448 138.5 25.5447 138.4 26.3447C138.2 26.7447 138.2 27.2446 138.2 27.7446C138 27.7446 137.8 27.8447 137.6 27.8447C136.1 27.8447 134.6 27.8447 133.1 27.8447C132.8 26.5447 132.5 25.3444 132.2 24.0444C132.1 23.5444 131.8 23.1445 131.8 22.6445C131.3 21.0445 131.1 19.4448 130.5 17.9448C130.5 17.5448 130.4 17.2448 130.2 16.9448C129.9 15.8448 129.7 14.6444 129.3 13.5444C129.1 13.1444 129 12.7447 128.9 12.3447C128.7 11.4447 128.4 10.6446 128.3 9.74464C128.2 9.14464 127.8 8.54484 127.7 7.94484C127.5 7.14483 127.3 6.34444 127.1 5.54444C127 5.24444 127 4.94454 126.9 4.64454C126.6 4.04454 126.5 3.34454 126.3 2.64454C126.2 1.94454 126 1.54444 126 1.04444Z" fill="white"/>
<path d="M171 30.0444C172.7 30.0444 174.4 29.9444 176.2 30.0444C176.4 30.5444 176.3 31.0444 176.3 31.5444C176.3 38.3444 176.3 45.1444 176.3 52.0444C180.6 52.0444 184.8 52.0444 189.1 52.0444V56.7442C183.2 56.7442 177.3 56.7442 171.4 56.7442C171.2 56.7442 171.1 56.7444 171 56.5444C171 47.8444 171 39.1443 171 30.4443C171 30.2443 171.2 30.1441 171.4 30.1441C173 30.1441 174.6 30.1441 176.2 30.1441C175.9 30.1441 175.7 30.0444 175.4 30.0444C173.9 30.1444 172.4 30.1444 171 30.0444Z" fill="white"/>
<path d="M140.9 30C142.7 30 144.6 30 146.4 30C146.1 31 145.7 31.8999 145.5 32.8999C145.4 33.2999 145.3 33.7 145.2 34C144.6 35.3 144.3 36.7 143.9 38C143.2 39.6 142.9 41.2003 142.3 42.8003C142 43.7003 141.7 44.6 141.4 45.5C140.9 46.3 140.8 47.2001 140.6 48.1001C140.4 48.7001 140.2 49.4 139.9 50C139.6 51 139.3 52.0001 139 53.1001C138.9 53.6001 138.6 54.0001 138.5 54.6001C138.2 55.3001 138.1 56.0001 137.8 56.6001C136.1 56.6001 134.4 56.6001 132.7 56.6001C132.5 55.9001 132.3 55.3001 132 54.6001C131.6 53.4001 131.3 52.0999 130.8 50.8999C130.2 49.5999 130.1 48.1999 129.5 46.8999C129.2 45.9999 128.9 45.0001 128.6 44.1001C128.5 43.4001 128.1 42.8002 127.9 42.2002C127.5 40.8002 126.9 39.4 126.5 38C126.1 36.5 125.4 35.2002 125.1 33.7002C124.8 32.5002 124.2 31.4003 124 30.3003C124 30.3003 124.1 30.2001 124.2 30.1001C125.9 30.1001 127.5 30.1001 129.2 30.1001C129.4 30.1001 129.7 30.1999 129.8 30.3999C130.1 31.6999 130.4 33.0999 130.9 34.3999C131.2 35.3999 131.5 36.5 131.7 37.5C131.8 38.1 132.1 38.7003 132.3 39.3003C132.7 40.5003 132.9 41.8001 133.3 43.1001C133.9 44.7001 134.2 46.5001 134.7 48.1001C135 48.8001 135.1 49.5002 135.3 50.2002C135.6 49.4002 135.7 48.5002 136 47.7002C136.4 46.4002 136.8 45.1003 137.1 43.8003C137.6 42.8003 137.7 41.6001 138.1 40.6001C138.3 39.7001 138.5 38.9 138.8 38C139.3 36.7 139.5 35.4001 139.9 34.1001C140 33.9001 140 33.5999 140.1 33.3999C140.5 32.5999 140.6 31.7003 140.8 30.8003C140.7 30.4003 140.7 30.1 140.9 30Z" fill="white"/>
<path d="M57.1 30.1001C57.3 30.0001 57.5 30 57.7 30C64.2 30 70.7 30 77.1 30C77.3 30 77.5 30 77.7 30C77.8 31.5 77.7 33.1002 77.7 34.7002C75.2 34.7002 72.6 34.7002 70.1 34.7002C70.1 41.4002 70.1 48.1003 70.1 54.8003C70.1 55.4003 70.1 55.9 70.1 56.5C69.9 56.6 69.8 56.7001 69.6 56.6001C68 56.6001 66.4 56.6001 64.8 56.6001C64.7 56.5001 64.6 56.4002 64.6 56.2002C64.6 49.6002 64.6 42.9999 64.6 36.3999C64.6 35.7999 64.6 35.2002 64.6 34.7002C62.1 34.7002 59.5 34.7002 57 34.7002C57.1 33.1002 57.1 31.6001 57.1 30.1001Z" fill="white"/>
<path d="M80 30.2002C80 30.2002 80.1 30.1 80.2 30C84.3 30 88.4 30 92.5 30C93.3 30.2 94.1 30.0002 94.8 30.2002C95.3 30.4002 95.9 30.4002 96.4 30.7002C97 30.9002 97.3 31.3002 97.8 31.7002C98 31.9002 98.3 32.0003 98.4 32.3003C99 33.2003 99.7 34.0001 99.9 35.1001C100 35.6001 100.2 36.1001 100.2 36.6001C100.2 37.7001 100.3 38.8003 100 39.8003C99.8 41.0003 99.1 41.9003 98.4 42.8003C97.9 43.3003 97.2 43.6 96.6 44C97.1 44.4 97.7 44.6 98.2 45C98.7 45.7 99.2 46.5003 99.4 47.3003C99.8 48.2003 99.6 49.3003 99.8 50.3003C99.8 51.5003 99.8 52.6003 99.8 53.8003C99.8 54.3003 99.9 54.9003 100.2 55.3003C100.4 55.6003 100.6 55.9001 100.8 56.1001C101 56.3001 100.8 56.6001 100.6 56.6001C98.7 56.6001 96.9 56.6001 95 56.6001C94.6 55.7001 94.7 54.7002 94.4 53.7002C94.3 52.2002 94.4 50.7003 94.3 49.3003C94.1 48.7003 94 47.9003 93.7 47.3003C93.1 46.5003 92.1 46.2002 91.1 46.2002C89.2 46.2002 87.3 46.2002 85.4 46.2002C85.4 46.2002 85.3 46.3004 85.2 46.4004C85.2 49.8004 85.2 53.2002 85.2 56.7002C83.5 56.7002 81.7 56.7002 80 56.7002C80 47.8002 80 39.0002 80 30.2002ZM85.2 34.7002C85.2 37.1002 85.2 39.5003 85.2 41.8003C87.3 41.8003 89.5 41.8003 91.6 41.8003C92.6 41.8003 93.5 41.5003 94.2 40.8003C94.7 40.4003 94.8 39.7001 94.9 39.1001C95 38.1001 95 37.0001 94.4 36.1001C94.2 35.7001 93.8 35.5002 93.5 35.2002C93 34.8002 92.4 34.7001 91.8 34.6001C89.8 34.7001 87.5 34.7002 85.2 34.7002Z" fill="white"/>
<path d="M149 30.1001C149.1 30.0001 149.3 30 149.4 30C155.3 30 161.3 30 167.2 30C167.4 30 167.5 30.0001 167.6 30.1001C167.6 31.6001 167.6 33.1001 167.6 34.6001C163.2 34.6001 158.9 34.6001 154.5 34.6001C154.3 34.5001 154.1 34.8 154.1 35C154.1 36.8 154.1 38.5999 154.1 40.3999C158.2 40.3999 162.3 40.3999 166.4 40.3999C166.4 41.8999 166.4 43.3999 166.4 44.8999C162.3 44.8999 158.2 44.8999 154.1 44.8999C154.1 47.1999 154.1 49.5003 154.1 51.8003C158.8 51.8003 163.5 51.8003 168.3 51.8003C168.3 53.4003 168.3 54.9 168.3 56.5C161.9 56.5 155.4 56.5 149 56.5C149 47.7 149 38.9001 149 30.1001Z" fill="white"/>
<path d="M111.1 30C113.1 30 115.1 30 117.1 30C117.4 30.8 117.6 31.5999 117.9 32.3999C118.4 33.6999 118.7 34.9998 119.2 36.2998C119.6 37.2998 119.8 38.3999 120.2 39.3999C120.5 40.1999 120.8 40.9999 121.1 41.8999C121.5 43.4999 122.2 45 122.6 46.5C122.8 47.2 123.1 47.6999 123.3 48.3999C123.6 49.2999 123.8 50.3002 124.2 51.2002C124.6 52.2002 124.9 53.1001 125.2 54.1001C125.4 54.9001 125.8 55.5998 126 56.2998C124.2 56.2998 122.5 56.2998 120.7 56.2998C120.3 56.2998 120.2 55.8 120.1 55.5C119.8 54.2 119.4 52.9998 118.9 51.7998C118.8 51.4998 118.7 51.1999 118.6 50.8999C115.6 50.8999 112.6 50.8999 109.6 50.8999C109.2 50.8999 109.2 51.4998 109 51.7998C108.5 52.8998 108.3 54.0001 107.9 55.1001C107.8 55.4001 107.8 55.8002 107.7 56.2002C107.4 56.4002 107 56.2998 106.6 56.2998C105.1 56.2998 103.5 56.3998 102 56.2998C102.1 55.5998 102.5 54.9998 102.7 54.2998C102.9 53.4998 103.1 52.8 103.4 52C103.6 51.3 104 50.7 104.1 50C104.4 48.9 104.7 47.7998 105.2 46.7998C105.5 45.6998 105.8 44.7002 106.2 43.7002C106.7 42.7002 106.9 41.5 107.3 40.5C107.5 40 107.7 39.6001 107.9 39.1001C108.2 38.5001 108.2 37.8001 108.5 37.1001C109.3 35.6001 109.5 33.8002 110.2 32.2002C110.7 31.5002 110.8 30.7 111.1 30ZM113.8 36.5C113.6 37.4 113.3 38.2001 113.1 39.1001C112.8 39.9001 112.5 40.8002 112.2 41.7002C111.9 42.7002 111.7 43.7001 111.3 44.6001C111.1 45.2001 110.8 45.9001 110.9 46.6001C113 46.6001 115 46.6001 117.1 46.6001C117.1 46.4001 117.1 46.1999 117.1 45.8999C116.9 45.2999 116.8 44.7001 116.5 44.1001C116.1 42.9001 115.9 41.7 115.4 40.5C114.9 39.2 114.5 37.9001 114.2 36.6001C114.2 36.5001 113.9 36.5 113.8 36.5Z" fill="white"/>
<path d="M139.7 1C141.6 1 143.5 1 145.4 1C145.6 2.2 145.8 3.4001 146 4.6001C146.3 5.9001 146.7 7.3001 146.8 8.6001C147.1 9.7001 147.2 10.9 147.5 12C147.5 12.6 147.9 13.1002 147.9 13.7002C148.1 14.7002 148.3 15.7002 148.4 16.7002C148.6 17.3002 148.5 17.9 148.7 18.5C148.8 18.9 148.6 19.7003 149.2 19.8003C149.5 18.2003 149.7 16.7002 150 15.2002C150.3 14.6002 150.2 14.0004 150.5 13.4004C150.9 11.5004 151.2 9.70039 151.7 7.90039C151.9 6.80039 152.1 5.8002 152.3 4.7002C152.5 4.1002 152.5 3.40039 152.8 2.90039C152.9 2.30039 153 1.8002 153.1 1.2002C154.9 1.2002 156.8 1.2002 158.6 1.2002C158.2 2.4002 158 3.7 157.6 5C157.2 6.2 157 7.5002 156.6 8.7002C155.9 10.6002 155.6 12.6001 154.9 14.6001C154.6 15.8001 154.3 17.0001 154 18.1001C153.6 19.3001 153.3 20.5002 153 21.7002C152.7 23.0002 152.2 24.1004 152 25.4004C151.9 26.2004 151.5 27.0003 151.5 27.8003C149.7 27.8003 148 27.8003 146.2 27.8003C145.8 27.3003 146 26.6001 145.8 26.1001C145.6 25.6001 145.7 25.1001 145.5 24.6001C145.4 24.2001 145.5 23.8004 145.3 23.4004C145.2 23.1004 145.2 22.7004 145.1 22.4004C144.4 19.9004 144.2 17.4004 143.6 14.9004C143.6 14.4004 143.3 14.0001 143.3 13.6001C143.2 12.9001 143 12.3001 143 11.6001C143.1 12.8001 143.6 13.9001 143.8 15.1001C144 16.5001 144.3 17.9003 144.6 19.3003C145.1 21.2003 145.4 23.1 145.7 25C145.9 25.9 146 26.9003 146.4 27.8003C147.9 27.8003 149.4 27.8003 150.9 27.8003C151.4 27.8003 151.4 27.3 151.5 27C151.9 25.6 152.2 24.1002 152.6 22.7002C153.2 21.1002 153.4 19.4003 154 17.8003C154.3 16.9003 154.4 16.0001 154.7 15.1001C155 14.1001 155.1 13.2002 155.5 12.2002C155.8 11.4002 155.9 10.5002 156.1 9.7002C156.5 8.6002 156.7 7.50039 157 6.40039C157.3 4.70039 158.1 3.10029 158.3 1.30029C156.5 1.30029 154.8 1.20029 153 1.30029C153 2.80029 152.3 4.30029 152.1 5.80029C151.6 8.50029 150.9 11.2004 150.3 13.9004C150.2 15.0004 149.8 15.9 149.6 17C149.4 18.2 149.1 19.4002 149 20.7002C148.8 20.4002 148.6 20.1002 148.5 19.7002C148.3 18.0002 147.9 16.3001 147.6 14.6001C147.4 13.6001 147.1 12.6001 146.9 11.6001C146.6 10.1001 146.4 8.6002 146.1 7.2002C145.6 5.6002 145.5 3.9002 145.1 2.2002C145 1.9002 145.1 1.30029 144.6 1.30029C142.9 1.30029 141.1 1.30029 139.4 1.30029C139.1 2.30029 139.1 3.40039 138.8 4.40039C138.6 6.00039 138.1 7.5001 137.9 9.1001C137.7 10.3001 137.5 11.6003 137.3 12.8003C137 13.8003 136.9 14.9 136.6 16C136.4 17.1 136.3 18.2003 136 19.3003C136.1 18.4003 136.3 17.5 136.4 16.5C136.4 16 136.6 15.6001 136.6 15.1001C136.7 14.6001 136.9 14.1001 136.8 13.6001C136.8 13.2001 137.1 12.8004 137.1 12.4004C137.1 11.9004 137.3 11.5 137.4 11C137.5 10.4 137.6 9.90029 137.6 9.30029C137.8 8.20029 138 7.1 138.2 6C138.4 5.5 138.4 4.90029 138.6 4.30029C138.6 3.70029 138.9 3.10039 138.9 2.40039C139.4 1.80039 139.6 1.4 139.7 1Z" fill="#FEED01"/>
<path d="M110.5 31.1001C110.7 31.0001 110.8 31 111 31C112.9 31 114.7 31 116.6 31C116.9 31.6 117 32.2003 117.2 32.8003C117.7 33.9003 118 35.0001 118.3 36.1001C118.9 37.2001 119.1 38.4001 119.5 39.6001C119.7 40.2001 120 40.7999 120.2 41.3999C120.6 42.4999 120.8 43.6002 121.3 44.7002C121.6 45.5002 121.8 46.3001 122.1 47.1001C122.3 47.8001 122.6 48.4 122.8 49C123.1 49.7 123.2 50.4002 123.5 51.2002C123.6 51.7002 123.9 52.1002 124.1 52.7002C124.4 53.7002 124.7 54.7002 125.1 55.7002C125.4 56.3002 125.6 56.9001 125.7 57.6001C123.8 57.6001 121.8 57.6001 119.9 57.6001C119.6 57.0001 119.5 56.3001 119.3 55.6001C119.1 54.7001 118.7 53.9 118.5 53C119 54.2 119.4 55.4002 119.7 56.7002C119.8 57.0002 119.9 57.5 120.3 57.5C122.1 57.5 123.8 57.5 125.6 57.5C125.4 56.7 125 56.0003 124.8 55.3003C124.5 54.3003 124.2 53.2999 123.8 52.3999C123.4 51.4999 123.3 50.5001 122.9 49.6001C122.7 49.0001 122.4 48.4002 122.2 47.7002C121.8 46.1002 121.1 44.6001 120.7 43.1001C120.5 42.3001 120.2 41.4001 119.8 40.6001C119.4 39.6001 119.2 38.5 118.8 37.5C118.3 36.2 118 34.9001 117.5 33.6001C117.2 32.8001 117 32.0002 116.7 31.2002C114.7 31.2002 112.7 31.2002 110.7 31.2002C110.4 31.9002 110.3 32.7 109.9 33.5C109.2 35.1 109 36.7999 108.2 38.3999C107.9 38.9999 107.8 39.6999 107.6 40.3999C107.4 40.8999 107.2 41.3003 107 41.8003C107 41.3003 107.3 40.8003 107.6 40.3003C107.8 39.4003 108.1 38.6002 108.4 37.7002C108.8 36.7002 109.2 35.6001 109.5 34.6001C109.6 34.2001 109.8 33.9001 109.9 33.6001C110.1 32.7001 110.3 31.9001 110.5 31.1001Z" fill="#FEED01"/>
<path d="M64.1 59C65.9 59 67.7 59 69.5 59C69.5 64.7 69.5 70.3996 69.5 76.0996C68.9 76.1996 68.4 76.2999 67.8 76.3999C67.3 76.3999 66.8 76.4 66.3 76.5C65.4 76.7 64.5 76.6998 63.7 76.7998C62.2 76.9998 60.6 76.9999 59.1 77.3999C61.5 77.7999 64 77.8997 66.4 78.1997C67.2 78.1997 68 78.2999 68.8 78.3999C67.8 78.6999 66.8 78.4998 65.9 78.7998C64.3 78.8998 62.8 79.1997 61.2 79.1997C60.2 79.2997 59.2 79.3999 58.2 79.3999C57 79.5999 55.8 79.5997 54.6 79.6997C55.7 80.1997 57 80.0996 58.2 80.0996C59 80.1996 59.9 80.1998 60.7 80.2998C62.5 80.2998 64.3 80.5996 66.1 80.5996C66.8 80.5996 67.5 80.6996 68.2 80.5996C68.1 80.5996 68 80.4999 67.9 80.3999C67.1 80.2999 66.3 80.2997 65.6 80.1997C65.1 80.0997 64.5 80.0996 64 80.0996C63.4 80.0996 62.9 79.8999 62.3 79.8999C61.9 79.8999 61.4 79.8997 61 79.6997C61.6 79.4997 62.2 79.5 62.8 79.5C63.6 79.4 64.5 79.3998 65.3 79.2998C66.2 79.1998 67 79.1996 67.9 79.0996C69.1 79.0996 70.3 78.7998 71.5 78.7998C72 78.7998 72.5 78.6 73 78.5C72.2 78.3 71.4 78.2997 70.7 78.1997C70 78.0997 69.3 78 68.6 78C67.7 77.8 66.7 77.7997 65.8 77.6997C65.1 77.5997 64.4 77.5999 63.7 77.3999C65 76.8999 66.4 77.0999 67.7 76.8999C68.7 76.7999 69.7 76.7996 70.7 76.5996C71.6 76.5996 72.4 76.3998 73.3 76.2998C73.6 76.2998 73.6 75.8997 73.6 75.6997C73.6 70.1997 73.6 64.5996 73.6 59.0996C75.3 58.9996 77 59.0996 78.7 59.0996C79 59.0996 79.5 58.9999 79.5 59.3999C79.6 59.9999 79.4 60.5997 79.4 61.1997C79.4 65.1997 79.4 69.1 79.4 73C79.4 73.7 79.4 74.3 79.5 75C79.6 75.5 79.6 75.8998 79.4 76.2998C78.2 76.5998 77 76.4998 75.8 76.7998C74.6 76.8998 73.5 76.9996 72.3 77.0996C71.4 77.1996 70.5 76.9996 69.8 77.5996C70.4 77.6996 71.1 77.6998 71.7 77.7998C73.2 77.9998 74.7 78.1998 76.2 78.2998C77.1 78.3998 78 78.5 78.9 78.5C78.9 78.6 78.9 78.6998 78.9 78.7998C78.5 78.8998 78 78.8999 77.5 78.8999C76.5 78.8999 75.6 79.1997 74.7 79.1997C73.9 79.2997 73.2 79.2999 72.4 79.3999C71.6 79.3999 70.8 79.4996 70.1 79.5996C69.2 79.7996 68.3 79.5999 67.5 79.8999C68.4 80.1999 69.3 79.9997 70.2 80.1997C71 80.3997 71.8 80.2999 72.6 80.3999C73.3 80.4999 74 80.4996 74.7 80.5996C76.1 80.6996 77.5 80.6999 78.8 80.8999C79.7 80.8999 80.6 80.9999 81.5 80.8999C80.8 80.6999 80.1 80.6996 79.4 80.5996C78.8 80.4996 78.2 80.4999 77.6 80.3999C76.4 80.0999 75.2 80.1 73.9 80C75.2 80 76.5 79.6997 77.8 79.6997C79.3 79.5997 80.9 79.3999 82.4 79.3999C83.2 79.3999 84 79.1997 84.8 79.1997C85.9 79.1997 86.9 78.9998 87.9 78.7998C85.7 78.5998 83.5 78.2996 81.3 78.0996C80.7 77.9996 80.1 77.9997 79.6 77.6997C80.2 77.5997 80.9 77.6 81.6 77.5C82.5 77.4 83.4 77.3997 84.2 77.1997C85.6 77.0997 87 76.9997 88.4 76.6997C88.8 76.5997 89.3 76.6 89.7 76.5C89.7 70.8 89.7 65.0999 89.7 59.3999C90.6 59.2999 91.6 59.3999 92.5 59.3999C93.6 59.3999 94.6 59.2999 95.7 59.3999C95.7 65.0999 95.7 70.8996 95.7 76.5996C95.1 76.5996 94.5 76.7999 93.8 76.8999C92.9 76.8999 92.1 77.0997 91.2 77.1997C90 77.2997 88.8 77.5 87.5 77.5C87 77.5 86.4 77.5999 86 77.8999C86.7 77.9999 87.4 77.9997 88.1 78.1997C89.5 78.2997 90.8 78.4997 92.2 78.6997C92.7 78.7997 93.2 78.5996 93.6 78.5996C94.7 78.4996 95.9 78.3998 97 78.2998C97.8 78.2998 98.6 78.1 99.4 78C99.6 78 99.9 77.9998 99.9 77.7998C100.1 76.7998 100 75.7998 99.9 74.7998C99.9 69.6998 99.9 64.5996 99.9 59.5996C104.5 59.5996 109 59.5996 113.6 59.5996C115.5 59.5996 117.3 60.4998 118.6 61.7998C119.2 62.1998 119.5 62.8996 119.9 63.5996C120.3 64.1996 120.6 64.8996 120.7 65.5996C121 67.1996 121.1 68.8998 120.3 70.2998C119.9 70.9998 119.4 71.7999 118.8 72.3999C119.8 73.3999 120.9 74.2997 121.2 75.6997C121.4 76.3997 121.7 76.9998 121.7 77.7998C120.5 78.0998 119.2 78.1999 117.9 78.3999C117.3 78.4999 116.7 78.4996 116.1 78.5996C115.6 78.6996 115 78.6999 114.5 78.8999C115 79.1999 115.7 79.1997 116.3 79.1997C116.8 79.1997 117.2 79.3999 117.7 79.3999C119.1 79.3999 120.5 79.6998 121.9 79.7998C122.4 79.7998 122.8 79.8996 123.2 80.0996C122.3 80.2996 121.3 80.1999 120.3 80.3999C119.6 80.5999 118.8 80.3996 118.1 80.5996C117.6 80.7996 117.1 80.6997 116.6 80.6997C114.7 80.8997 112.8 81.0997 110.9 81.1997C110.8 81.1997 110.7 81.2999 110.6 81.3999C111.5 81.4999 112.5 81.5996 113.4 81.5996C114.2 81.6996 115 81.5998 115.7 81.7998C116.5 81.9998 117.3 81.8999 118.1 81.8999C118.8 81.9999 119.4 81.9996 120.1 82.0996C121.2 82.0996 122.4 82.0998 123.5 82.2998C122.4 82.3998 121.4 82.5997 120.3 82.6997C119.3 82.6997 118.4 82.9 117.4 83C116.7 83.1 116.1 83.2998 115.4 83.2998C114.1 83.4998 112.8 83.5997 111.5 83.6997C113.1 83.8997 114.7 84.0996 116.3 84.0996C117.2 84.1996 118.1 84.3998 119 84.2998C119.7 84.2998 120.3 84.4997 120.9 84.6997C119.9 84.7997 118.9 84.6999 117.9 84.8999C117.3 85.0999 116.8 85.4997 116.2 85.6997C115.7 85.8997 115.2 85.8999 114.7 85.8999C113.4 86.0999 112.2 86 110.9 86C107.3 86 103.7 86 100.1 86C100.1 85.5 100.1 85 100.1 84.5C98.9 84.1 97.7 84.3996 96.5 84.0996C95.8 83.8996 95.1 84.1 94.4 84C93.9 83.9 93.4 83.8999 92.9 83.8999C92.7 83.8999 92.5 83.9 92.4 84C91.9 84.4 91.4 84.8 90.8 85C90 85.3 89.3 85.6999 88.5 85.8999C87.8 86.0999 87.1 86.0998 86.5 86.2998H81.9C81.2 85.9998 80.4 85.9997 79.6 85.6997C78.5 85.2997 77.2 84.9 76.3 84C76 83.7 75.7 83.3999 75.2 83.3999C74 83.3999 72.8 83.0996 71.6 83.0996C70.7 82.9996 69.8 82.7998 68.8 82.7998C67.6 82.5998 66.3 82.7 65.1 82.5C66 82 67.1 82.2996 68.1 82.0996C69.2 81.9996 70.3 82.0999 71.4 81.8999C72.4 81.7999 73.3 81.7997 74.2 81.6997C73.6 81.5997 73.1 81.3999 72.5 81.3999C71.6 81.3999 70.8 81.2997 70 81.1997C69.3 81.1997 68.5 81.0999 67.8 81.3999C67 81.6999 66.1 81.5998 65.3 81.7998C64.6 81.9998 63.8 81.9996 63.1 82.0996C62.3 82.1996 61.5 82.1998 60.7 82.2998C59.8 82.4998 58.9 82.2996 58.1 82.5996C58.9 82.7996 59.8 82.8999 60.6 82.8999C61 82.8999 61.3 83 61.6 83C62.5 83.2 63.4 82.9997 64.3 83.1997C64.9 83.1997 65.4 83.3999 66 83.3999C66.9 83.4999 67.9 83.2997 68.8 83.6997C68.7 84.3997 68.8 84.9997 68.8 85.6997C68.8 85.6997 68.7 85.7998 68.6 85.7998C67.5 85.8998 66.5 85.7998 65.4 85.7998C64.7 85.7998 64.1 85.8997 63.4 85.6997C63.4 84.9997 63.4 84.2996 63.4 83.5996C62.9 83.4996 62.4 83.3999 61.9 83.3999C60.2 83.3999 58.4 83.1 56.7 83C56.1 82.9 55.5 82.6998 54.9 82.7998C54.3 82.7998 53.7 82.6996 53.2 82.5996C53.5 82.4996 53.7 82.2998 54 82.2998C54.7 82.1998 55.5 82.1996 56.2 82.0996C57.1 81.8996 58.1 81.8999 59 81.8999C60.3 81.5999 61.7 81.7998 63 81.2998C61.8 81.1998 60.6 81.1996 59.4 81.0996C58.1 80.9996 56.7 80.9998 55.4 80.7998C54.3 80.7998 53.3 80.6996 52.2 80.5996C51.1 80.3996 49.9 80.3999 48.8 80.3999C48.9 80.2999 49 80.0996 49.2 80.0996C49.9 79.8996 50.6 79.9999 51.3 79.8999C52.3 79.8999 53.2 79.6997 54.1 79.6997C55.2 79.6997 56.3 79.4 57.4 79.5C58.3 79.5 59.1 79.1998 60 79.2998C60.7 79.2998 61.4 79.0999 62.1 78.8999C61.4 78.7999 60.7 78.6997 60 78.6997C59 78.4997 58 78.5998 57 78.2998C56.3 78.1998 55.7 78.2996 55 78.0996C54.4 77.9996 53.7 77.9999 53.1 77.8999C53.5 77.6999 54 77.5996 54.5 77.5996C56 77.3996 57.4 77.2997 58.9 77.1997C59.9 77.1997 60.9 76.8999 61.9 76.8999C62.4 76.8999 62.9 76.6996 63.5 76.5996C63.5 75.9996 63.5 75.3998 63.5 74.7998C59.4 74.7998 55.3 74.7998 51.2 74.7998C51.2 75.3998 51.2 75.9997 51.2 76.6997C50.2 76.9997 49.2 76.8996 48.2 77.0996C47.1 77.2996 45.9 77.1999 44.7 77.3999C43.5 77.4999 42.2 77.5998 41 77.7998C41.4 78.1998 42 77.9997 42.5 78.1997C43.1 78.2997 43.7 78.2999 44.3 78.3999C45.2 78.5999 46.1 78.4997 47.1 78.6997C48.1 78.7997 49.2 78.7997 50.2 79.1997C49.9 79.2997 49.6 79.3999 49.4 79.3999C48.3 79.3999 47.2 79.5997 46.1 79.6997C43.5 79.8997 41 80.1998 38.4 80.2998C38.9 80.6998 39.6 80.7997 40.2 80.6997C41.3 80.6997 42.3 80.9999 43.4 80.8999C44.7 80.8999 46 81.0996 47.3 81.0996C48.3 81.1996 49.3 81.2999 50.3 81.3999C49.9 81.6999 49.4 81.6997 49 81.6997C48.4 81.6997 47.9 81.8999 47.3 81.8999C46.9 81.8999 46.4 82 46 82C45 82.2 44 82.0998 43.1 82.2998C42.5 82.3998 41.8 82.4 41.2 82.5C41.8 82.9 42.5 82.7998 43.2 82.7998C44.1 82.7998 45.1 82.8996 46 83.0996C46.6 83.0996 47.2 83.1998 47.8 83.2998C48.9 83.4998 50.1 83.3996 51.3 83.5996C51.3 84.3996 51.3 85.0998 51.3 85.7998C51 85.7998 50.8 85.8999 50.5 85.8999C49.6 85.7999 48.6 85.8998 47.6 85.7998C47 85.7998 46.4 85.8998 45.8 85.7998C45.8 85.0998 45.8 84.3997 45.8 83.6997C45 83.4997 44.3 83.6 43.5 83.5C41.8 83.4 40.1 83.1996 38.4 83.0996C37.8 83.0996 37.3 82.8999 36.7 82.8999C36.3 82.8999 35.8 82.8997 35.4 82.6997C36.3 82.2997 37.4 82.3997 38.4 82.1997C38.8 82.0997 39.3 82.0996 39.7 82.0996C41.5 81.9996 43.3 81.7999 45 81.3999C44 81.1999 42.9 81.2996 41.9 81.0996C38.9 80.9996 36 80.7 33 80.5C32.3 80.5 31.7 80.5999 31 80.3999C31 80.0999 31.4 80.1996 31.6 80.0996C32.7 80.0996 33.9 79.9999 35 79.8999C36.3 79.6999 37.6 79.7996 38.8 79.5996C40 79.4996 41.2 79.4998 42.3 79.2998C43.2 79.1998 44.1 79.2 45 79C44.7 78.9 44.5 78.6997 44.2 78.6997C42.9 78.5997 41.6 78.3998 40.3 78.2998C39.3 78.0998 38.2 78.1 37.2 78C36.7 77.9 36.1 77.9997 35.6 77.6997C36.9 77.4997 38.2 77.2998 39.6 77.2998C40.4 77.1998 41.2 77.0996 42 77.0996C42.7 76.9996 43.5 76.8999 44.2 76.8999C44.8 76.8999 45.3 76.6996 45.9 76.5996C45.9 71.2996 45.9 65.8996 45.9 60.5996C45.9 60.1996 45.9 59.8 46 59.5C47.8 59.5 49.6 59.5 51.4 59.5C51.4 63.1 51.4 66.7999 51.4 70.3999C55.5 70.3999 59.5 70.3999 63.6 70.3999C64.1 66.2999 64.1 62.7 64.1 59ZM105.7 63.5C105.7 65.7 105.7 67.9997 105.7 70.1997C106.9 70.2997 108.1 70.1997 109.3 70.1997C109.9 70.1997 110.6 70.2996 111.2 70.0996C111.6 69.9996 112.1 70.0999 112.4 69.8999C113 69.5999 113.7 69.1997 114.1 68.6997C114.3 68.2997 114.5 67.9 114.6 67.5C114.7 66.5 114.7 65.3997 114 64.6997C113.3 63.7997 112 63.7 110.9 63.5C109.2 63.5 107.4 63.5 105.7 63.5ZM105.7 73.8999C105.7 75.0999 105.7 76.3 105.7 77.5C104.8 77.7 103.9 77.7999 103 77.8999C101.9 78.0999 100.7 77.9999 99.6 78.3999C100.2 78.5999 100.9 78.5996 101.6 78.5996C103.1 78.8996 104.6 78.9996 106.1 79.0996C106.9 79.0996 107.7 79.4999 108.5 79.3999C107.7 79.4999 106.9 79.3996 106.1 79.5996C105.2 79.5996 104.3 79.8999 103.4 79.8999C102.9 79.8999 102.4 80.1996 101.9 80.0996C100.9 80.0996 100 80.2999 99.1 80.3999C98.5 80.4999 97.9 80.3996 97.3 80.5996C96.7 80.5996 96 80.6997 95.4 80.6997C95.4 80.7997 95.3 80.8999 95.3 80.8999C96.2 81.0999 97.2 80.9996 98.1 81.0996C99.1 81.0996 100.2 80.9998 101.2 81.2998C102.1 81.4998 103 81.3 103.9 81.5C104.2 81.6 104.5 81.3999 104.8 81.3999C104.3 81.0999 103.8 81.2997 103.3 81.1997C102.2 80.9997 101.1 80.8998 100 80.7998C100.9 80.6998 101.8 80.5996 102.8 80.5996C103.4 80.5996 104 80.4999 104.6 80.3999C105.3 80.2999 106 80.3997 106.7 80.1997C107.4 80.0997 108 79.9996 108.7 80.0996C109.5 80.0996 110.2 79.7999 111 79.8999C111.9 79.8999 112.8 79.7997 113.7 79.6997C114.6 79.6997 115.4 79.5996 116.3 79.5996C115.2 79.2996 114.1 79.2996 113 79.0996C112.2 78.8996 111.4 78.9997 110.7 78.6997C110.1 78.5997 109.4 78.5999 108.8 78.3999C108.7 78.3999 108.6 78.2997 108.6 78.1997C109.3 78.1997 109.9 78.0996 110.6 78.0996C111.6 77.8996 112.6 77.9998 113.6 77.7998C114.2 77.7998 114.8 77.7996 115.4 77.5996C115.3 77.0996 115.3 76.5 115 76C114.7 75.5 114.5 75.0998 114 74.7998C113.3 74.3998 112.5 74.2 111.6 74C109.7 73.9 107.7 73.8999 105.7 73.8999ZM93 78.8999C92.1 78.8999 91.2 78.9996 90.3 79.0996C89.2 79.1996 88 79.1998 86.9 79.2998C86 79.4998 85.1 79.4 84.3 79.5C83.4 79.7 82.5 79.5998 81.6 79.7998C82.1 79.9998 82.6 80 83.1 80C83.7 80 84.2 80.2997 84.7 80.1997C85.6 80.1997 86.4 80.3 87.3 80.5C88 80.6 88.7 80.4997 89.3 80.6997C90 80.7997 90.7 80.6996 91.4 80.5996C93 80.5996 94.5 80.1997 96 80.1997C97.2 79.8997 98.5 79.9998 99.8 79.7998C100.5 79.6998 101.1 79.7996 101.8 79.5996C100.9 79.2996 99.9 79.2997 98.9 79.1997C98.2 79.1997 97.6 78.9999 96.9 78.8999C96.3 78.8999 95.7 78.5996 95.1 78.5996C94.5 78.5996 93.7 78.7999 93 78.8999ZM89.8 81.5C88.9 81.5 88.1 81.5997 87.2 81.6997C86.2 81.6997 85.3 81.7998 84.3 81.7998C83.6 81.8998 82.9 81.9996 82.2 82.0996C83 82.1996 83.8 82.1998 84.6 82.2998C85.3 82.4998 86 82.5 86.7 82.5C87.3 82.6 87.8 82.7997 88.4 82.6997C89.9 82.8997 91.5 83.2 93 83C93.8 83 94.6 82.6997 95.4 82.6997C95.9 82.6997 96.4 82.5 96.9 82.5C97.5 82.5 98 82.3998 98.6 82.2998C99.3 82.1998 100 82.1996 100.7 82.0996C100 81.8996 99.2 81.8998 98.5 81.7998C96.9 81.7998 95.3 81.5999 93.7 81.3999C93 81.4999 92.4 81.0997 91.7 81.1997C91.1 81.1997 90.5 81.4 89.8 81.5Z" fill="#FEED01"/>
</svg>
