<svg width="184" height="77" viewBox="0 0 184 77" fill="none" xmlns="http://www.w3.org/2000/svg">
<path d="M0 0H65.2V61V61.6001V62.2002L65.1 62.8003L65 63.3999L64.9 64L64.8 64.6001L64.6 65.1001L64.5 65.7002L64.3 66.2002L64.1 66.7002L63.8 67.1001L63.5 67.6001L63.2 68L62.9 68.3999L62.5 68.8003L62.1 69.2002L61.7 69.6001L61.2 70L60.7 70.3003L60.2 70.6001L59.7 70.8999L59.2 71.2002L58.6 71.3999L58 71.6001L57.4 71.8003L56.8 72L56.1 72.1001L55.4 72.2002L54.7 72.3003H53.9H53.2H44.4H43.9H43.4H42.9H42.4H42L41.5 72.3999L41 72.5L40.6 72.6001L40.2 72.7002L39.8 72.8003L39.4 72.8999L39 73L38.6 73.1001L38.2 73.2002L37.9 73.3003L37.5 73.5L37.2 73.6001L36.8 73.8003L36.5 73.8999L36.2 74.1001L35.8 74.3003L35.5 74.5L35.2 74.7002L34.9 74.8999L34.6 75.1001L34.3 75.3003L34 75.5L33.7 75.7002L33.4 75.8999L33.2 76.1001L32.7 76.6001L32.2 76.1001L31.9 75.8999L31.6 75.7002L31.3 75.5L31 75.3003L30.8 75.1001L30.5 74.8999L30.2 74.7002L29.9 74.5L29.6 74.3003L29.3 74.1001L29 73.8999L28.7 73.8003L28.3 73.6001L28 73.5L27.7 73.3003L27.3 73.2002L26.9 73.1001L26.6 73L26.2 72.8999L25.8 72.8003L25.4 72.7002L25 72.6001L24.5 72.5L24 72.3999L23.6 72.3003H23.1H22.6H22.1H21.6H21.1H12.2H11.5H10.7L10 72.2002L9.30002 72.1001L8.70001 72L8 71.8003L7.39999 71.6001L6.89999 71.3999L6.30002 71.2002L5.80002 70.8999L5.30002 70.6001L4.80002 70.3003L4.39999 70L3.89999 69.6001L3.5 69.2002L3.10001 68.8003L2.70001 68.3999L2.39999 68L2.10001 67.6001L1.80002 67.1001L1.5 66.7002L1.30002 66.2002L1.10001 65.7002L0.899994 65.1001L0.700012 64.6001L0.600006 64L0.5 63.3999L0.399994 62.8003V62.2002V61.6001V61V0H0Z" fill="black"/>
<path d="M0 0H64.4V60.6001C64.4 67.1001 60.2 71.8003 52.1 71.8003H44.5C38.7 71.8003 34.9 73.8 32.2 76.5C29.5 73.8 25.7 71.8003 19.9 71.8003H12.3C4.20002 71.8003 0 67.2001 0 60.6001V0Z" fill="#C91517"/>
<path d="M13.4123 4.62539C13.0123 4.62539 12.8123 4.9252 12.9123 5.4252L15.6123 9.225C15.7123 9.425 15.9123 9.625 15.8123 9.725C15.6123 10.225 15.5123 10.6253 15.9123 11.0253L16.8123 11.9252C16.9123 12.6252 17.0123 13.125 17.2123 13.225C17.0123 13.625 17.2123 14.0252 17.6123 14.4252C17.7123 14.5252 17.7123 14.7251 17.9123 14.8251L18.0123 16.1254C16.7123 17.2254 16.1123 17.9253 16.0123 18.5253C16.0123 18.8253 15.9123 19.025 16.0123 19.225L17.8123 19.0253C17.9123 19.1253 18.1123 19.125 18.2123 19.225C18.5123 19.925 18.1123 20.9253 17.1123 21.0253C14.9123 21.6253 13.3123 22.3251 13.9123 23.8251C14.7123 24.9251 14.3123 25.825 12.9123 26.725C12.6123 27.025 12.4123 27.4252 12.5123 27.9252C12.1123 28.2252 11.8123 28.8251 11.5123 29.3251C11.3123 29.9251 11.3123 30.2254 11.7123 30.1254C14.8123 29.1254 17.8123 28.6252 20.0123 30.4252C21.1123 31.3252 20.9123 31.7251 22.6123 31.8251C22.4123 32.5251 22.6123 32.9253 23.2123 33.0253L23.3123 33.8251C22.6123 33.9251 21.9123 33.9254 21.2123 34.1254C20.4123 34.3254 19.7123 34.6254 19.0123 34.6254C18.4123 34.1254 17.8123 33.9253 17.2123 33.5253C14.5123 31.8253 12.2123 31.7254 10.1123 34.1254C9.01225 35.3254 8.11227 37.125 7.31227 39.725C7.21227 40.225 6.81225 40.4252 6.11225 39.9252C4.61225 38.7252 4.31225 37.6252 5.11225 36.9252C6.11225 35.9252 6.51228 36.5253 6.01228 37.0253V37.1254C6.81228 37.1254 7.11227 37.725 7.41227 38.225C8.11227 36.425 7.71226 35.3251 6.71226 34.3251H6.51228L6.61225 35.8251C5.01225 35.5251 4.11228 36.7252 4.01228 37.9252C3.91228 39.0252 4.41227 40.0252 5.91227 40.9252C6.71227 41.2252 7.01227 42.1254 6.31227 43.1254C4.71227 45.4254 5.01227 47.9253 6.41227 51.0253L6.61225 50.9252C6.91225 47.4252 7.61227 45.7251 8.81227 45.3251C9.21227 45.2251 9.51227 44.9253 9.81227 44.5253C10.1123 44.0253 10.3123 44.0254 10.6123 44.6254C11.3123 46.1254 11.2123 47.5252 10.3123 48.9252C8.31227 52.2252 8.21225 54.725 11.1123 56.725L11.2123 56.9252L10.4123 57.9252C10.2123 58.3252 10.4123 58.8251 11.0123 59.3251C11.5123 59.9251 11.7123 60.8253 11.9123 62.0253C11.7123 62.4253 11.6123 62.8251 11.8123 63.3251C12.2123 63.9251 13.3123 64.2254 14.7123 64.1254C14.8123 64.1254 14.8123 64.0251 14.8123 63.8251C14.9123 63.1251 14.5123 62.7251 14.0123 61.8251C12.6123 60.5251 12.2123 59.3254 12.7123 58.1254L12.9123 57.8251C14.0123 58.2251 15.5123 58.7251 16.8123 58.8251C16.2123 59.9251 16.3123 61.425 16.8123 62.225C17.7123 63.825 18.7123 64.5252 20.5123 64.4252C23.0123 64.2252 24.2123 62.1251 23.3123 59.3251C24.2123 58.8251 24.8123 58.8252 25.1123 59.4252C25.1123 60.6252 25.6123 60.3253 25.7123 61.5253C24.2123 62.8253 23.7123 63.9254 25.3123 64.6254C26.1123 65.4254 25.7123 65.7251 24.6123 65.8251C23.5123 65.5251 22.7123 65.6253 22.5123 66.5253C21.5123 66.5253 21.2123 67.225 21.2123 68.225C21.5123 67.525 22.1123 67.4254 22.4123 67.6254C23.0123 67.6254 23.5123 67.7253 24.0123 67.5253C24.5123 67.3253 25.0123 67.3253 25.6123 67.5253C25.9123 67.5253 26.1123 67.6252 26.3123 67.9252C27.0123 68.7252 27.0123 67.8251 28.6123 68.8251C29.0123 68.8251 29.7123 68.8253 29.8123 69.5253L29.9123 68.9252C30.0123 68.7252 29.9123 68.425 29.7123 68.225C29.2123 67.625 30.0123 67.5251 31.5123 67.8251C32.3123 68.1251 33.0123 68.325 33.5123 68.225C34.2123 67.525 34.3123 68.0251 34.4123 68.8251C34.9123 67.6251 34.5123 66.9251 33.3123 66.8251C33.5123 66.1251 33.6123 67.1251 34.1123 66.3251C34.5123 66.1251 34.9123 66.325 35.3123 66.725C35.4123 66.125 35.0123 65.7253 34.2123 65.5253C34.0123 65.0253 33.6123 64.9253 33.1123 65.5253C30.8123 64.9253 30.5123 63.525 31.9123 63.225C32.6123 63.025 32.9123 63.8253 33.4123 64.0253C33.8123 64.1253 34.1123 64.1254 34.6123 64.1254C35.3123 64.1254 35.8123 64.2253 36.2123 64.5253L36.7123 64.6254C36.9123 64.4254 37.2123 64.525 37.5123 64.725C37.8123 65.225 38.2123 65.3251 38.5123 64.8251C39.4123 64.1251 40.8123 64.1253 40.7123 64.5253C40.7123 65.2253 40.8123 65.4252 41.0123 65.4252C41.2123 65.4252 41.3123 65.725 41.3123 66.225C40.4123 66.225 39.8123 66.3253 39.8123 67.0253C39.0123 67.2253 39.0123 67.8254 39.4123 68.6254C39.3123 67.1254 40.6123 68.3253 41.8123 67.5253L42.7123 67.4252C42.8123 67.8252 43.2123 68.0253 43.9123 68.0253C44.2123 67.9253 44.6123 67.9251 44.9123 67.8251C46.4123 67.4251 47.6123 67.525 48.5123 68.725C48.7123 68.325 48.6123 67.9254 48.4123 67.6254C49.4123 66.9254 50.6123 67.2251 49.9123 68.3251C50.5123 68.0251 51.1123 66.5253 50.3123 66.5253C50.6123 65.6253 52.0123 66.4253 51.6123 67.0253C52.2123 66.7253 52.3123 66.225 51.6123 65.725C51.5123 65.225 51.1123 65.025 50.3123 65.225C49.9123 64.525 49.3123 64.4254 48.6123 65.1254C47.9123 65.4254 47.3123 65.5253 46.9123 65.0253C46.5123 64.3253 46.6123 64.125 47.1123 64.225C47.4123 64.325 47.5123 64.0251 47.9123 63.3251C48.0123 63.0251 48.3123 62.8252 48.5123 62.4252C49.3123 62.3252 49.9123 61.625 50.8123 60.225C51.4123 59.925 51.7123 58.8253 51.7123 57.0253C51.9123 57.1253 52.3123 57.0251 52.6123 56.8251C52.3123 56.8251 52.2123 56.7253 52.2123 56.0253H53.0123C53.3123 55.9253 53.4123 55.8254 53.4123 55.6254C53.4123 55.5254 53.1123 55.525 52.9123 55.225C52.8123 54.825 52.6123 54.3252 52.1123 53.9252L51.4123 52.725C50.9123 51.025 50.3123 50.125 49.5123 50.725L49.3123 50.6254C48.7123 49.9254 48.3123 49.1254 48.0123 48.1254C48.0123 47.0254 46.8123 46.9253 46.2123 48.0253L46.0123 47.1254L45.7123 47.6254L43.8123 44.8251C44.0123 44.8251 44.4123 44.6253 44.6123 44.5253C47.0123 44.3253 49.3123 43.6251 51.7123 42.3251L53.4123 41.8251C54.2123 41.5251 54.4123 41.8254 54.8123 42.1254L56.6123 43.9252C56.9123 44.3252 56.9123 44.6253 56.7123 45.0253C56.5123 45.4253 56.9123 45.9252 57.6123 46.4252C58.2123 47.0252 58.2123 47.8252 57.7123 48.9252C57.4123 49.6252 57.5123 50.025 57.9123 50.225L59.1123 51.1254C59.9123 51.8254 60.3123 51.5252 60.3123 50.4252C60.3123 49.8252 60.1123 49.325 59.7123 48.725C59.3123 48.025 59.0123 47.3254 59.0123 46.6254C59.0123 45.2254 58.8123 44.5253 58.2123 44.0253C57.5123 43.3253 57.0123 42.6251 56.5123 41.8251C56.4123 41.3251 56.2123 41.1252 56.0123 40.9252C56.0123 39.4252 54.9123 38.7254 54.2123 39.1254C53.6123 39.2254 53.1123 39.325 52.4123 39.225V38.9252C53.2123 38.5252 54.5123 37.125 55.8123 35.725C56.3123 35.125 56.5123 35.3251 57.0123 35.8251L58.9123 37.8251C58.9123 38.8251 59.0123 39.4252 59.7123 39.4252C60.2123 40.2252 60.4123 41.0251 59.9123 41.3251C59.5123 41.7251 59.1123 41.9252 59.1123 42.4252C59.2123 43.2252 60.1123 44.0251 61.0123 44.3251C61.1123 44.3251 61.2123 44.325 61.3123 44.225C61.6123 43.525 61.6123 42.7252 61.3123 41.9252L61.0123 40.8251C61.0123 40.3251 61.0123 40.0254 61.0123 39.6254C61.1123 38.7254 61.1123 38.2254 60.2123 37.6254C59.0123 36.4254 58.0123 35.1251 57.2123 33.8251C57.2123 32.0251 55.7123 31.6253 54.8123 33.5253L53.0123 34.8251C52.5123 35.1251 52.2123 34.6254 52.2123 34.1254C52.0123 31.8254 50.4123 30.025 48.7123 28.225C47.8123 25.425 46.5123 23.1253 46.1123 21.0253C47.9123 21.2253 49.2123 21.5253 49.7123 22.0253C50.5123 22.8253 51.5123 23.225 51.7123 22.725C51.8123 22.525 51.2123 22.2252 50.9123 21.9252C51.2123 21.9252 51.6123 22.2254 52.0123 22.6254C52.8123 22.6254 53.0123 22.025 52.8123 21.225C52.9123 20.525 52.8123 20.1252 52.6123 19.9252L51.9123 19.5253C50.8123 18.3253 50.0123 17.2252 49.2123 15.9252C49.1123 15.8252 49.1123 15.6253 49.1123 15.5253C49.1123 15.0253 49.0123 14.5254 48.4123 14.1254L48.6123 14.0253V13.8251L49.2123 13.9252L48.6123 13.0253C48.3123 11.9253 47.3123 11.7254 45.7123 12.1254C45.5123 12.1254 45.2123 11.9254 44.9123 11.6254C43.9123 10.7254 42.9123 10.1251 43.2123 10.8251C43.2123 10.9251 43.6123 11.325 43.2123 11.225L41.5123 10.9252C41.1123 10.9252 41.1123 10.9254 41.2123 11.1254C41.5123 11.4254 41.8123 11.8254 41.9123 12.1254L39.8123 12.225C39.4123 12.225 39.0123 12.4252 38.6123 12.4252C37.4123 11.4252 36.0123 12.2251 34.5123 13.3251L34.3123 13.225V11.4252H34.5123L34.4123 10.3251H34.5123C34.6123 8.6251 34.3123 7.525 33.6123 6.725C33.5123 6.225 34.0123 6.22539 34.1123 6.12539C34.6123 5.52539 34.6123 4.8252 34.6123 4.4252C34.5123 3.6252 34.3123 3.42539 33.9123 3.62539H33.5123C33.0123 3.62539 32.7123 3.425 32.5123 3.225C32.0123 2.925 31.6123 2.925 31.1123 3.225C28.9123 3.825 28.5123 5.5251 25.8123 4.3251C25.5123 4.3251 25.4123 4.42539 25.6123 4.62539C26.1123 5.22539 26.7123 5.6252 27.4123 5.9252C27.2123 6.1252 26.7123 6.12529 25.9123 6.02529C26.4123 6.62529 27.2123 6.9252 28.6123 6.9252C29.1123 7.2252 29.7123 7.1251 30.4123 6.8251C30.8123 6.6251 30.8123 6.725 30.5123 7.225C29.8123 7.825 29.3123 8.9252 29.2123 10.9252C28.9123 11.3252 28.8123 11.8251 28.7123 12.3251C27.7123 12.0251 26.8123 11.825 26.4123 12.225H26.0123C25.1123 11.525 24.2123 11.5253 23.5123 12.0253L21.9123 13.225C21.3123 13.625 20.8123 13.625 20.7123 13.225L20.0123 11.8251C20.0123 10.8251 19.7123 10.4251 19.0123 10.3251C18.7123 10.0251 18.5123 9.7251 18.4123 9.3251L17.9123 8.725C18.0123 8.225 17.9123 8.02529 17.5123 8.02529C17.1123 8.02529 16.7123 8.0251 16.5123 7.8251L13.4123 4.62539ZM11.2123 42.5253C12.4123 37.8253 14.5123 35.225 18.0123 36.225C16.7123 37.725 15.7123 40.4253 15.9123 45.0253C16.0123 47.1253 16.4123 48.5251 15.1123 49.8251C13.9123 51.0251 13.1123 50.825 12.9123 52.225C12.8123 53.125 12.6123 54.0253 12.3123 54.5253C11.4123 54.0253 11.3123 53.0251 12.0123 51.3251C13.8123 48.0251 13.4123 45.1253 11.2123 42.5253ZM20.2123 60.725C20.7123 60.925 20.7123 61.4254 20.1123 61.6254C19.6123 61.4254 19.6123 61.025 20.2123 60.725ZM28.0123 63.9252C28.0123 64.2252 28.1123 64.4253 28.3123 64.5253C28.6123 64.7253 28.7123 65.1252 28.4123 65.4252L27.7123 64.8251C27.5123 64.4251 27.6123 64.1252 28.0123 63.9252ZM44.0123 65.225C44.2123 65.725 45.0123 66.125 44.4123 66.225C44.4123 66.325 44.2123 66.3254 43.8123 66.1254C43.3123 65.8254 43.4123 65.525 44.0123 65.225ZM26.6123 55.3251C25.5123 54.2251 25.4123 53.2251 26.6123 52.3251C27.3123 51.8251 28.4123 50.7253 29.6123 49.0253C30.5123 49.0253 31.2123 48.8254 32.1123 48.6254C35.5123 48.2254 38.8123 47.4253 41.4123 46.0253C41.9123 45.9253 42.3123 46.0251 42.5123 46.3251L44.5123 48.9252L43.9123 49.1254L45.4123 50.225C45.1123 50.425 45.3123 50.625 45.6123 50.725C45.4123 51.025 45.6123 51.325 45.8123 51.225C45.9123 51.625 46.2123 52.1251 45.4123 51.3251C44.9123 51.1251 44.8123 51.3254 45.3123 52.1254L46.1123 53.3251C46.1123 53.9251 46.4123 54.325 46.8123 54.725L47.5123 56.1254C47.5123 56.3254 47.6123 56.525 47.7123 56.725C47.8123 57.225 47.9123 57.5254 48.4123 57.6254C48.0123 58.4254 47.4123 59.225 46.5123 59.725C44.7123 60.725 43.3123 60.3252 43.4123 57.9252C43.5123 56.6252 43.7123 55.5251 43.8123 54.3251C44.3123 52.3251 43.8123 51.2254 42.0123 51.1254C41.1123 51.1254 40.4123 51.1253 39.9123 51.5253C39.4123 51.8253 38.7123 51.725 37.8123 51.225C36.0123 49.825 34.6123 49.1254 33.7123 49.1254C34.6123 50.1254 34.8123 51.1254 34.1123 52.1254C34.9123 52.4254 34.8123 52.8254 34.1123 53.1254C32.3123 53.1254 30.4123 52.825 28.3123 52.225C27.6123 52.125 27.5123 52.2254 28.0123 52.6254C29.5123 53.2254 30.4123 54.1252 30.4123 55.4252C29.4123 55.4252 28.6123 55.5254 28.1123 55.6254C27.5123 55.9254 27.1123 55.9251 26.6123 55.3251ZM14.2123 55.3251C14.7123 53.5251 15.8123 52.525 17.7123 52.225C19.5123 51.925 21.5123 50.9252 23.7123 49.9252C24.6123 49.2252 24.7123 49.5251 24.1123 50.8251L23.1123 52.0253C22.5123 52.6253 22.4123 53.2251 23.2123 53.8251C24.2123 54.3251 24.7123 54.825 24.5123 55.225C23.4123 54.925 22.3123 55.1252 21.4123 55.9252C20.7123 55.7252 20.0123 55.8251 18.9123 56.3251C18.3123 56.0251 17.8123 56.025 17.0123 56.225C16.8123 55.725 16.3123 55.6251 15.4123 55.8251C15.1123 55.7251 14.7123 55.5251 14.2123 55.3251Z" fill="black"/>
<path d="M57.6 44.8C57.6 44.8 57.8 44.8002 57.9 45.0002C58 45.2002 58 45.4001 58 45.4001C58 45.4001 57.8 45.4004 57.7 45.2004C57.5 45.0004 57.5 44.8 57.6 44.8ZM58 47.3C58.1 47.3 58.2 47.6001 58.2 47.9001C58.2 48.2001 58.1 48.5002 58 48.5002C57.9 48.5002 57.8 48.2001 57.8 47.9001C57.8 47.6001 57.9 47.3 58 47.3ZM57.4 49.5002L57.7 48.8C57.8 48.6 58 48.6 58.1 48.8L58.8 49.5002C58.7 49.6002 58.3 49.6004 58.1 49.7004L58.3 50.1003L58.1 50.2004L58 50.5002C57.5 50.2002 57.2 49.8002 57.4 49.5002ZM59.8 41.4001L59.9 40.7004C59.9 40.5004 60 40.6004 60.1 40.7004C60.3 41.0004 60.6 41.3 60.6 41.8C60.6 42 60.6 42.1004 60.5 42.2004C60.3 42.2004 60.2 42.2002 60 42.0002C59.8 41.7002 59.7 41.6001 59.8 41.4001ZM59.5 39.0002C59.2 38.6002 59.3 38.4001 59.6 38.4001C59.2 37.8001 59.6 37.7 60 38.3C60.2 38.6 60.2 39.1 60.1 39.8C60.1 40 59.9 40 59.8 39.8C59.8 39.4 59.7 39.2002 59.5 39.0002ZM59.5 41.8C59.4 41.7 59.3 41.8 59.2 41.8C58.9 42.2 58.8 42.5 59 42.8L59.7 43.3C59.9 43.5 60.2 43.4004 60 43.2004L59.8 42.9001C59.9 42.9001 60.1 43.1003 60.2 43.1003C60.3 43.1003 60.3 42.9 60.2 42.8C60 42.6 59.9 42.5 60.1 42.3C60.1 42.3 60.1 42.2003 60.1 42.1003L59.5 41.8ZM52.9 37.0002C52.9 36.4002 53 35.8004 53.3 35.2004C53.4 34.9004 53.5 34.9003 53.7 35.1003C54.3 34.2003 54.1 34.7001 53.9 35.4001L54 35.5002C54.7 34.3002 54.4 35.3 54.3 35.8C53.8 36.4 53.5 36.5003 53.3 36.1003L53.2 36.9001C53 37.2001 52.9 37.3002 52.9 37.0002ZM49.3 36.1003C49.2 35.5003 49.3 35.4002 49.6 36.0002C49.9 36.8002 50.1 37.8002 50.1 39.0002C50.1 39.5002 49.7 39.5002 49.7 39.0002C49.6 38.0002 49.5 37.0003 49.3 36.1003ZM48.9 34.0002C49.1 34.0002 49.4 34.2003 49.5 34.6003C49.6 35.0003 49.5 35.3001 49.2 35.4001C49 35.4001 48.7 35.2 48.6 34.8C48.6 34.4 48.7 34.1002 48.9 34.0002ZM48.1 35.5002C48.1 35.5002 48.3 35.5004 48.4 35.7004C48.5 35.9004 48.5 36.0003 48.4 36.1003C48.3 36.2003 48.2 36.1001 48.1 35.9001C48.1 35.7001 48.1 35.5002 48.1 35.5002ZM50.9 35.8C50.9 35.8 51.1 35.9002 51.2 36.0002C51.2 36.1002 51.3 36.3 51.2 36.3C51.2 36.3 51 36.3003 51 36.1003C50.9 36.0003 50.9 35.8 50.9 35.8ZM55.3 33.7004C55.1 33.5004 55.1 33.1001 55.3 32.9001C55.5 32.7001 55.8 32.7 56 32.8C56.2 32.9 56.2 33.0003 56.2 33.1003L55.8 33.2004L56.3 33.3C56.5 33.5 56.3 33.9003 56.1 33.6003C55.9 33.4003 55.7 33.4002 55.5 33.5002C55.5 33.8002 55.5 33.8004 55.3 33.7004ZM52.1 37.4001L52.3 36.2004L52.1 36.6003C51.9 36.6003 51.9 36.4002 51.9 36.0002C51.9 35.6002 51.9 35.4002 52.1 35.5002L52.2 35.9001L52.3 35.6003C52.5 35.5003 52.5 35.6002 52.4 36.0002V37.3C52.3 37.6 52.2 37.9001 52.1 37.4001ZM47.7 34.1003L47.8 34.0002H47.9L48.4 34.6003V34.7004L48.3 34.8H48.2L47.7 34.2004C47.6 34.2004 47.6 34.2003 47.7 34.1003ZM50.7 38.7004C50.7 38.7004 50.8 38.7 50.8 38.8C50.8 38.8 50.8 38.9001 50.7 38.9001C50.6 38.9001 50.6 38.9 50.6 38.8C50.7 38.7 50.7 38.7004 50.7 38.7004ZM49 33.6003C49 32.3003 49.2 31.3 49.2 30.3C49.2 29.9 49.5 29.9 49.5 30.3C49.5 31.3 49.5 32.3001 49.3 33.4001C49.2 33.6001 49 33.9003 49 33.6003ZM11.4 58.3C11.2 59.1 10.3 58.7002 10.7 58.0002C11.8 56.2002 12.9 54.4001 13.2 51.9001C13.2 51.0001 13.8 50.6004 14.5 50.2004C16 49.4004 16.5 48.0001 16.5 46.4001C16.2 39.5001 18.1 36.5 21 35.3L20.9 35.6003C18.3 37.2003 17.2 40.3003 17.1 44.6003C17.1 45.5003 17 46.5003 17.1 47.6003L17.2 47.4001C17.3 44.9001 17.3 42.8 17.6 41.3C17.9 39.7 18.5 38.7002 19 38.0002C19.2 37.8002 19.3 37.4004 19.5 37.2004C19.7 37.0004 20 36.9004 20.2 36.7004V36.9001C19.2 37.9001 18.4 39.2001 17.9 40.9001C17.5 42.8001 17.4 45.1001 17.6 47.4001C17.6 47.7001 17.5 48 17.4 48.3H17.5C17.7 47.9 17.8 47.5002 17.8 47.0002C17.6 44.2002 17.8 41.4001 18.8 39.4001C19.5 38.0001 19.9 37.5001 21.9 36.4001V36.6003C20.2 37.7003 18.7 39.1002 18.4 43.5002L18.5 43.4001C18.8 40.0001 20 37.5003 22.3 36.6003C23.1 36.3003 24.1 36.3 25.1 36.3L24.9 36.4001C23.3 36.3001 21.9 36.8003 20.7 38.1003H20.9C22 36.9003 23.4 36.3004 25 36.7004L24.9 36.9001C23.7 36.7001 22.8 37.1 21.8 37.8V37.9001C22.8 37.2001 23.8 36.9002 24.7 37.0002C25 37.0002 25.1 37.3004 25 37.7004L24.8 39.4001C24.8 41.0001 24.7 42.6002 24.3 44.0002L24.2 44.1003L24.3 41.3L23.6 44.8C23.6 45.2 23.3 45.1 23.3 44.8C23.4 44.1 23.7 43.0002 23.9 42.0002C23.8 42.0002 23.6 42.1 23.6 42.3C23.4 43.8 23.2 45.0001 22.8 45.4001C23 44.5001 23.1 43.5003 23.2 42.6003L23 42.7004L22.5 45.3C22.8 45.5 22.4 45.8001 22.3 45.4001L22.4 43.9001L22.3 43.8L21.6 46.2004L21.8 44.6003L21.3 46.2004H21.2L21.5 44.8L20.6 47.3C20.3 47.3 20.3 47.3 20.5 46.8L21.1 45.1003H20.9C20.5 46.4003 20.2 47.2002 19.8 47.5002H19.7C20.4 46.4002 20.4 45.8 20.5 45.3C20.2 46.4 19.8 47.1 19.2 47.8C19.1 47.7 19.2 47.4 19.6 46.8L19.9 45.9001C19.8 45.7001 19.7 45.8002 19.6 46.0002C19.4 46.8002 19.2 47.3 18.8 47.8L19.2 46.3V46.1003C18.9 47.0003 18.5 47.8004 18 48.2004L18.2 48.3C19 47.7 20.1 47.9001 21.3 47.4001C21.5 47.3001 21.8 47.2001 22 47.4001L21.8 48.0002L21.6 47.7004C21.5 48.2004 21.3 48.6 21 48.8L20.9 48.1003C20.4 49.2003 20.1 49.8004 20 49.2004L20.1 48.5002C19.7 48.9002 19.5 49.3 19.4 49.8C19.2 49.8 19.2 49.4001 19.3 48.9001L19 50.0002C18.7 50.0002 18.7 49.8003 18.8 49.1003C18.6 49.7003 18.3 50.1004 18.2 50.2004C18.1 50.0004 18.1 49.7 18.2 49.3L17.9 49.9001C17.9 50.3001 17.8 50.5002 17.6 50.5002C17.7 49.8002 17.7 49.6004 17.6 49.7004L17.2 50.7004C17 50.8004 16.9 50.6002 17 50.0002C16.7 50.2002 16.8 50.9003 16.5 51.1003C16.3 51.0003 16.3 50.7 16.3 50.3C16.2 50.8 16 51.1004 15.8 51.2004V50.2004C15.7 50.7004 15.6 51 15.4 51.3L15.1 50.6003L15 51.3C14.8 51.4 14.6 51.3 14.5 50.8C14.5 51.7 14.4 52.6001 13.8 52.9001C13.8 53.1001 13.6 53.8002 13.2 54.5002L14.2 53.1003C14.4 53.1003 14.5 53.1003 14.4 53.6003L13.4 55.3C13.3 55.5 13.1 55.4 12.9 55.3C12.7 56.1 12.3 56.7004 12 57.2004C12.4 56.9004 12.7 56.3002 13 55.5002C13 55.3002 13.3 55.5003 13.2 56.1003L13 56.3V56.7004H12.7V57.2004L12.4 57.3C12.4 58.2 12 58.6 11.4 58.3ZM17.1 35.3L18.3 35.1003V35.3H17.1ZM6 44.6003C6.1 44.0003 6.60002 43.7002 6.90002 43.0002C7.10002 42.6002 7.20001 42.9004 7.20001 43.2004C6.70001 44.0004 6.3 44.3003 6 44.6003Z" fill="white"/>
<path d="M18.5 34.4304C16.6 32.6304 14.6 31.83 13.2 32.03C10.5 32.63 9.20002 35.13 8.40002 37.53C8.90002 36.73 9.30001 36.23 9.70001 36.03C8.40001 38.13 7.6 40.3303 7.5 42.8303C7.4 43.1303 7.3 43.4301 7 43.6301C6.1 44.3301 6.20001 44.8303 6.10001 45.3303C6.30001 45.2303 6.50002 44.8304 6.80002 44.4304C7.20002 43.9304 7.60002 43.5301 7.80002 42.6301C8.10002 41.5301 8.20002 40.5302 8.40002 39.7302C8.70002 38.7302 9.00001 37.9301 9.60001 37.1301C10.6 35.5301 11.8 34.0304 13.2 33.4304V33.6301C11.8 34.4301 10.8 35.5303 9.70001 37.3303C9.40001 37.8303 9.2 38.2303 9 38.8303C8.8 39.4303 8.50002 40.0303 8.40002 40.8303C8.20002 42.5303 7.80002 43.5302 7.40002 44.2302C6.90002 44.9302 6.6 45.1304 6.5 45.4304C6.5 45.5304 6.30002 45.8302 6.40002 46.2302C7.50002 44.2302 8.00002 44.4304 8.40002 42.9304C9.10002 40.7304 8.6 38.5302 11.5 35.2302H11.7C10.3 36.8302 9.30002 38.3301 8.90002 41.6301C8.80002 42.2301 8.7 42.9304 8.5 43.4304C8.1 44.1304 7.40001 44.7303 7.20001 45.3303H7.30002C7.70002 44.9303 8.40001 44.13 8.70001 43.53C9.60001 41.83 9.30002 39.5302 10.4 37.7302C11.9 35.3302 13 34.1303 14.8 33.3303H15C12.5 34.6303 12.1 35.63 11 37.03C10.6 37.53 10.3 38.0304 10.1 38.9304C9.80001 39.7304 9.6 40.9304 9.5 41.9304C9.3 43.1304 8.80002 43.83 8.40002 44.53C8.10002 44.83 7.90001 45.0303 7.70001 45.3303C7.50001 45.6303 7.30001 46.13 7.20001 46.53H7.30002C8.00002 44.73 8.40002 45.13 8.90002 44.53C9.20002 44.13 9.60001 43.4301 9.70001 42.6301C9.90001 40.8301 10.3 39.5303 10.9 38.3303C11.6 37.0303 12.6 35.6302 13.7 34.7302C14.2 34.3302 14.6 34.0303 15.3 33.8303H15.4C14.6 34.4303 14 34.5301 13.4 35.1301C12.4 36.1301 11.4 37.6303 10.8 38.8303C10.3 40.0303 10 41.3301 9.90002 42.6301C9.90002 42.4301 10 42.7301 10.1 42.6301C10.7 39.4301 11.8 37.2302 13.2 35.7302C14 34.9302 15 34.33 15.8 34.03H16.4C15.1 34.43 13.8 35.03 12.8 36.53H13C14.2 35.23 15.4 34.7304 16.5 34.4304H16.7C15.9 34.7304 15.2 35.0304 14.7 35.4304V35.6301C15.5 34.9301 16.9 34.6304 18.5 34.4304ZM6.20001 47.7302C6.10001 47.5302 6 47.2304 6 46.9304C6 46.5304 6.30002 46.6303 6.40002 46.8303C6.50002 47.4303 6.20001 47.4302 6.20001 47.7302ZM9.80002 51.03L10.1 50.7302C10.2 50.6302 10.4 50.6302 10.6 50.7302C10.5 50.8302 10.2 51.03 9.80002 51.03ZM9.5 52.03L9.90002 51.6301C10.1 51.5301 10.4 51.43 10.6 51.53C10.5 51.63 10.1 51.83 9.5 52.03ZM9.60001 52.53L10.1 52.1301C10.3 52.0301 10.6 52.0301 10.8 52.1301C10.6 52.2301 10.1 52.43 9.60001 52.53ZM9.70001 52.9304L10.1 52.53C10.3 52.43 10.6 52.43 10.8 52.53C10.6 52.73 10.2 52.8304 9.70001 52.9304ZM9.90002 53.4304L10.2 53.1301C10.3 53.0301 10.5 53.0301 10.7 53.1301C10.6 53.1301 10.3 53.3304 9.90002 53.4304ZM11.5 48.4304L11.7 48.3303C11.8 48.3303 12 48.3303 12 48.3303C12 48.4303 11.7 48.4304 11.5 48.4304ZM11 49.03L11.5 48.8303C11.7 48.8303 12 48.8304 12.1 48.9304C12.1 49.1304 11.6 49.13 11 49.03ZM11.4 47.7302L11.8 47.4304C12 47.3304 12.2 47.3304 12.4 47.4304C12.2 47.6304 11.8 47.7302 11.4 47.7302ZM11.6 47.03L12 46.9304C12.2 46.9304 12.4 47.0301 12.4 47.1301C12.4 47.2301 12 47.23 11.6 47.03ZM10.8 55.2302L11.1 55.1301C11.2 55.1301 11.4 55.1301 11.4 55.1301C11.4 55.2301 11.1 55.3302 10.8 55.2302ZM11.6 54.3303L10.9 54.4304C10.6 54.5304 10.4 54.83 10.4 55.03C10.7 55.03 11.2 54.7303 11.6 54.3303ZM11.4 53.9304H10.9C10.7 53.9304 10.5 54.1303 10.4 54.3303C10.5 54.4303 10.9 54.2304 11.4 53.9304ZM13.7 56.4304L14 55.7302C14.1 55.5302 14.4 55.4304 14.7 55.4304C14.7 55.7304 14.3 56.1304 13.7 56.4304ZM15.1 55.8303L15.7 55.6301C16 55.6301 16.2 55.7303 16.4 55.8303C16.4 56.0303 16 56.3301 15.5 56.6301L15.8 56.1301C15.8 56.1301 15.9 56.0304 16 55.9304H15.8C15.7 56.0304 15.4 56.2304 15.1 56.4304L15.3 56.03L15.4 55.9304C15.3 55.8304 15.2 55.8303 15.1 55.8303ZM17.7 55.9304C17.9 55.8304 18.5 55.9302 18.4 56.2302C18.4 56.4302 18 56.73 17.5 57.03L17.7 56.4304C17.7 56.3304 17.8 56.3302 17.9 56.2302H17.7C17.6 56.3302 17.4 56.5302 17.1 56.7302L17.3 56.2302C17.3 56.2302 17.4 56.2301 17.4 56.1301H17.3C17.2 56.2301 17 56.33 16.8 56.53L16.9 56.2302C17.3 56.0302 17.4 56.0304 17.7 55.9304ZM21.7 55.8303C21.7 55.3303 22.1 55.0304 22.9 54.9304C23.8 54.8304 24.8 54.9304 24.6 55.4304H24.5L24.4 55.8303L24.1 56.4304L24.3 55.7302L24.4 55.4304C24.3 55.4304 24.2 55.3303 24 55.3303L23.7 55.6301L23.2 56.1301L23.6 55.53L23.7 55.3303C23.7 55.3303 23.6 55.3303 23.5 55.3303L23.2 55.6301L22.7 56.1301L23.1 55.53L23.2 55.3303H23L22.8 55.6301L22.4 56.2302L22.7 55.53L22.8 55.4304C22.7 55.4304 22.6 55.43 22.5 55.53L22.3 56.03L22.4 55.53C22 55.33 21.8 55.5303 21.7 55.8303ZM18.8 56.2302L19.6 55.7302C20.1 55.5302 20.8 55.4303 20.7 55.8303C20.7 55.8303 20.7 55.9304 20.5 55.9304C20.5 56.0304 20.5 56.2304 20.5 56.4304L20.3 55.9304H20.2C20.2 56.1304 20.2 56.4301 20.2 56.6301L19.9 55.9304H19.8C19.8 56.2304 19.8 56.63 19.8 57.03L19.4 56.1301L19.3 56.7302L19.2 56.1301C19.1 56.3301 19 56.73 18.9 57.03V56.3303C18.8 56.3303 18.8 56.3302 18.8 56.2302C18.8 56.1302 18.8 56.2302 18.8 56.2302Z" fill="white"/>
<path d="M10 36.2998L11.3 35C10.8 35.2 10.3 35.5998 10 36.2998ZM17.2 60.1997C17.1 59.8997 16.9 59.5999 17.2 58.8999C17.4 58.1999 17.8 58.1001 17.9 58.1001C18.1 58.3001 17.9 58.7999 17.9 59.3999L17.4 59L17.5 59.7998L17.1 59.3999L17.2 60.1997ZM21.5 61C21.5 60.9 21.4 60.7998 21.3 60.7998C21.3 60.7998 21.3 60.9001 21.3 61.1001C21.4 61.2001 21.5 61.2998 21.5 61.2998C21.7 61.1998 21.6 61.1 21.5 61ZM21.5 61.5C21.4 61.3 21.3 61.1998 21.2 61.2998C21.1 61.3998 21.2 61.4997 21.3 61.6997C21.4 61.8997 21.5 61.9999 21.6 61.8999C21.7 61.8999 21.7 61.7 21.5 61.5ZM21.3 62.1001C21.2 62.0001 21.1 61.8999 21.1 61.8999C21.1 61.8999 21.1 62.0997 21.1 62.1997C21.2 62.2997 21.3 62.3999 21.3 62.3999C21.3 62.2999 21.3 62.2001 21.3 62.1001ZM21 62.6001C21 62.4001 20.8 62.1997 20.7 62.1997C20.7 62.1997 20.7 62.3997 20.7 62.6997C20.7 62.8997 20.9 63.1001 20.9 63.1001C21.1 63.0001 21.1 62.8001 21 62.6001ZM17.4 62.2998C17.6 62.2998 17.7 62.3999 17.7 62.3999C17.7 62.3999 17.5 62.3999 17.4 62.3999C17.3 62.3999 17.1 62.2998 17.1 62.2998C17.1 62.2998 17.3 62.2998 17.4 62.2998ZM17.3 62C17.5 62 17.7 62.0997 17.7 62.1997C17.7 62.2997 17.5 62.2997 17.3 62.1997C17.1 62.1997 16.9 62.1 16.9 62C16.9 61.9 17 61.9 17.3 62ZM17.2 61.3999C17.4 61.3999 17.6 61.5001 17.6 61.6001C17.6 61.7001 17.4 61.7001 17.1 61.6001C16.9 61.6001 16.6 61.4999 16.7 61.3999C16.7 61.3999 16.9 61.3999 17.2 61.3999ZM25.1 56.2998C24.9 55.6998 25.6 55.4998 26.3 55.7998C26.9 55.9998 27.5 56.0999 28.4 55.8999C28.8 55.7999 29.3 55.7999 29.7 55.8999C30.2 56.0999 30.1 56.4 29.6 56.5C28.6 57.4 27.9 58.2998 27.8 59.2998C27.5 58.7998 28.2 57.6998 29.3 56.2998C28.6 56.7998 28 57.4997 27.5 58.1997C27.6 57.6997 28 56.9998 28.6 56.2998C27.4 57.1998 26.6 58.4999 26.7 60.8999C26.2 59.3999 26.6 58.0001 27.5 56.6001L26.2 58L27.4 56.1997L26.7 56.3999V56.1001L26.2 56.2998V56L25.6 56.5L25.7 56C25.4 55.9 25.3 55.9998 25.1 56.2998ZM25.6 59.6997C25.6 60.0997 25.6 60.4999 25.9 60.8999C26 60.9999 26.1 60.8997 26 60.6997C25.9 60.4997 25.7 60.1997 25.6 59.6997Z" fill="white"/>
<path d="M28.1 59.5C28.1 59.5 28.2 59.5999 28.2 59.8999C28.2 60.1999 28.2 60.2998 28.1 60.2998C28 60.2998 28 60.0999 28 59.8999C28 59.6999 28 59.5 28.1 59.5ZM29.5 58C29.5 58 29.5 58.1998 29.5 58.2998C29.4 58.4998 29.3 58.6001 29.3 58.6001C29.3 58.6001 29.3 58.3998 29.3 58.2998C29.3 58.0998 29.4 57.9 29.5 58ZM29.8 57.2002C29.8 57.2002 29.8 57.4 29.7 57.5C29.6 57.6 29.5 57.7002 29.5 57.7002C29.5 57.7002 29.5 57.4999 29.6 57.3999C29.7 57.2999 29.8 57.2002 29.8 57.2002ZM41.3 58.3999C41.8 58.5999 41.9 59.3002 41.6 60.2002C41.6 59.5002 41.5 58.8999 41.3 58.3999ZM38.6 62.2002C38.6 62.1002 38.5 61.9002 38.4 61.7002C38.5 61.9002 38.5 62.1002 38.6 62.2002ZM32.6 53C32.6 53 32.7 53 32.8 53L33 53.3999C32.9 53.3999 32.8 53.3999 32.7 53.3999L32.6 53ZM32.2 55.6001C32.2 55.6001 32.3 55.7999 32.4 55.8999C32.4 55.9999 32.4 56.1001 32.4 56.1001C32.4 56.1001 32.3 55.9998 32.2 55.7998C32.1 55.6998 32.1 55.6001 32.2 55.6001ZM32.6 55.6001C32.6 55.6001 32.7 55.6998 32.7 55.7998C32.7 55.8998 32.8 56.1001 32.7 56.1001C32.7 56.1001 32.6 55.9999 32.5 55.8999C32.6 55.6999 32.5 55.6001 32.6 55.6001ZM33.2 55.5C33.2 55.5 33.4 55.6999 33.4 55.8999C33.4 56.0999 33.4 56.2002 33.3 56.2002C33.2 56.2002 33.2 56.1999 33.2 55.8999C33.1 55.6999 33.1 55.5 33.2 55.5ZM33.7 55.2998C33.7 55.2998 33.8 55.4002 33.9 55.7002C33.9 55.9002 34 56.1001 33.9 56.1001C33.9 56.1001 33.8 56.0002 33.7 55.7002C33.6 55.5002 33.6 55.2998 33.7 55.2998ZM34.2 55.2998C34.3 55.2998 34.4 55.5002 34.4 55.7002C34.4 56.0002 34.4 56.2002 34.4 56.2002C34.4 56.2002 34.2 56.0002 34.2 55.7002C34.2 55.5002 34.2 55.2998 34.2 55.2998ZM34.8 55.3999C34.8 55.3999 35 55.6999 35.1 55.8999C35.2 56.0999 35.2 56.2998 35 56.2998C34.8 56.2998 34.9 56.1999 34.8 55.8999C34.8 55.6999 34.8 55.3999 34.8 55.3999ZM35.2 55.2998C35.3 55.2998 35.4 55.4998 35.5 55.7998C35.5 56.0998 35.5 56.2998 35.5 56.2998C35.5 56.2998 35.3 56.0998 35.3 55.7998C35.2 55.4998 35.2 55.2998 35.2 55.2998ZM35.9 55.1001C35.9 55.1001 36 55.4002 36 55.7002C36 56.0002 36 56.2998 35.9 56.2998C35.9 56.2998 35.8 56.0002 35.8 55.7002C35.7 55.4002 35.8 55.1001 35.9 55.1001ZM36.4 55.2998C36.4 55.2998 36.5 55.4998 36.5 55.7998C36.5 56.0998 36.5 56.2998 36.4 56.2998C36.3 56.2998 36.3 56.0998 36.3 55.7998C36.3 55.5998 36.3 55.2998 36.4 55.2998ZM36.9 55.1001C36.9 55.1001 37 55.4002 37 55.7002C37 56.0002 37 56.2998 36.9 56.2998C36.9 56.2998 36.8 56.0002 36.8 55.7002C36.8 55.4002 36.8 55.1001 36.9 55.1001ZM37.5 55C37.6 55 37.6 55.3002 37.6 55.7002C37.6 56.0002 37.5 56.3999 37.4 56.3999C37.4 56.3999 37.3 56.1002 37.4 55.7002C37.3 55.3002 37.4 55 37.5 55ZM38.2 54.8999C38.3 54.8999 38.3 55.2001 38.2 55.6001C38.1 56.0001 38.1 56.2998 38 56.2998C38 56.2998 37.9 56.0001 38 55.6001C38 55.2001 38.1 54.8999 38.2 54.8999ZM38.8 54.6001C38.9 54.6001 39 55.1 39 55.5C38.9 56 38.8 56.2998 38.7 56.2998C38.6 56.2998 38.7 55.9 38.7 55.5C38.7 55 38.7 54.6001 38.8 54.6001ZM35.7 58.1001C35.7 58.1001 35.8 58.1998 35.8 58.2998C35.8 58.3998 35.8 58.6001 35.8 58.6001C35.8 58.6001 35.7 58.4999 35.7 58.3999C35.7 58.1999 35.6 58.1001 35.7 58.1001ZM36.1 57.8999C36.1 57.8999 36.2 58.0002 36.3 58.2002C36.3 58.4002 36.3 58.5 36.3 58.5C36.2 58.5 36.2 58.4998 36.2 58.2998C36 58.1998 36 57.9999 36.1 57.8999ZM40.2 56.6001V56.7998C40.3 56.7998 40.4 56.7001 40.5 56.6001C40.5 56.0001 40.5 55.5001 40.5 55.1001C40.4 55.7001 40.3 56.2001 40.2 56.6001Z" fill="white"/>
<path d="M39.2 57.7589C39.1 58.5589 39 58.7592 38.7 59.0592C38.8 58.5592 38.7 58.1593 38.7 58.1593C38.6 58.1593 38.6 58.1593 38.5 58.1593V58.2589C38.5 58.5589 38.5 58.9591 38.2 59.4591C38.2 59.0591 38.3 58.6589 38.3 58.2589C38.2 58.2589 38.2 58.259 38.1 58.359V58.7589C38.1 58.9589 37.9 59.4591 37.9 59.4591C37.9 59.4591 38 58.559 37.9 58.359C37.9 58.359 37.8 58.359 37.7 58.359V58.4591C37.7 58.5591 37.7 58.6593 37.6 58.6593C37.5 58.6593 37.6 58.6592 37.6 58.5592V58.4591H37.5C37.5 58.5591 37.5 58.5593 37.5 58.6593C37.5 58.6593 37.4 58.5591 37.4 58.4591H37.3C37.3 58.5591 37.3 58.6589 37.2 58.7589C37.1 58.8589 37.1 58.6592 37 58.5592C36.9 58.5592 36.8 58.5592 36.7 58.5592C36.7 58.6592 36.7 58.7589 36.7 58.7589C36.7 58.7589 36.6 58.7592 36.6 58.5592H36.4C36.4 58.6592 36.4 58.7589 36.4 58.7589C36.4 58.7589 36.3 58.7592 36.3 58.5592V58.4591C36.2 58.2591 36.2 58.0592 36.2 58.0592C36.2 58.0592 36.3 58.159 36.4 58.359C36.4 58.359 36.4 58.4592 36.4 58.5592C36.4 58.5592 36.5 58.5592 36.6 58.5592V58.4591C36.6 58.2591 36.6 57.9591 36.6 57.9591C36.6 57.9591 36.7 58.059 36.8 58.359V58.4591C36.9 58.4591 36.9 58.459 37 58.359C37 58.259 37 58.1592 37 58.0592C37 57.9592 37 57.859 37 57.859C37 57.859 37.2 58.0589 37.2 58.2589H37.3C37.3 58.0589 37.3 58.059 37.3 57.859C37.3 57.759 37.3 57.7589 37.3 57.7589C37.3 57.7589 37.5 57.9593 37.5 58.1593C37.5 58.1593 37.5 58.1589 37.5 58.2589H37.6V57.859C37.6 57.759 37.6 57.6593 37.6 57.6593C37.6 57.6593 37.6 57.6589 37.7 57.7589C37.7 57.8589 37.7 58.0593 37.8 58.1593C37.8 58.1593 37.9 58.1593 38 58.1593V57.9591C38 57.8591 38 57.859 38 57.859C38 57.859 38.1 57.9593 38.1 58.1593C38.2 58.1593 38.2 58.1592 38.3 58.0592V57.7589C38.3 57.6589 38.3 57.5592 38.3 57.5592C38.3 57.5592 38.3 57.5593 38.3 57.6593C38.3 57.7593 38.3 57.8591 38.3 57.9591C38.3 57.9591 38.4 57.959 38.5 57.859C38.5 57.659 38.5 57.459 38.5 57.359C38.5 57.259 38.5 57.1593 38.6 57.1593C38.6 57.1593 38.6 57.1589 38.6 57.2589C38.6 57.3589 38.6 57.5589 38.6 57.7589C38.6 57.7589 38.7 57.7589 38.8 57.7589C39 56.8589 39.3 55.7589 39.3 54.7589C39.3 54.6589 39.2 54.5591 39.1 54.4591C39.1 55.6591 39 56.5589 38.6 57.2589C38.8 56.3589 38.8 55.3593 38.6 54.1593H38.5C38.5 55.3593 38.5 56.4593 38.2 57.1593C38.3 56.1593 38.3 55.059 37.9 53.859C37.9 53.859 37.8 53.859 37.7 53.859C38 54.059 37.9 55.0589 37.8 55.2589C37.6 54.6589 37.8 54.4592 37.2 54.0592H37.1C37.4 54.3592 37.4 54.8593 37.3 55.1593C37.2 54.8593 36.9 54.3593 36.6 54.1593H36.3C36.7 54.6593 36.7 54.7592 36.6 55.0592C36.5 54.6592 35.8 54.3593 35.6 54.1593C35.5 54.1593 35.5 54.1593 35.3 54.1593C35.6 54.2593 36.1 54.8592 35.9 55.0592C35.7 54.8592 35.2 54.5589 35 54.2589C34.9 54.2589 35 54.2589 34.8 54.2589C34.8 54.4589 34.8 54.5589 34.8 54.7589C34.5 54.7589 34.4 54.6589 34 54.2589H33.8L34 54.6593C34 54.5593 33.3 54.2593 33.2 54.1593C33.2 54.1593 33.3 54.1593 33 54.1593C33 54.2593 33.2 54.759 33.3 54.859C33.3 54.759 32.8 54.2593 32.7 54.1593C32.6 54.1593 32.4 54.1593 32.3 54.1593L32 53.6593C33.4 53.7593 34.9 53.659 36.7 53.359L38.4 53.0592C39 52.8592 39.4 53.1592 39.5 54.0592L39.6 55.0592C40 55.5592 40.1 56.2592 39.7 57.0592C39.8 57.7592 40.2 58.2589 40.8 58.7589C41.3 59.2589 41.4 59.8589 40.8 60.7589C40.3 62.0589 39.6 62.959 38.9 63.859C38.9 63.859 38.9 63.8591 38.9 63.9591C38.9 63.9591 38.9 63.9592 38.8 64.0592C38.8 64.0592 38.8 63.9591 38.9 63.9591C38.9 63.8591 38.9 63.6591 38.8 63.4591C38.9 63.5591 38.9 63.6589 38.9 63.7589C39 63.6589 39.1 63.4589 39.2 63.2589C39.2 63.1589 39.2 62.9589 39.1 62.7589C39.1 62.8589 39.2 62.9592 39.3 63.0592C39.3 62.9592 39.4 62.8593 39.5 62.6593C39.5 62.5593 39.4 62.3593 39.4 62.1593C39.5 62.2593 39.5 62.3592 39.6 62.5592C39.7 62.4592 39.8 62.2592 39.8 62.0592C39.8 61.9592 39.7 61.7592 39.7 61.5592C39.7 61.6592 39.8 61.759 39.9 61.859C40 61.559 40 61.3593 40.1 61.1593L37 63.0592L37.9 62.359C37.9 62.159 37.9 61.9589 37.8 61.7589C37.9 61.8589 37.9 62.0589 38 62.2589C38 62.2589 38.1 62.1592 38.2 62.0592C38.2 61.8592 38.2 61.559 38.1 61.359C38.2 61.559 38.3 61.7591 38.3 61.9591C38.4 61.9591 38.5 61.8589 38.6 61.7589C38.6 61.4589 38.6 61.0589 38.5 60.7589C38.6 61.0589 38.7 61.3592 38.8 61.5592C38.9 61.4592 38.9 61.459 39 61.359C39 60.959 38.9 60.4591 38.9 59.9591C39.1 60.3591 39.3 60.7593 39.3 61.1593C39.3 61.1593 39.4 61.0592 39.5 61.0592C39.5 60.5592 39.4 60.0592 39.3 59.5592C39.5 60.0592 39.7 60.459 39.7 60.859C39.7 60.859 39.7 60.8589 39.8 60.7589C39.8 60.2589 39.7 59.5591 39.6 58.9591C39.9 59.5591 40.1 60.0591 40 60.4591L40.2 60.2589C40.2 59.3589 39.9 58.5589 39.6 57.7589C39.5 58.1589 39.5 58.359 39.4 58.359C39.4 57.859 39.4 57.6592 39.4 57.5592C39.4 58.2592 39.2 58.659 39 58.859L39.1 57.7589H39.2Z" fill="white"/>
<path d="M37.0155 59.5C37.0155 59.7 37.0155 59.7998 36.9155 59.7998C36.8155 59.7998 36.8155 59.6 36.9155 59.5H37.0155ZM37.4155 59.1997C37.4155 59.1997 37.5155 59.3 37.5155 59.5C37.5155 59.7 37.5155 59.8999 37.4155 59.8999C37.2155 59.8999 37.3155 59.7 37.3155 59.5C37.3155 59.3 37.3155 59.1997 37.4155 59.1997ZM37.8155 59.2998C37.8155 59.5998 37.8154 59.8999 37.7154 59.8999C37.6154 59.8999 37.6154 59.5998 37.7154 59.2998H37.8155ZM37.7154 58.7998C37.7154 58.7998 37.7154 58.7999 37.7154 58.8999H37.6155C37.7155 58.8999 37.7154 58.7998 37.7154 58.7998ZM38.2154 58.7998C38.2154 58.7998 38.3155 58.8997 38.3155 59.1997C38.3155 59.4997 38.3155 59.6997 38.1155 59.6997C37.9155 59.6997 38.0155 59.3996 38.0155 59.0996C38.1155 58.8996 38.1154 58.7998 38.2154 58.7998ZM36.1155 50C36.9155 50.2 37.7155 50.8 38.5155 51.5C38.6155 51.7 38.5155 51.7997 38.4155 51.6997C37.7155 51.4997 36.9155 50.6 36.1155 50ZM39.0155 52C39.1155 52.1 39.2154 52.1997 39.2154 52.1997C39.2154 52.1997 39.1155 52.1997 38.9155 52.1997C38.8155 52.0997 38.7154 52 38.7154 52C38.7154 51.9 38.9155 51.9 39.0155 52ZM31.3155 53.0996C31.6155 53.0996 31.9155 53.0997 32.1155 53.1997L32.3155 53.5C32.2155 53.5 32.6155 54.5 32.1155 53.5C32.1155 53.4 31.9154 53.3999 31.7154 53.3999C31.5154 53.1999 31.6155 53.1996 31.3155 53.0996ZM27.5155 66.2998C27.6155 66.2998 27.8155 66.2999 27.8155 66.3999C27.8155 66.3999 27.7155 66.5 27.6155 66.5C27.4155 66.5 27.3155 66.4999 27.3155 66.3999C27.2155 66.3999 27.3155 66.2998 27.5155 66.2998ZM27.9155 67.0996C28.1155 67.0996 28.4155 66.9996 28.5155 67.0996C28.6155 67.1996 28.4155 67.1998 28.1155 67.2998C27.9155 67.2998 27.6155 67.2998 27.5155 67.2998C27.5155 67.1998 27.7155 67.0996 27.9155 67.0996ZM28.1155 67.2998C28.4155 67.2998 28.7154 67.1998 28.7154 67.2998C28.7154 67.2998 28.6155 67.5 28.3155 67.5C28.0155 67.6 27.7154 67.6 27.7154 67.5C27.7154 67.5 27.9155 67.3998 28.1155 67.2998ZM28.5155 67.5996C28.7155 67.5996 28.9155 67.5996 28.9155 67.5996C28.9155 67.5996 28.8155 67.6998 28.6155 67.7998C28.4155 67.7998 28.2154 67.7998 28.2154 67.7998C28.2154 67.6998 28.3155 67.5996 28.5155 67.5996ZM28.8155 67.7998C29.0155 67.7998 29.1155 67.7999 29.1155 67.8999C29.1155 67.8999 29.0155 68 28.9155 68C28.8155 68 28.6155 67.9999 28.6155 67.8999C28.6155 67.7999 28.6155 67.7998 28.8155 67.7998ZM32.0155 66.5996C32.2155 66.4996 32.5155 66.4996 32.5155 66.5996C32.5155 66.6996 32.4155 66.9 32.1155 67C31.9155 67.1 31.6155 67.1 31.6155 67C31.6155 66.9 31.8155 66.6996 32.0155 66.5996ZM31.6155 66.3999C31.8155 66.2999 32.0155 66.2999 32.0155 66.3999C32.0155 66.4999 31.9154 66.5997 31.7154 66.6997C31.5154 66.7997 31.3155 66.6997 31.3155 66.6997C31.3155 66.4997 31.4155 66.3999 31.6155 66.3999ZM31.2154 65.7998C31.3154 65.7998 31.5155 65.7998 31.5155 65.7998C31.5155 65.8998 31.5155 66 31.3155 66C31.2155 66 31.0155 66 31.0155 66C30.9155 65.9 31.0154 65.7998 31.2154 65.7998ZM26.8155 63.1997C26.8155 63.0997 26.6155 63.0997 26.6155 63.1997C26.6155 63.3997 26.6155 63.6998 26.8155 63.7998C27.0155 63.8998 27.1155 63.6996 27.0155 63.5996C26.8155 63.4996 26.8155 63.3997 26.8155 63.1997ZM26.3155 63C26.3155 62.8 26.2155 62.6999 26.1155 62.8999C26.0155 63.0999 25.9155 63.4997 26.1155 63.6997C26.3155 63.9997 26.5155 63.6996 26.4155 63.5996C26.3155 63.2996 26.3155 63.2 26.3155 63ZM47.6155 49.2998C47.4155 49.5998 47.4155 50.5999 48.3155 51.8999C48.6155 52.2999 48.3154 52.5997 48.7154 52.6997C48.9154 52.6997 49.0155 52.4997 49.0155 52.1997L48.7154 52.0996H49.1155L48.6155 51.7998C48.7155 51.7998 49.1155 51.7997 49.1155 51.6997C49.1155 51.4997 48.6155 51.4999 48.4155 51.3999L48.9155 51.2998C48.9155 51.1998 48.6155 50.9999 48.1155 50.8999L48.6155 50.7998L48.0155 50.5L48.4155 50.3999L47.7154 50.0996L48.1155 49.8999L47.7154 49.7998L48.1155 49.5996C48.1155 49.2996 47.9155 48.9998 47.6155 49.2998ZM46.9155 50.0996C46.7155 49.6996 46.7155 49.3996 46.8155 49.0996C47.0155 48.4996 47.2155 48.3999 47.4155 48.3999C47.8155 48.7999 47.2155 49.0998 47.0155 49.2998C47.0155 49.3998 46.9155 49.5996 46.9155 50.0996ZM46.8155 48.1997C46.9155 48.0997 47.1154 48 47.2154 48C47.3154 48 47.2155 48.1999 47.0155 48.3999C46.9155 48.4999 46.7155 48.6996 46.6155 48.5996C46.5155 48.5996 46.6155 48.3997 46.8155 48.1997ZM46.6155 50.1997C46.7155 50.1997 46.8155 50.2999 46.8155 50.3999C46.8155 50.4999 46.7155 50.5996 46.6155 50.5996C46.5155 50.5996 46.4155 50.4999 46.4155 50.3999C46.4155 50.2999 46.5155 50.1997 46.6155 50.1997ZM47.0155 50.7998C47.1155 50.7998 47.1155 50.9996 47.0155 51.0996C47.0155 51.1996 46.8154 51.2998 46.7154 51.2998C46.6154 51.2998 46.6154 51.1 46.7154 51C46.8154 50.8 46.9155 50.6998 47.0155 50.7998ZM47.4155 51.5C47.5155 51.5 47.6155 51.6999 47.4155 51.8999C47.3155 51.9999 47.1155 52.0996 46.9155 52.0996C46.8155 52.0996 46.7155 51.8997 46.8155 51.6997C47.1155 51.4997 47.2155 51.4 47.4155 51.5ZM47.9155 52.0996C48.0155 52.1996 47.9155 52.2999 47.8155 52.3999C47.7155 52.3999 47.5155 52.3998 47.4155 52.2998C47.4155 52.1998 47.4155 52.1 47.5155 52C47.6155 52 47.8155 52.0996 47.9155 52.0996ZM50.1155 52.5C50.1155 52.4 50.1155 52.2997 50.0155 52.1997C49.9155 52.0997 49.8154 52.2 49.7154 52C49.6154 51.6 49.7155 51.3998 50.1155 51.2998C50.3155 51.2998 50.4155 51.4 50.4155 51.5L50.3155 51.5996C50.6155 51.6996 50.8155 51.7999 50.9155 51.8999C50.8155 51.8999 50.7155 51.9 50.6155 52C51.1155 51.9 51.1155 52.6996 50.6155 52.5996C50.3155 52.4996 50.1155 52.5997 50.3155 53.1997C50.4155 53.7997 50.9155 53.9998 50.8155 53.2998C50.8155 52.9998 51.8155 52.8996 51.9155 53.5996L51.5155 53.5C51.6155 54 52.0155 53.7997 52.1155 54.1997H51.8155C52.2155 54.4997 52.5154 54.7997 52.7154 55.1997C52.3154 55.1997 52.2155 54.6997 51.8155 54.6997C52.3155 55.3997 52.9154 55.2999 53.2154 55.8999C52.8154 55.8999 52.3154 55.5 51.7154 55C52.2154 55.7 52.6155 56.2997 52.4155 56.6997C51.6155 56.3997 51.5154 55.1999 51.2154 54.8999C51.2154 55.4999 51.6155 55.8 51.5155 56.5C51.2155 56.1 51.0155 55.5997 51.0155 54.6997C51.3155 54.6997 51.4155 54.6 51.4155 54C51.4155 53.4 51.1155 53.5 51.1155 54C51.1155 54.4 50.8155 54.5 50.0155 54C49.9155 54.1 50.0155 54.2996 50.5155 54.5996V55.0996L50.7154 54.6997L50.8155 56C50.8155 56.3 50.7155 56.3 50.6155 56L50.5155 55.2998C50.5155 55.7998 50.5155 56 50.3155 56L50.2154 54.7998L49.9155 55.1997L49.8155 54.5L49.5155 54.6997V53.8999C49.3155 53.9999 49.0155 53.8996 48.8155 53.5996C49.1155 53.6996 49.4155 53.6 49.6155 53.5C49.3155 52.9 49.6155 52.6 50.1155 52.5ZM42.8155 56.1997C42.8155 55.8997 42.9155 55.8 42.6155 55.5C42.5155 55.4 42.4155 55.4 42.4155 55.5C42.5155 55.8 42.8155 55.9997 42.8155 56.1997ZM42.3155 54.3999C42.7155 54.5999 42.9155 54.5997 43.1155 55.1997C43.1155 55.3997 43.1155 55.5999 43.0155 55.3999C42.8155 55.0999 42.7155 54.5999 42.3155 54.3999ZM42.4155 53.1997C42.9155 53.5997 43.2155 53.6 43.4155 54.5C43.4155 54.8 43.4154 54.9997 43.2154 54.6997C42.8154 54.2997 42.8155 53.5997 42.4155 53.1997ZM42.7154 52.2998C43.3154 52.4998 43.7154 53.1998 43.7154 53.7998C43.7154 54.0998 43.6155 54.4 43.5155 54C43.3155 53.6 43.1154 52.6998 42.7154 52.2998ZM42.9155 51.8999C43.4155 52.0999 43.8155 52.5 43.9155 53C43.9155 53.3 43.9154 53.4997 43.7154 53.1997C43.6154 52.6997 43.3155 52.2999 42.9155 51.8999ZM46.5155 67C46.6155 66.7 47.1155 66.3996 47.6155 66.5996C47.8155 66.5996 47.8155 66.9997 47.8155 67.1997C47.7155 67.0997 47.5155 66.8996 47.3155 67.0996C47.0155 66.6996 46.8155 66.9 46.5155 67ZM44.8155 67.0996C44.9155 67.0996 45.0155 67.0998 45.0155 67.2998C45.0155 67.3998 44.9155 67.3999 44.8155 67.3999C44.7155 67.3999 44.6155 67.3998 44.6155 67.2998C44.6155 67.1998 44.7155 67.0996 44.8155 67.0996ZM43.7154 67.0996C43.7154 67.0996 43.8155 67.1998 43.9155 67.2998C44.0155 67.3998 43.9155 67.5996 43.9155 67.5996C43.9155 67.5996 43.8154 67.5999 43.7154 67.3999C43.7154 67.2999 43.7154 67.0996 43.7154 67.0996ZM44.1155 67C44.1155 67 44.2154 66.9997 44.2154 67.1997C44.2154 67.2997 44.2154 67.3999 44.2154 67.3999C44.2154 67.3999 44.1155 67.3997 44.1155 67.1997C44.1155 67.1997 44.1155 67.1 44.1155 67ZM44.2154 63.0996C44.0154 63.2996 43.9155 63.3998 43.9155 63.2998C43.9155 63.2998 43.9155 63.1 43.9155 63L44.0155 62.8999C44.0155 62.8999 44.0155 62.8998 44.0155 62.7998C44.0155 62.7998 44.0155 62.7999 44.0155 62.8999C43.9155 62.9999 43.7154 63.0996 43.7154 63.0996C43.7154 63.0996 43.7155 62.8997 43.8155 62.6997L43.9155 62.5996C43.8155 62.6996 43.6155 62.7998 43.6155 62.7998C43.6155 62.7998 43.6154 62.5999 43.7154 62.3999C43.7154 62.3999 43.7155 62.2998 43.6155 62.2998C43.5155 62.2998 43.5155 62.3998 43.4155 62.2998C43.3155 62.1998 43.4155 62.2 43.5155 62C43.5155 61.9 43.4155 61.7997 43.5155 61.6997C43.7155 61.5997 43.8155 61.6997 44.0155 62.1997C44.0155 62.2997 44.0155 62.4 44.1155 62.5C44.1155 62.6 44.3155 62.6998 44.4155 62.7998C44.6155 63.0998 44.6155 63.4 44.5155 63.5C44.3155 63.4 44.4154 63.2996 44.2154 63.0996Z" fill="white"/>
<path d="M43.4 62.7002C43.5 62.7002 43.4 62.9001 43.3 63.1001C43.2 63.3001 43 63.4003 42.9 63.3003C42.8 63.3003 42.9 63.0999 43 62.8999C43.2 62.6999 43.4 62.6002 43.4 62.7002ZM47.2 60.8999C47.2 60.8999 47.2 61.1003 47.2 61.3003C47.2 61.5003 47 61.6001 47 61.6001C47 61.6001 47 61.4002 47 61.2002C47 61.0002 47.1 60.8999 47.2 60.8999ZM46.7 60.7002C46.7 60.7002 46.7 61.0003 46.6 61.3003C46.5 61.5003 46.3 61.8002 46.2 61.7002C46.1 61.6002 46.2 61.4001 46.3 61.1001C46.4 60.9001 46.6 60.7002 46.7 60.7002ZM45.6 60.3003C45.6 60.3003 45.6 60.5003 45.6 60.8003C45.5 61.0003 45.4 61.2001 45.3 61.1001C45.3 61.1001 45.3 60.9002 45.3 60.7002C45.5 60.4002 45.6 60.3003 45.6 60.3003ZM16 8.7002C16.1 8.3002 16.4 8.1 16.7 8L17.4 8.1001C17.6 8.3001 17.6 8.2999 17.4 8.3999C16.8 8.2999 16.5 8.40029 16.4 8.80029C16.1 9.10029 16 9.2002 16 8.7002ZM18.2 10C18.2 10 18.3 10.0002 18.3 10.2002C18.3 10.3002 18.2 10.3999 18.2 10.3999C18.1 10.3999 18.1 10.3002 18.1 10.2002C18 10.0002 18.1 10 18.2 10Z" fill="white"/>
<path d="M16.104 9.7998C15.904 10.0998 16.0041 10.4002 16.3041 10.7002L16.8041 11.2998C17.2041 11.5998 17.5041 11.5001 17.4041 11.1001C17.4041 10.8001 17.4041 10.7002 17.7041 10.7002C17.9041 10.7002 18.004 10.5999 18.104 10.3999C18.104 10.1999 18.1041 10 17.9041 10C17.5041 10.3 17.1041 10.4 16.9041 10.5C17.3041 10.3 17.604 10.0999 17.604 9.8999C17.704 9.7999 17.8041 9.7999 18.0041 9.8999C18.0041 9.7999 18.0041 9.6 17.7041 9.5C17.3041 9.5 16.8041 9.7998 16.5041 10.2998C16.7041 9.7998 17.1041 9.5 17.7041 9.5C17.7041 9.4 17.704 9.2001 17.604 9.1001C17.304 9.1001 16.9041 9.0999 16.7041 9.3999L16.104 9.7998ZM18.604 13.6001C19.604 14.6001 20.4041 15.7001 21.2041 17.1001V18.2002L20.8041 16.8999C20.8041 17.7999 20.8041 18.4002 20.7041 18.2002L20.4041 16.3999L20.2041 17.2002L20.0041 16.1001C19.9041 16.0001 19.8041 16.7002 19.9041 17.7002C19.6041 17.4002 19.6041 16.5998 19.7041 15.7998L19.4041 16.7002C19.2041 16.2002 19.3041 15.6 19.4041 15C19.2041 14.9 19.1041 15.1001 19.0041 16.1001C18.8041 15.5001 18.9041 14.9999 19.0041 14.3999L18.8041 14.8999V13.6001H18.604ZM26.104 4.8999C26.404 5.0999 26.9041 5.2002 27.3041 5.2002V5.3999C28.1041 5.3999 28.804 5.1 29.604 4.5C29.604 4.5 29.4041 4.5 29.3041 4.5C28.7041 4.8 28.8041 4.6001 29.9041 4.1001C30.0041 4.1001 30.1041 4.1001 30.4041 4.1001L31.104 4C30.504 4.5 30.0041 4.9999 29.4041 5.3999C28.5041 5.8999 27.804 5.9998 27.104 5.7998C26.704 5.5998 26.3041 5.4001 25.9041 5.1001C25.8041 4.9001 25.704 4.8999 26.104 4.8999ZM30.3041 5.1001C30.4041 5.1001 30.4041 5.1002 30.4041 5.2002C30.4041 5.2002 30.4041 5.2998 30.3041 5.2998C30.3041 5.2998 30.2041 5.3002 30.2041 5.2002C30.2041 5.2002 30.2041 5.1001 30.3041 5.1001ZM31.2041 6.8999C31.2041 6.7999 31.3041 6.7999 31.4041 6.8999C31.4041 6.8999 31.4041 7.0001 31.4041 7.1001C31.4041 7.2001 31.3041 7.2002 31.2041 7.2002C31.2041 7.1002 31.2041 6.9999 31.2041 6.8999ZM33.4041 6.1001C33.5041 6.1001 33.604 6.1001 33.604 6.1001C33.604 6.1001 33.6041 6.2998 33.5041 6.2998C33.4041 6.2998 33.3041 6.2998 33.3041 6.2998C33.2041 6.2998 33.3041 6.2001 33.4041 6.1001ZM32.9041 5.7998C33.0041 5.7998 33.104 5.6998 33.104 5.7998C33.104 5.8998 33.104 5.9 33.104 6C33.104 6.1 32.9041 6.1 32.9041 6C32.8041 5.9 32.8041 5.7998 32.9041 5.7998ZM29.604 6.3999C29.704 6.3999 29.8041 6.3999 29.8041 6.3999C29.8041 6.3999 29.8041 6.5 29.7041 6.5C29.6041 6.5 29.5041 6.5 29.5041 6.5C29.4041 6.5 29.504 6.4999 29.604 6.3999ZM30.8041 8.7002C30.9041 8.7002 31.104 8.7002 31.104 8.7002C31.104 8.7002 31.1041 8.7999 30.9041 8.8999C30.8041 8.8999 30.604 8.8999 30.604 8.8999C30.604 8.8999 30.6041 8.7002 30.8041 8.7002ZM26.9041 6.6001C27.2041 6.6001 27.7041 6.5002 28.3041 6.2002L29.0041 5.8999C29.3041 5.7999 29.404 5.8 29.104 6C28.804 6.3 28.404 6.5002 28.104 6.7002C27.804 6.9002 27.4041 7.0999 26.8041 6.8999C26.5041 6.7999 26.5041 6.6001 26.9041 6.6001Z" fill="white"/>
<path d="M29.1041 6.10474C29.5041 5.70474 29.804 5.60504 30.304 5.40504C30.804 5.20504 31.304 5.10474 31.904 5.10474C32.304 4.80474 32.604 5.20474 32.204 5.60474C32.104 5.70474 31.904 5.80504 31.804 5.90504C31.404 6.20504 31.0041 6.30513 30.6041 6.50513C30.0041 6.60513 30.0041 6.60494 30.5041 6.30494C30.6041 6.20494 30.804 6.10513 30.904 6.00513C31.204 5.80513 31.604 5.70484 31.904 5.70484C31.404 5.40484 30.404 5.90504 29.304 6.40504C29.004 6.40504 28.9041 6.40474 29.1041 6.10474Z" fill="white"/>
<path d="M32.009 4.7002C32.209 4.7002 32.409 4.7002 32.709 4.7002C33.109 4.8002 33.309 4.9998 33.309 5.2998C33.209 5.5998 33.109 5.6998 32.909 5.7998C32.809 5.2998 32.609 4.9999 32.309 4.8999C32.209 4.8999 32.109 4.8999 32.009 4.8999V4.7002ZM31.609 4.8999C31.709 4.8999 31.709 4.7998 31.909 4.7998V5C31.709 4.9 31.709 4.8999 31.609 4.8999C31.509 4.9999 31.409 4.8999 31.609 4.8999ZM31.109 4.5C31.409 4.3 31.709 4 32.009 4C32.409 4 32.809 4 33.209 4C34.009 4.3 33.709 4.4998 33.209 4.2998C32.909 4.0998 32.509 4.1998 32.109 4.2998C32.109 4.5998 31.509 4.3001 31.209 4.6001C31.009 4.8001 30.909 4.7 31.109 4.5ZM33.309 4.6001C33.509 4.6001 33.709 4.5998 33.809 4.7998C33.809 5.0998 33.809 5.2999 33.609 5.3999C33.609 4.8999 33.309 4.9001 33.309 4.6001ZM33.909 4.5C33.909 4.6 34.009 4.8002 33.909 5.2002L33.709 5.7002C33.709 5.9002 33.709 5.9999 33.809 5.8999C34.009 5.7999 34.209 5.5002 34.209 5.2002C34.209 4.7002 34.209 4.4999 34.409 4.3999C34.109 3.8999 33.809 4 33.909 4.5ZM32.009 7.2002C32.009 7.5002 32.709 7.6002 32.809 7.2002C32.909 6.8002 32.709 6.5002 32.809 6.2002C32.309 6.3002 32.009 6.6002 32.009 7.2002ZM31.809 7.8999C31.909 7.5999 32.209 7.5001 32.609 7.6001C32.909 7.6001 33.009 7.5999 33.009 7.8999C33.009 8.1999 33.009 8.5002 33.009 8.7002C32.909 8.9002 32.909 8.8999 32.609 8.8999C32.309 8.8999 32.109 8.7999 31.809 8.8999C31.909 8.4999 31.709 8.3999 31.809 7.8999ZM33.109 6.7002C33.009 6.5002 33.109 6.4001 33.309 6.6001C33.509 6.7001 33.609 7.0002 33.609 7.2002C33.609 7.4002 33.409 7.5999 33.209 7.3999C33.109 7.1999 33.309 7.0002 33.109 6.7002ZM33.309 7.8999C33.209 7.5999 33.309 7.6002 33.709 7.7002C33.909 7.9002 34.009 8.1002 33.809 8.2002C34.009 8.4002 34.009 8.8002 33.809 9.2002C33.709 9.1002 33.509 9.2 33.309 9C33.309 8.9 33.209 9 33.309 8.5C33.409 8.3 33.409 8.0999 33.309 7.8999ZM33.709 10.3999C33.809 10.3999 33.909 10.5001 33.909 10.6001C33.909 10.7001 33.809 10.7002 33.709 10.7002C33.609 10.7002 33.509 10.6 33.509 10.5C33.509 10.5 33.609 10.3999 33.709 10.3999ZM31.809 10.1001C31.909 10.1001 32.109 10.1998 32.009 10.2998C32.009 10.3998 31.909 10.4999 31.709 10.3999C31.609 10.3999 31.409 10.3002 31.509 10.2002C31.509 10.2002 31.709 10.1001 31.809 10.1001Z" fill="white"/>
<path d="M32.426 12.2998C32.526 12.1998 32.726 12.1998 32.926 12.2998C33.026 12.2998 32.926 12.4 32.926 12.5C32.826 12.5 32.726 12.5 32.626 12.5C32.526 12.5 32.526 12.3998 32.426 12.2998ZM32.126 12.0996C32.326 12.3996 32.226 12.3996 32.126 12.5996C32.426 12.6996 32.726 12.6997 33.026 12.6997C33.526 12.3997 33.426 12.1996 33.026 12.0996C32.626 11.9996 32.326 11.9996 32.126 12.0996ZM34.326 9.59961C34.126 9.29961 33.626 9.1 33.026 9C32.626 9 32.026 8.99971 31.426 9.19971C31.126 9.59971 30.926 10.0999 31.026 10.8999H31.326L31.126 11.0996H31.426L31.226 11.3999H31.426L31.326 11.7998L31.526 11.8999L31.426 12.0996H31.626L31.526 12.2998H31.726V12.5H31.926C32.026 12.7 32.226 12.8 32.526 13C32.726 13.1 32.926 13.1 33.126 13C33.526 12.7 33.626 12.4996 33.926 12.0996C34.026 12.0996 34.026 11.8996 34.026 11.5996C34.226 11.4996 34.226 11.3996 34.226 11.0996L34.326 10.8999V10.1997C34.126 10.1997 34.026 10.2997 33.826 10.1997L33.426 10.0996L33.326 11C33.326 11.2 33.226 11.4999 33.026 11.3999L32.526 11.1997C32.426 11.1997 32.426 10.9999 32.526 10.8999H32.726V10.0996C32.426 10.1996 32.026 10.2 31.826 10C31.726 10 31.626 10 31.426 10C31.526 9.8 31.626 9.69961 31.726 9.59961L31.526 9.2998C31.526 9.2998 31.726 9.2998 31.826 9.2998C32.226 9.2998 32.526 9.1998 32.626 9.2998C32.726 9.3998 32.826 9.49961 32.926 9.59961V9.3999C33.026 9.1999 33.226 9.09971 33.526 9.19971L33.426 9.7998L34.426 9.5V9.59961H34.326Z" fill="white"/>
<path d="M32.1 12.15C32.2 12.15 32.2 12.15 32.1 12.15C32.2 12.25 32.1 12.2501 32.1 12.2501C32.1 12.2501 32 12.25 32.1 12.15C32 12.15 32.1 12.15 32.1 12.15ZM32.6 10.65C32.6 10.65 32.6 10.5498 32.6 10.4498C32.7 10.3498 32.8 10.2497 32.8 10.3497C32.8 10.4497 32.8 10.55 32.8 10.65H32.6ZM32.4 12.2501C32.4 11.8501 32.5 11.4499 32.5 11.0499H32.7C32.7 11.3499 32.7 11.7497 32.5 12.3497C32.6 12.4497 32.5 12.3501 32.4 12.2501ZM30.1 10.15C30.1 9.95 30.3 9.95 30.3 10.15C30.3 10.55 30.3 10.95 30.1 11.15C30 11.25 29.7 11.1498 29.9 10.9498C30.1 10.6498 30.1 10.35 30.1 10.15ZM29.9 11.8497C29.9 11.5497 30 11.4497 30.1 11.8497C30.3 12.6497 30.7 13.4501 31.5 14.2501C31.8 14.5501 31.5 14.7498 31.2 14.4498C30.3 13.7498 30.1 12.7497 29.9 11.8497ZM32.9 14.3497C32.9 14.1497 32.9 13.85 33.2 13.65C33.4 13.55 33.4 13.7497 33.3 13.8497C33.3 14.0497 33.1 14.0497 32.9 14.3497ZM25 17.7501C25 17.5501 25 17.3501 25.2 17.2501C25.2 17.2501 25.1 17.15 25 17.15C24.9 17.45 24.6 17.75 24.3 18.15C24.5 17.45 24.7 17.0499 25.2 16.5499C25.2 16.7499 25.1 16.95 25 17.15C25 17.15 25.1 17.2497 25.2 17.3497C25.2 17.3497 25.3 17.25 25.3 17.15C25.3 17.25 25.3 17.3498 25.3 17.4498V17.5499C25.2 17.5499 25.1 17.6501 25 17.7501ZM24.6 18.3497C24.6 18.1497 24.7 18.0498 24.8 17.9498C24.8 18.0498 24.8 18.1497 24.6 18.3497ZM26.2 18.5499C26.2 18.4499 26.2 18.3501 26.3 18.2501V18.15C26.3 18.15 26.4 18.0498 26.5 17.9498C26.6 18.1498 26.5 18.3499 26.2 18.5499ZM26.2 19.4498C26.1 19.1498 26.2 18.9501 26.6 18.7501C26.6 19.1501 26.5 19.3498 26.2 19.4498ZM26.9 19.15C27.2 18.45 27.2 18.05 27.1 17.15C27.5 18.05 27.4 18.25 26.9 19.15ZM31.9 21.9498C32 21.2498 32.1 20.7499 32.1 20.0499H32C32 20.3499 31.9 20.8501 31.7 21.2501C31.8 20.8501 31.8 20.4499 31.8 20.0499C31.8 20.0499 31.7 20.0499 31.6 20.0499C31.6 20.3499 31.5 20.6499 31.4 21.0499C31.4 20.7499 31.5 20.35 31.5 20.15C31.4 20.15 31.3 20.15 31.2 20.15C31.2 20.55 31.1 20.9499 31 21.5499C31 21.0499 31 20.6501 31 20.2501H30.7C30.7 20.7501 30.7 21.1497 30.6 21.8497C30.6 21.2497 30.6 20.7501 30.6 20.2501C30.5 20.2501 30.4 20.2501 30.3 20.2501C30.3 20.7501 30.3 21.2498 30.2 21.9498C30.2 21.3498 30.2 20.8501 30.2 20.2501C30.1 20.2501 30 20.25 29.9 20.15C29.9 20.65 29.8 21.05 29.7 21.65C29.7 21.05 29.7 20.6499 29.7 20.0499C29.6 20.0499 29.5 20.0498 29.4 19.9498C29.4 20.5498 29.3 21.0501 29.3 21.7501C29.2 20.9501 29.2 20.4497 29.2 19.8497C29.1 19.8497 29 19.8501 29 19.7501C28.9 20.4501 28.8 21.1497 28.9 21.8497C28.7 20.9497 28.7 20.35 28.9 19.65C28.9 19.65 28.8 19.5499 28.7 19.5499C28.6 19.7499 28.5 20.0497 28.3 20.3497C28.4 20.0497 28.5 19.7498 28.6 19.4498C28.5 19.4498 28.4 19.3501 28.3 19.2501C28.3 19.6501 28.1 20.0499 27.7 20.5499C28.1 19.5499 28.1 18.6498 28.2 17.4498C28.3 17.9498 28.3 18.25 28.3 18.65C28.4 18.65 28.5 18.7501 28.6 18.7501C28.6 18.2501 28.7 17.75 28.7 17.15C28.8 17.85 28.9 18.3501 28.8 18.7501C28.9 18.7501 29 18.8497 29.1 18.8497C29.1 18.8497 29.2 18.75 29.2 18.65C29.2 18.75 29.2 18.8498 29.1 18.9498C29.1 18.9498 29.2 18.9498 29.3 18.9498C29.3 18.7498 29.4 18.5501 29.5 18.2501C29.5 18.4501 29.5 18.7498 29.5 18.9498C29.6 18.9498 29.6 18.9498 29.7 18.9498C29.7 18.8498 29.7 18.6498 29.7 18.4498C29.7 18.6498 29.7 18.8499 29.8 19.0499C29.9 19.0499 30 19.0499 30.1 19.0499V18.3497C30.1 18.6497 30.2 18.8499 30.2 19.0499C30.3 19.0499 30.4 19.0499 30.6 19.0499C30.6 18.8499 30.6 18.5497 30.6 18.3497C30.6 18.6497 30.7 18.8499 30.7 19.0499H31V17.9498C31.1 18.3498 31.2 18.7499 31.2 19.0499C31.3 19.0499 31.4 19.0499 31.5 19.0499C31.5 18.8499 31.5 18.5501 31.4 18.2501C31.5 18.5501 31.6 18.7499 31.6 19.0499C31.6 19.0499 31.7 19.0499 31.8 19.0499L31.7 18.15C31.8 18.45 31.9 18.7498 32 18.9498C32 18.9498 32.1 18.9498 32.2 18.9498C32.2 18.5498 32.1 18.0499 32 17.5499C32.5 19.3499 32.5 20.1498 31.9 21.9498ZM32.7 19.9498L32.8 20.2501L33.2 19.8497C33.3 19.7497 33.4 19.7498 33.5 19.9498V19.4498C33.6 19.3498 33.8 19.4499 33.9 19.5499C34 19.4499 34 19.2499 33.9 19.0499V18.4498C33.7 18.0498 33.5 17.7501 33.2 17.7501C33.3 18.0501 33.3 18.35 33.2 18.65C33.2 18.25 33 17.9497 32.7 17.8497C32.8 18.0497 32.9 18.35 32.8 18.65C32.8 18.55 32.7 18.4497 32.5 18.3497V18.7501L32.3 18.8497L32.7 19.9498ZM35.5 17.7501C35.5 17.8501 35.5 17.8497 35.5 17.8497C35.5 17.8497 35.4 17.8501 35.3 17.7501H35.5ZM35.3 17.2501C35.3 17.3501 35.4 17.55 35.4 17.65H35.1C35.1 17.55 35 17.4497 34.9 17.3497L35.3 17.2501ZM34.8 16.65C34.9 16.65 35.1 16.85 35.3 17.15H34.9C34.7 16.85 34.7 16.65 34.8 16.65ZM34.6 17.65C34.6 17.65 34.7 17.7498 34.9 17.9498C35 18.1498 35 18.2497 35 18.3497C35 18.4497 34.9 18.2499 34.8 18.0499C34.6 17.8499 34.6 17.65 34.6 17.65ZM34.1 17.65C34.1 17.65 34.3 17.7498 34.4 17.9498C34.5 18.1498 34.6 18.3498 34.5 18.4498C34.4 18.5498 34.3 18.35 34.2 18.15C34.1 17.75 34 17.65 34.1 17.65ZM24.2 16.4498C24.3 16.4498 24.3 16.5499 24.4 16.5499L24.5 16.4498C24.5 16.6498 24.4 16.7497 24.3 16.8497C24.3 16.7497 24.3 16.65 24.4 16.65C24.3 16.55 24.3 16.4498 24.2 16.4498ZM21.5 47.0499L21.4 47.4498H21.3L21.4 47.15H21.5V47.0499ZM12 60.5499C12.4 60.4499 12.5 60.5499 12.6 61.0499C12.9 61.3499 13.2 61.6497 13.2 61.8497C13.9 62.4497 13.8 62.6499 12.8 62.5499C12.5 62.4499 12.3 62.2497 12.3 61.8497L12 60.5499ZM12.2 62.8497C12 63.2497 12 63.6499 12.3 64.0499C12.5 64.2499 12.7 64.3497 12.9 64.3497L12.8 64.0499L13.2 64.2501C13.2 64.0501 13.1 63.85 12.7 63.65L13.2 63.7501C13.2 63.5501 13 63.25 12.6 63.15H12.9C12.7 62.65 12.4 62.4497 12.2 62.8497ZM13.4 63.0499C13.5 63.0499 13.6 63.1497 13.6 63.3497C13.6 63.5497 13.6 63.6501 13.5 63.7501C13.4 63.8501 13.3 63.6498 13.3 63.4498C13.2 63.2498 13.3 63.0499 13.4 63.0499ZM19.6 42.15C19.6 41.15 20 40.2501 20.6 39.2501C20.1 40.2501 19.8 41.25 19.6 42.15ZM21.7 36.4498C21.3 36.5498 21.3 36.3499 21.6 36.0499C22.2 35.5499 22.8 35.3497 23.5 35.3497H24.8C25.3 35.3497 25.2 35.8497 24.8 35.8497H23.9C23.1 35.8497 22.4 36.0498 21.7 36.4498Z" fill="white"/>
<path d="M24.2 35.5C24.5 35.5 24.8 35.5001 24.8 35.6001C24.8 35.7001 24.5 35.7002 24.2 35.7002C23.9 35.7002 23.6 35.7001 23.6 35.6001C23.6 35.5001 23.9 35.5 24.2 35.5ZM26.7 29C26.7 29 26.5 29.0999 26.3 29.3999C26.1 29.5999 26 29.8999 26 29.8999C26 29.8999 26.2 29.8 26.4 29.5C26.6 29.2 26.8 29 26.7 29ZM24.6 31.1001C24.5 31.4001 24.5 31.5002 24.8 31.7002C26 32.1002 27.2 31.7 28.4 31L29.9 30.2998C30.2 29.9998 30.1 29.9 29.8 30L29.1 30.3999L29.3 29.7998C28.9 30.0998 28.6 30.4002 28.5 30.7002L28.4 30.3999C28.2 30.4999 28.1 30.8001 28 31.1001L27.8 30.7002C27.7 30.8002 27.5 30.9001 27.4 31.1001V30.7002C27.3 30.6002 27.1 30.7998 26.8 31.2998L26.9 30.7998C26.8 30.6998 26.7 30.8999 26.4 31.3999L26.9 29.8999C26.7 29.8999 26.3 30.5 26 31.5C25.9 31.5 25.8 31.4999 25.8 31.3999L26.4 30.2998C26.1 30.2998 25.8 30.6999 25.5 31.3999L25.9 30.2002L25.1 31.2002V30.7998C24.9 30.6998 24.7 30.9001 24.6 31.1001ZM24.7 51C24.6 50.9 24.8 50.7998 24.8 50.7998L25.2 51.1001C25.3 51.2001 25.1 51.2998 25 51.2998L24.7 51ZM25 50.7002C25 50.6002 25.1 50.5001 25.1 50.6001L25.4 50.8999C25.5 50.9999 25.3 51.1 25.3 51L25 50.7002ZM25.2 50.3999C25.1 50.2999 25.3 50.1002 25.4 50.2002L25.8 50.6001C25.9 50.7001 25.7 50.8002 25.6 50.7002L25.2 50.3999ZM25.4 50C25.3 49.9 25.5 49.6002 25.7 49.7002L26.3 50.2998C26.4 50.3998 26.1 50.7001 26 50.6001L25.4 50ZM25.9 49.5C25.7 49.3 25.9 49.1002 26.1 49.2002L26.8 49.7998C27 49.8998 26.7 50.2001 26.6 50.1001L25.9 49.5ZM26.3 49.2002C26.2 49.1002 26.3 48.8 26.5 49L27.1 49.5C27.2 49.6 27 49.8998 26.9 49.7998L26.3 49.2002ZM26.9 49C26.8 48.9 26.9 48.6998 27 48.7998L27.5 49.2002C27.6 49.3002 27.4 49.4999 27.3 49.3999L26.9 49ZM24.4 45.6001C24.4 45.5001 24.2 45.5001 24.1 45.6001V46.2002C24.1 46.3002 24.4 46.2002 24.4 46.2002V45.6001ZM23.6 46.2998C23.6 46.0998 23.3 46.1998 23.3 46.2998V46.7002C23.3 46.9002 23.6 46.8002 23.6 46.7002V46.2998ZM22.7 46.8999C22.7 46.6999 22.5 46.7999 22.5 46.8999V47.2998C22.5 47.4998 22.7 47.3998 22.7 47.2998V46.8999ZM23.8 46.1001C23.8 46.1001 23.9 46.1002 23.9 46.2002C23.9 46.3002 23.9 46.2998 23.8 46.2998C23.8 46.2998 23.7 46.3002 23.7 46.2002C23.7 46.1002 23.8 46.1001 23.8 46.1001ZM23 46.7002C23.1 46.7002 23.1 46.7999 23.1 46.8999C23.1 46.9999 23.1 47.1001 23 47.1001C22.9 47.1001 22.9 47.0999 22.9 46.8999C22.8 46.7999 22.9 46.7002 23 46.7002ZM22.2 47.2002C22.2 47.0002 22 47.0002 22 47.2002V47.6001C22 47.8001 22.3 47.7001 22.3 47.6001L22.2 47.2002ZM28.9 24.1001C29 24.1001 29 24.1998 29 24.2998C29 24.3998 29 24.5 28.9 24.5C28.9 24.5 28.8 24.3998 28.8 24.2998C28.8 24.1998 28.8 24.1001 28.9 24.1001ZM29.2 24.7002C29.2 24.7002 29.1 24.5999 29.1 24.3999C29.1 24.1999 29.1 24 29.2 24C29.2 24 29.3 24.0999 29.3 24.3999C29.4 24.5999 29.3 24.7002 29.2 24.7002ZM29.8 24.6001C29.9 24.6001 30.1 24.6002 30.1 24.7002C30.1 24.7002 30 24.7998 29.8 24.7998C29.7 24.7998 29.6 24.8002 29.6 24.7002C29.6 24.6002 29.7 24.6001 29.8 24.6001ZM30.1 25.1001C30.1 25.1001 30.2 25.1002 30.2 25.2002C30.2 25.3002 30.2 25.2998 30.1 25.2998C30.1 25.2998 30 25.3002 30 25.2002C30 25.1002 30.1 25.1001 30.1 25.1001ZM30.6 25H31.7C32.1 25 32.1 25.2 31.9 25.5C32 26.1 31.2 26.5 31.3 25.5C31.3 25.3 31 25.2002 30.6 25.2002C30.4 25.3002 30.4 25.1 30.6 25ZM28.9 32.2002C29 32.2002 29 32.1998 29 32.2998C29 32.3998 29 32.5 28.9 32.5C28.9 32.5 28.8 32.3998 28.8 32.2998C28.7 32.2998 28.8 32.2002 28.9 32.2002ZM28.3 32.3999C28.4 32.3999 28.5 32.5001 28.5 32.6001C28.5 32.7001 28.4 32.7998 28.3 32.7998C28.2 32.7998 28.1 32.7001 28.1 32.6001C28.1 32.5001 28.2 32.3999 28.3 32.3999ZM28.9 32.7998C29.3 32.4998 29.7 32.2999 29.8 32.3999C29.8 32.4999 29.6 32.8001 29.1 33.1001C28.7 33.4001 28.3 33.4999 28.2 33.3999C28.2 33.2999 28.5 32.9998 28.9 32.7998ZM30.4 31.7998C30.6 31.5998 30.9 31.5 30.9 31.5C30.9 31.5 30.8 31.8 30.5 32C30.3 32.2 30 32.2998 30 32.2998C30 32.2998 30.2 31.9998 30.4 31.7998ZM29.5 34.1001C29.6 33.9001 29.7 33.7 29.8 33.5C29.8 33.1 30.1 32.8002 30.5 32.7002C30.6 32.6002 30.8 32.4999 31 32.3999C30.9 32.4999 30.9 32.6998 30.8 32.7998H30.9C31.1 32.5998 31.4 32.3998 31.7 32.2998C31.5 32.4998 31.3 32.6999 31.1 32.8999L31.3 33C31.6 32.8 31.9 32.5999 32.2 32.3999C32 32.5999 31.8 32.9001 31.5 33.1001L31.7 33.2002C32 33.0002 32.3 32.7998 32.6 32.7998C32.5 32.8998 32.3 33.0002 32.2 33.2002C32.4 33.2002 32.7 33.2001 33 33.1001C32.6 33.3001 32.3 33.3 32.1 33.5L32.3 33.6001C32.6 33.4001 33 33.2998 33.2 33.2998C33 33.3998 32.7 33.6002 32.5 33.7002L32.7 33.7998C33 33.6998 33.3 33.6001 33.6 33.6001C33.4 33.7001 33.1 33.7999 32.9 33.8999L33 34C33.3 33.9 33.6 33.7998 33.8 33.7998C33.6 33.8998 33.4 34.0001 33.1 34.1001L33.3 34.2002C33.5 34.1002 33.8 34.1002 34 34.2002C33.8 34.2002 33.6 34.2999 33.4 34.3999L34.1 34.7998H34L33 34.5H32.9C32.9 34.5 32.9 34.4999 32.9 34.3999H32.7C32.6 34.3999 32.4 34.5001 32.3 34.6001C32.4 34.5001 32.4 34.3998 32.5 34.2998L32.3 34.2002C32.2 34.2002 32 34.2999 31.9 34.3999C31.9 34.2999 32 34.2001 32.1 34.1001L31.9 34C31.7 34.1 31.6 34.1998 31.4 34.2998C31.5 34.1998 31.6 33.9999 31.7 33.8999L31.4 33.7998C31.3 33.8998 31.1 34.1002 30.9 34.2002C30.9 34.1002 31 33.9002 31.1 33.7002H30.8C30.7 33.8002 30.5 34.0002 30.3 34.2002C30.4 34.0002 30.5 33.8002 30.6 33.7002L30.1 33.5C29.9 33.8 29.7 33.9001 29.5 34.1001ZM24.6 45.8999C24.6 45.3999 24.6 44.8999 24.8 44.3999C24.8 44.1999 25.1 44.1 25.5 44L29.6 43.3999C29.8 43.3999 29.8 43.4998 29.8 43.7998C29.8 44.1998 29.7 44.5999 29.5 44.8999C29.4 44.9999 29.3 44.5002 29.4 43.7002C29.1 44.4002 29.2 45.1998 28.7 45.2998C28.5 44.9998 28.8 44.2998 28.9 43.7998C28.4 44.1998 28.6 44.6998 28.2 45.2998C28.1 45.2998 28.1 44.8 28.2 44C28 44.6 27.8 45.0998 27.6 45.2998C27.5 45.0998 27.5 44.6002 27.5 44.2002C27.3 45.0002 27.1 45.5001 26.9 45.6001C26.9 45.1001 26.9 44.6998 26.9 44.2998L26.8 44.2002C26.7 45.0002 26.6 45.4001 26.4 45.6001C26.3 45.2001 26.2 44.7002 26.4 44.2002H26.2C26.1 44.6002 26 45.0001 25.8 45.1001C25.6 45.1001 25.4 44.7998 25.4 44.2998C25.3 45.0998 25 45.5999 24.6 45.8999ZM31 35.8999C31.1 35.7999 31.2 35.7999 31.2 35.8999C31 37.1999 30.8 38.8 30.8 40.5H30.7C30.6 38.9 30.7 37.3999 31 35.8999ZM31.5 36C31.3 37.5 31.3 38.5 31.1 40L31.2 40.2998C31.2 38.4998 31.5 37.4 31.7 36C31.8 35.8 31.6 35.7 31.5 36ZM31.8 37L32 36.1001C32.2 36.0001 32.3 36.0998 32.3 36.2998L31.8 37ZM26.8 35.7002C26.3 37.5002 26 39.5002 26.1 41.7002C26.1 42.1002 26.2 42.3002 26.5 42.2002C27.9 42.1002 29.3 41.8 30.8 41.5C31 41.4 31 41.3002 30.8 41.2002H30.6C30.4 39.2002 30.6 37.9001 30.7 36.1001C30.9 35.7001 30.7 35.5002 30.6 35.7002C30.3 37.1002 30.2 38.6001 30.4 41.1001H30.2C30 39.3001 30.1 37.8002 30.2 36.2002C30.4 35.9002 30.4 35.5001 30.2 35.6001C29.9 36.7001 29.8 38.5001 30 41.1001H29.9C29.8 39.2001 29.8 37.5 29.9 35.5L29.8 35.3999C29.6 36.8999 29.5 38.7 29.7 41H29.6C29.3 39 29.3 37.2001 29.6 35.6001L29.5 35.7998C29.2 37.0998 29.4 38.8 29.4 41H29.3C29.1 39.3 29.1 37.5 29.3 35.5L29.2 35.3999C28.9 36.6999 28.7 38.5001 29 41.1001H28.9C28.6 39.6001 28.6 37.8 28.9 35.5H28.7C28.3 37 28.3 38.7001 28.6 41.1001L28.5 41.2002C28.2 39.5002 28.2 37.6998 28.6 35.2998H28.4C28 37.0998 27.9 38.9002 28.2 41.2002L28.1 41.2998C27.7 39.7998 27.7 37.9998 28.1 35.7998V35.5C27.5 36.5 27.3 38.3 27.6 41.5C27.2 39.7 27.2 37.5998 27.9 35.2998L27.8 35.1001C27.2 35.6001 26.9 38.7001 27 41.6001C26.1 39.9001 26.3 37.8002 26.8 35.7002ZM26.1 35.1001C25.7 35.9001 25.3 37.1001 25 39.6001C24.9 40.7001 24.8 41.7999 25 42.8999C25.1 43.4999 25.4 43.7002 25.7 43.7002L30.2 43C30.5 43 30.9 42.6998 30.7 42.2998L30.5 41.8999L30.4 42.3999L30.2 42L30 42.5L29.7 41.8999L29.5 42.6001L29.2 42L29.1 42.6001L29 42.1001L28.8 42.7998L28.6 42.2002L28.4 42.8999L28.2 42.2002L28 42.7002L27.8 42.2998L27.7 42.7002L27.5 42.3999C27.3 42.2999 27.1 42.2999 26.8 42.3999L26.7 42.5L26.6 42.3999C26.3 42.2999 25.9 42.3002 25.6 42.2002L26 42C26 41.9 25.9 41.7998 25.6 41.7998L26.1 41.5L25.6 41.3999L26.1 41.1001C26.1 41.0001 26 40.9002 25.6 40.7002L26.1 40.6001V40.5H25.6L26.1 40.2998C26.1 40.1998 26 40.1 25.7 40L26.1 39.8999C26.1 39.7999 26.1 39.6 25.7 39.5L26.1 39.3999L25.7 39.1001L26.2 38.8999C26.2 38.7999 26.2 38.7001 25.9 38.6001L26.4 38.3999C26.4 38.2999 26.3 38.2001 25.9 38.1001L26.4 38L26 37.7998L26.4 37.6001L26.1 37.5L26.5 37.2998C26.6 37.1998 26.5 37.1001 26.1 37.1001L26.6 36.8999V36.7002H26.1L26.3 36.5L26 36.2998L26.7 36.2002V36.1001L26.2 36L26.6 35.7998C26.3 35.0998 26.3 35.1001 26.1 35.1001Z" fill="white"/>
<path d="M33.6683 46.3415C33.5683 46.1415 33.5683 46.0415 33.7683 45.8415L34.8683 45.7414C35.0683 45.7414 35.2683 45.8413 35.4683 46.1413L35.9683 46.7414C36.1683 47.0414 35.9683 47.2413 35.7683 47.1413C35.0683 46.9413 34.3683 46.6415 33.6683 46.3415ZM33.4683 46.3415C33.2683 46.2415 33.0683 46.3417 33.2683 46.5417C33.6683 46.8417 34.0683 47.1415 34.5683 47.3415C35.0683 47.5415 35.4683 47.6413 35.9683 47.6413C36.2683 47.6413 36.4683 47.4415 35.9683 47.3415C35.1683 47.1415 34.3683 46.9415 33.4683 46.3415ZM31.5683 44.5417C31.2683 44.3417 31.5683 43.8417 31.8683 44.0417L32.3683 44.5417C32.6683 44.7417 32.4683 45.0415 32.2683 44.8415L31.5683 44.5417ZM31.1683 45.1413L32.1683 45.7414C32.3683 45.8414 32.6683 45.5415 32.3683 45.3415L31.4683 44.6413C31.1683 44.4413 30.7683 44.9413 31.1683 45.1413ZM33.3683 37.6413C33.1683 37.8413 33.0683 38.0417 33.4683 38.0417C33.1683 38.3417 33.0683 38.5413 33.3683 38.6413C32.7683 39.4413 32.7683 39.6415 33.3683 39.3415C32.6683 40.2415 32.7683 40.3413 33.2683 40.1413C32.6683 40.8413 32.7683 40.9416 32.9683 40.9416C32.5683 41.5416 32.5683 41.7414 32.9683 41.7414C32.6683 41.8414 32.4683 42.1413 32.3683 42.6413C32.2683 43.1413 30.9683 43.6413 32.0683 44.1413C32.3683 44.3413 32.6683 44.8417 32.8683 45.5417C32.9683 45.9417 33.1683 46.0415 33.5683 45.8415C33.8683 45.7415 34.1683 45.7414 34.4683 45.7414C35.0683 45.7414 35.0683 45.1417 34.4683 45.0417C34.4683 44.8417 34.3683 44.6415 33.9683 44.8415C34.2683 44.3415 33.9683 44.5416 33.7683 44.4416C33.9683 44.3416 33.8683 44.1416 33.4683 44.4416V44.3415C33.7683 44.2415 33.8683 44.1416 33.8683 43.9416L33.0683 44.2414C33.2683 44.0414 33.4683 43.8414 33.3683 43.7414L32.7683 43.8415C33.3683 43.4415 33.6683 43.1416 33.5683 42.9416L32.8683 43.1413C33.3683 42.7413 33.6683 42.4414 33.5683 42.2414L32.9683 42.4416C32.9683 42.2416 33.1683 42.0416 33.6683 41.9416C34.0683 41.7416 34.2683 41.5413 34.1683 41.1413L33.4683 41.4416C34.1683 40.8416 34.6683 40.2416 34.8683 39.9416C34.8683 39.7416 34.1683 40.1416 33.2683 40.9416V40.8415C34.1683 40.2415 34.7683 39.6415 35.2683 38.8415L33.6683 40.0417L35.1683 38.2414C35.0683 38.0414 34.6683 38.2413 33.8683 39.1413V38.9416L34.6683 38.1413C35.2683 37.8413 35.5683 37.3415 35.8683 36.8415C35.9683 36.4415 35.4683 36.9413 34.6683 37.6413C34.4683 37.8413 34.2683 37.9413 34.0683 38.1413L35.8683 36.2414V36.0417C35.5683 35.7417 34.3683 37.1413 33.3683 37.6413Z" fill="white"/>
<path d="M45.1 15.8999C45.1 15.8999 45.1 16.3001 45 16.6001C45 16.8001 45 17.0002 45 17.2002C45.1 17.4002 45.1 17.3999 45.1 17.3999C45.1 16.9999 45 16.5998 45.1 16.2998C45.2 15.9998 45.1 15.8999 45.1 15.8999ZM45.4 15.8999C45.4 15.8999 45.4 16.4002 45.4 16.7002C45.4 17.0002 45.4 17.2 45.5 17.5C45.6 17.7 45.6 17.8002 45.6 17.7002C45.6 17.1002 45.5 16.6998 45.5 16.2998C45.6 15.9998 45.5 15.8999 45.4 15.8999ZM45.9 15.7998C45.9 15.7998 45.9 16.4998 45.9 16.7998C45.9 17.0998 45.9 17.4002 46 17.7002C46.1 18.0002 46.2 18.1 46.2 18C46.1 17.3 46 16.8002 46 16.2002C46 16.0002 45.9 15.8998 45.9 15.7998ZM46.3 16.2998C46.3 16.2998 46.3 16.9002 46.3 17.2002C46.3 17.5002 46.3 17.8 46.4 18C46.5 18.3 46.6 18.3002 46.6 18.2002C46.5 17.6002 46.4 17.1001 46.4 16.6001C46.4 16.4001 46.4 16.2998 46.3 16.2998ZM46.7 16.7998C46.7 16.7998 46.7 17.3001 46.7 17.6001C46.7 17.9001 46.7 18.0999 46.8 18.3999C46.9 18.5999 47 18.7001 47 18.6001C46.9 18.0001 46.8 17.6002 46.8 17.2002C46.8 16.9002 46.8 16.7998 46.7 16.7998ZM47.1 17.2002C47.2 17.2002 47.2 17.3 47.2 17.5C47.2 17.9 47.3 18.3002 47.4 18.7002C47.4 18.8002 47.4 18.7001 47.3 18.6001C47.2 18.4001 47.1 18.1999 47.1 17.8999C47.2 17.6999 47.1 17.2002 47.1 17.2002ZM47.6 17.7002C47.6 17.7002 47.6 18.0999 47.6 18.3999C47.6 18.5999 47.6 18.8 47.8 19C47.9 19.1 48 19.2001 47.9 19.1001C47.8 18.7001 47.7 18.3 47.7 18C47.7 17.8 47.7 17.7002 47.6 17.7002ZM48 18.1001C48 18.1001 48.1 18.1998 48.1 18.2998C48.1 18.5998 48.2 18.9002 48.4 19.2002C48.4 19.2002 48.4 19.2001 48.3 19.1001C48.2 19.0001 48.1 18.8001 48.1 18.6001C48.1 18.5001 48 18.1001 48 18.1001ZM50.5 21.8999C50.2 21.5999 49.9 21.8999 50.4 22.3999C50.8 22.7999 51.2 22.6 51.1 22.5L50.5 21.8999ZM42.5 13.8999C42.6 13.8999 42.7 14.3001 42.8 14.6001C42.9 14.9001 43.1 15.2998 43.1 15.2998C42.7 14.8998 42.5 14.2999 42.5 13.8999ZM38.5 19.8999C38.7 21.3999 40 23.3998 41.7 24.7998C41.6 24.3998 40.2 23.1 39.5 22C38.9 20.8 38.8 20.1999 38.5 19.8999ZM38.8 19.2998C39 19.4998 39.1 20.2002 39.7 21.2002C40.4 22.3002 41.5 23.3002 41.6 23.7002C40 22.4002 38.9 20.6998 38.8 19.2998ZM39 18.7002C39.2 18.9002 39.3 19.6 39.9 20.5C40.5 21.5 41.6 22.3998 41.7 22.7998C40.1 21.5998 39.1 20.0002 39 18.7002ZM39.2 18.1001C39.4 18.3001 39.5 18.8998 40 19.7998C40.6 20.6998 41.6 21.5999 41.6 21.8999C40.3 20.7999 39.3 19.4001 39.2 18.1001ZM39.5 17.5C39.7 17.7 39.8 18.2001 40.3 19.1001C40.8 20.0001 41.7 20.8 41.7 21C40.4 20 39.6 18.7 39.5 17.5ZM39.8 17C39.9 17.1 40.1 17.6999 40.5 18.3999C40.9 19.1999 41.7 20.0002 41.8 20.2002C40.6 19.2002 39.9 18 39.8 17ZM40.2 16.2998C40.2 17.1998 40.9 18.4002 42 19.2002C42 19.0002 41.3 18.3001 40.9 17.6001C40.4 17.0001 40.3 16.4998 40.2 16.2998ZM40.5 15.7998C40.5 16.6998 41.1 17.6999 42 18.3999C42 18.1999 41.4 17.6 41.1 17C40.8 16.4 40.7 15.8998 40.5 15.7998ZM40.9 15.2998C40.9 16.0998 41.4 17.0002 42.2 17.7002C42.2 17.5002 41.7 16.8999 41.4 16.3999C41.2 15.7999 41.1 15.3998 40.9 15.2998ZM41.4 14.7998C41.4 15.4998 41.8 16.1998 42.5 16.7998C42.5 16.6998 42.1 16.2002 41.8 15.7002C41.6 15.3002 41.5 14.7998 41.4 14.7998ZM37.7 27.6001C37.7 27.4001 37.7 27.0999 37.8 26.8999C38.8 28.3999 40.2 30 41.7 31.5C41.6 30.9 39.6 29.2001 38.4 27.6001C38.2 27.2001 37.9 26.7999 37.8 26.3999C37.8 26.1999 37.8 26.0998 37.8 25.7998C38.6 27.4998 39.9 29.0001 41.8 30.6001C41.6 30.0001 39.7 28.4999 38.7 26.8999C38.3 26.1999 38 25.6998 37.9 25.2998V25C38.7 26.7 40.2 28.3998 41.9 29.7998C41.7 29.1998 39.8 27.7001 38.8 26.1001C38.4 25.4001 38.1 24.9 38 24.5V24.2002C38.8 25.8002 40.6 27.8998 42.2 29.2998C42 28.7998 39.8 26.7999 38.9 25.3999C38.5 24.6999 38.2 24.1002 38.1 23.7002V23.2998C38.8 24.8998 40.5 26.9999 42.2 28.3999C42 27.8999 39.9 26.1002 39.1 24.7002C38.6 23.9002 38.4 23.3999 38.2 22.8999C38.2 22.7999 38.2 22.5999 38.2 22.3999C38.8 23.9999 40.4 25.8998 42.1 27.2998C41.9 26.7998 40 25.2999 39.2 23.8999C38.7 22.9999 38.4 22.4 38.3 22C38.3 21.8 38.3 21.7 38.3 21.5C38.8 23.1 40.3 24.9999 42 26.3999C41.9 25.8999 40.1 24.5002 39.3 23.2002C38.7 22.2002 38.5 21.6002 38.4 21.2002V21.1001C38.4 20.9001 38.4 20.7 38.4 20.5C38.7 22.1 40.2 24.1001 41.9 25.6001C41.8 25.2001 40.1 23.8001 39.4 22.6001C38.7 21.5001 38.6 20.7999 38.4 20.3999C38.9 15.9999 40.8 13.4 43.5 13C43.4 13.5 43.5 14.1998 43.8 14.7998C43.8 14.6998 43.7 14.0001 43.7 13.6001V13.1001H43.9C43.9 13.7001 44.1 14.2998 44.4 14.2998C44.2 13.9998 44.2 13.5002 44.2 13.2002L44.5 13.2998C44.5 13.9998 44.7 14.6002 45 14.7002C44.7 14.3002 44.7 13.8 44.8 13.5C44.8 13.7 44.9 14.0001 45.1 14.1001C45.2 14.0001 45.1 13.5998 45.1 13.2998C45.4 13.0998 45.8 13.1999 46.3 13.3999C46.4 13.5999 46.4 13.7002 46.2 13.7002H46L46.5 13.8999C46.5 13.8999 46.6 14 46.4 14L46.2 14.1001H46.9C47.1 14.2001 47.1 14.1998 47 14.2998L46.9 14.5C47.5 14.5 48 14.6 48.7 15C48.7 15.2 48.4 15.2 47.9 15C48 15.3 48.5 15.3 48.5 15.5C48.5 15.8 47.7 15.5 47.4 16H48.2C48.4 16.1 48.3 16.2002 48.1 16.2002C48.5 16.7002 48.9 16.9 49 16.5C49.1 16.2 49.2 16.2 49.4 16.5C49.9 16.8 50 16.7999 49.7 16.8999L49.2 17L49.8 17.1001C49.9 17.1001 49.9 17.2999 49.8 17.3999C49.4 17.3999 49.4 17.5 50.1 17.5C50.4 17.6 50.5 17.7999 50.4 17.8999C49.7 17.8999 49.8 18.0001 50.5 18.1001C50.7 18.2001 50.7 18.2999 50.7 18.3999C50.3 18.4999 50.4 18.6001 50.8 18.6001C50.8 18.7001 50.9 18.6998 50.8 18.7998C50.3 18.8998 50.4 19 51 19C51 19.2 51.4 19.2 51.5 19.5C52 19.4 52.2 19.7002 51.8 19.7002V19.7998C52.5 19.7998 52.8 20 52.7 20.5C52.7 20.7 51.7 20.1001 52.1 21.6001L52.2 21.7002C52.5 21.7002 52.2 21.0001 52.6 21.1001C52.6 21.1001 52.7 21.3002 52.6 21.7002C52.5 22.0002 52.3 22.2 51.9 22C51.6 21.8 51.4 21.5998 51.4 21.2998V20.7998C51.1 20.7998 51 20.5998 51 20.2998C51 20.2998 50.9 20.3002 50.9 20.2002C50.3 20.1002 50.1 20.3002 50 20.7002C50 20.8002 49.9 20.7001 49.8 20.6001C49.8 20.5001 49.6 20.6001 49.5 20.6001C49.4 20.6001 49.5 20.3999 49.4 20.3999C49.4 20.3999 49.4 20.5 49.2 20.5C49.1 20.5 49.2 20.3 49 20.5C48.9 20.6 48.9 20.6 48.8 20.5C48.8 20.4 48.9 20 48.6 20.5C48.5 20.5 48.5 20.4999 48.4 20.3999C48.2 19.8999 48.1 19.7998 48 20.2998C47.9 20.4998 47.8 20.4998 47.8 20.2998C47.6 19.4998 47.6 19.4998 47.7 20.2998C47.7 20.5998 47.6 20.6002 47.4 20.2002C47.2 19.5002 47.1 20.2 46.9 20C46.7 19.6 46.9 19.1 46.5 19L46.7 20.1001C46.7 20.2001 46.5 20.3001 46.4 20.1001C46.3 19.4001 45.8 18.2001 45.9 18.6001L46.2 20.1001C46.2 20.2001 45.9 20.1 45.8 20L45.4 18.2002C45.4 17.7002 45.4 19.1999 45.6 19.8999C45.6 19.9999 45.4 19.9999 45.4 19.8999C45.4 19.7999 45.1 18.0001 45 18.1001C44.8 18.3001 45.4 19.9998 44.9 19.7998C44.9 19.7998 44.7 18 44.6 18V19.7002C44.1 19.1002 44.6 17.3998 44.3 17.2998C44.3 17.2998 44.1 19.3002 44 19.2002C44.2 20.8002 45.5 20.7998 45.4 21.2998L44.5 20.7998C44.7 21.2998 45.1 21.6998 45.4 22.2998C45.1 22.3998 45.4 22.8 45.6 23C45.3 23 45.4 23.1002 45.9 23.7002C46 23.8002 46 23.9 46 24C45.3 23.9 45.3 23.9002 46.3 24.7002C45.6 24.6002 45.6 24.7002 46.3 25.2002C46.4 25.3002 46.6 25.5002 46.6 25.7002C46.6 25.8002 46.5 25.7002 46.5 25.7002C46.4 25.7002 46.2 25.5 46.1 25.5C45.9 25.5 46.1 25.6999 46.9 26.3999C47.1 26.5999 47.2 26.6998 47 26.7998C46 26.0998 46 26.2998 47.1 27.2998C47.4 27.6998 47.4 27.9 47.3 28C46.4 27.2 45.8 26.7998 47.3 28.2998C47.6 28.5998 47.6 28.7998 47.4 28.7998C45.8 27.5998 46.7 28.4 47.7 29.5V29.6001C46.2 28.5001 46.1 28.6999 47.7 30.3999C47.7 30.4999 47.8 30.6998 47.8 30.7998C47.8 30.7998 47.7 30.7998 47.6 30.7998C46.5 29.7998 46.6 30.0002 47.8 31.7002C48 32.0002 48.1 32.2001 47.8 32.1001C46.4 30.5001 46 30.2001 47.8 32.6001C48 32.9001 48 33.1 47.8 33C46.6 31.3 46.5 31.4998 47.8 33.2998C47.9 33.4998 47.9 33.5 47.8 33.5C46.7 32.1 46.3 31.7998 47.8 33.7998C48 34.1998 47.9 34.2 47.8 34C46.4 32.3 46.4 32.4998 47.8 34.2998C47.9 34.4998 48 34.6 47.8 34.5C46.2 32.7 46.2 32.7002 47.8 34.7002C47.8 35.2002 47.8 35.1999 47.5 34.8999C47.4 34.6999 47.4 34.5999 47.2 34.3999C46.2 33.1999 46.1 33.2998 47.2 34.7998C47.1 34.8998 46.9 34.8998 46.7 34.7998C45.7 33.4998 45.6 33.4998 46.4 34.7998L45.8 34.7002C45.7 34.5002 45.6 34.3998 45.5 34.2998C44.6 33.3998 44.2 33.3 45.2 34.5C45.2 34.5 45.2 34.5001 45.2 34.6001L44.1 34.3999C44 34.3999 43.8 34.4002 43.7 34.2002C43.2 33.4002 42.9 33.0999 42.2 32.3999C42.2 32.6999 42.9 33.1999 43.3 33.8999C43.4 34.3999 42.9 34.2001 42.7 34.1001C42.4 33.6001 42.2 33.6 41.8 33C40.4 30.7 38.9 28.9001 37.7 27.6001ZM37.6 28.2998C38.7 29.4998 40.2 31.2998 41.4 32.7998C41.7 33.1998 41.6 33.1 41.9 33.5C42.1 33.5 42.2 33.6 42.2 33.5C41.9 33.2 41.9 33.2 41.4 32.5C40.4 31.2 38.6 28.9999 37.7 27.8999C37.7 27.8999 37.7 28.0998 37.6 28.2998ZM37.5 29C38.6 30.2 39 30.8002 40.2 32.2002C40.3 32.4002 41 33.0002 41.1 33.2002C41.2 33.5002 41.8 33.4998 41.5 33.2998C41.3 33.0998 41.5 33.2998 41.2 32.7998C40.2 31.5998 38.6 29.5999 37.6 28.3999L37.5 29ZM37.3 29.6001C38.3 30.8001 39.3 31.9002 40.4 33.2002C40.5 33.3002 40.7 33.3002 40.8 33.2002C40.7 33.1002 39.9 32.2 39.8 32C38.9 30.9 38.4 30.3001 37.4 29.1001C37.4 29.3001 37.3 29.4001 37.3 29.6001ZM37.1 30.3999C37.9 31.2999 38.7 32.1001 39.5 33.1001C39.7 33.2001 39.9 33.2001 40 33.1001C39.2 32.1001 38.2 30.8998 37.3 29.7998C37.3 29.8998 37.2 30.1002 37.2 30.2002C37.1 30.3002 37.1 30.2999 37.1 30.3999ZM37 31.2998C37.7 31.9998 38.1 32.3 38.7 33C38.9 33.1 39 33.1 39.1 33C38.4 32.1 37.8 31.4 37.1 30.5C37 30.8 37 31.0998 37 31.2998ZM37.1 32.2002C37.4 32.5002 37.7 32.7 38 33C38.1 33 38.3 33 38.5 33C38 32.5 37.6 32.2002 37 31.7002C37 31.8002 37.1 32.0002 37.1 32.2002ZM37.7 33C37.2 33 37.1 33 37.1 32.5C37.3 32.7 37.5 32.8 37.7 33ZM43.1 13.3999C43 13.8999 43.1 14.6002 43.6 15.2002C43.6 15.1002 43.5 14.6002 43.3 14.2002C43.2 13.8002 43.2 13.3999 43.1 13.3999ZM43.5 30.1001C43.5 29.7001 43.2 29.3 42.7 29C42.7 29.1 43 29.3001 43.2 29.6001C43.4 29.9001 43.5 30.0001 43.5 30.1001ZM43.7 31.2002C43.7 30.6002 43.3 30.0001 42.6 29.6001C42.6 29.7001 43 30.1 43.3 30.5C43.5 30.9 43.6 31.2002 43.7 31.2002ZM43.8 32.3999C43.8 31.6999 43.2 30.8998 42.4 30.2998C42.4 30.3998 43 31 43.3 31.5C43.6 32 43.7 32.2999 43.8 32.3999ZM43.8 33.2998C43.8 32.3998 43.2 31.8 42.3 31C42.3 31.2 43 31.7999 43.3 32.3999C43.7 33.0999 43.7 33.1998 43.8 33.2998ZM41.9 14.2998C41.9 14.8998 42.2 15.5 42.8 16C42.8 15.9 42.5 15.5001 42.3 15.1001C42.2 14.7001 42.1 14.3998 41.9 14.2998Z" fill="white"/>
<path d="M18.9 12.3659C18.5 12.2659 18.3 12.3659 18.4 12.8659C24.5 21.4659 33.8 34.0659 44.7 48.8659V49.0657L45.6 49.5657L45.3 48.3659L45.1 48.4656C36.7 36.7656 27 22.9659 18.9 12.3659ZM17.8 12.8659C17.9 13.0659 17.7 13.2656 17.5 12.9656C17.1 12.4656 17.2 11.9659 17.6 11.3659C18.1 10.7659 18.6 10.7658 19.2 11.2658C19.5 11.4658 19.4 11.5656 19.1 11.5656C18.1 11.5656 17.6 12.0659 17.8 12.8659ZM13.2 5.06565C14.1 6.16565 15 7.26565 15.9 8.56565C15.9 8.76565 15.8 8.86594 15.6 8.86594C14.6 7.46594 13.8 6.26575 13 5.16575C13 4.96575 13.1 4.96565 13.2 5.06565Z" fill="#E2B900"/>
<path d="M36 15.3999C35.8 15.2999 35.7 15.6999 36 15.3999L36.6 15C36.8 14.6 36.7 15.1001 36.8 15.1001C37 15.1001 37.3 14.4998 37.2 14.2998L37.6 14.1001C37.8 13.9001 37.8 13.7998 37.5 13.7998C37.1 14.0998 36.7 14.4999 36.4 14.8999L36 15.3999ZM35 15.1001C35 15.1001 35 15.1999 34.9 15.3999C34.8 15.4999 34.7 15.5 34.6 15.5C34.5 15.5 34.6 15.3002 34.7 15.2002C34.9 15.1002 35 15.1001 35 15.1001ZM22.5 14.5C22.1 14.6 22.1 14.6998 22.5 14.7998C22.6 14.7998 22.8 14.7998 22.9 14.7998C23.1 14.7998 23.2 14.8 23.3 15C23.4 15.3 23.6 15.3998 23.8 15.2998C23.9 15.1998 23.2 14.7002 23.6 14.7002H23.8C24.3 15.2002 24.8 15.4999 24.8 15.3999L24.6 14.7998C24.6 14.5998 24.8 14.6998 24.9 14.7998L25.6 15.3999C25.7 15.4999 25.6 15.2999 25.5 14.8999C25.5 14.7999 25.6 14.7999 25.7 14.8999C26.1 15.2999 26.6 15.9998 26.6 15.7998V15.5C26.6 15.4 26.7 15.4 26.8 15.5C27 15.8 27.4 16.1 27.4 16V15.7998C27.4 15.6998 27.5 15.6998 27.7 15.7998L28.4 16.3999C28.5 16.4999 28.7 16.3999 28.6 16.3999L28.5 16.2002C28.4 16.1002 28.5 16.0002 28.6 16.2002L29.3 16.7002C29.4 16.8002 29.4 16.6999 29.3 16.3999H29.7C29.7 16.5999 29.9 16.6998 30.3 16.7998C30.4 16.7998 30.4 16.8002 30.6 16.7002L31.5 16.3999C31.8 16.2999 31.7 16.1002 31.5 16.2002C30.2 16.5002 28.9 15.9001 27.4 15.1001C25.3 14.0001 23.7 14 22.5 14.5ZM24 13.5C24.6 13 25.2 12.9002 25.9 13.2002C26.7 13.7002 27 13.6001 27.7 14.1001C28.3 14.6001 29.2 14.9998 30.2 15.2998C30.4 15.2998 30.3 15.4001 30.1 15.6001C29.6 15.3001 29.2 15.0001 29.5 15.6001C29.5 15.6001 29.4 15.6 29.3 15.5C28.7 15 28.3 14.7998 28 14.7998C27.6 14.2998 27.4 14.3002 27.5 14.7002C27.5 14.8002 27.4 14.8002 27.3 14.7002C26.8 14.0002 26.6 13.8999 26.6 14.3999C26.6 14.4999 26.6 14.4999 26.4 14.3999C26 13.6999 25.9 13.5999 26.1 14.3999C26.1 14.3999 26 14.3999 25.9 14.3999C25.6 13.6999 25.5 13.8002 25.5 14.2002C25 13.5002 24.8 13.6001 25 14.1001C24.7 13.6001 24.5 13.6 24.5 14C24.2 13.7 24 13.8 23.8 14C23.8 13.6 23.8 13.6 24 13.5ZM27.4 13.2998C28.1 13.2998 28.7 13.6 29.4 14C29.4 14.1 29.4 14.1001 29.4 14.1001C29.2 13.9001 28.9 13.7998 28.7 13.7998C28.7 14.0998 28.7 14.2002 28.6 14.2002C28.4 13.8002 28.1 13.6998 27.9 13.7998H27.8C27.6 13.3998 27.5 13.4001 27.4 13.6001C27.2 13.4001 27.2 13.2998 27.4 13.2998ZM17.3 18.6001C17.8 17.9001 18.1 17.7002 18.4 18.2002C18.7 17.2002 19.1 17.1 19.5 18C20.1 18 20.2 18.9002 20.1 20.2002L19.5 18.7002V19.6001C19.1 18.1001 16.7 19.0001 17.3 18.6001ZM20.4 19C20.5 19 20.6 19.0998 20.6 19.2998C20.6 19.4998 20.6 19.7002 20.6 19.7002C20.5 19.7002 20.4 19.5999 20.4 19.3999C20.3 19.1999 20.3 19 20.4 19ZM16.9 22.2998C17 22.0998 17.3 21.9002 17.6 21.7002V22L18.4 21.7998V22L19.2 21.6001C18.7 22.2001 18.6 22.3999 18.8 22.3999C18.9 22.3999 19.5 21.6999 19.7 21.8999C19.3 22.4999 19.7 22.2998 20.4 21.7998C20.6 21.7998 20.2 22.2999 20.2 22.3999C20.2 22.3999 20.5 22.2999 21 21.8999C21.1 21.7999 21.4 21.5002 21.5 21.7002C21.5 21.9002 21.4 22.0001 21.3 22.1001C20.8 22.7001 20.9 22.6001 21.8 22.1001C21.9 22.1001 22.1 21.9 22.2 22C21.6 22.8 21.9 22.6001 22.7 22.1001C22.8 22.1001 23 21.8 23.1 22C22 22.9 22.2 23.0999 23.6 22.3999C22.9 23.1999 23.1 23.2 24.1 22.5C24.2 22.5 24.3 22.5 24.4 22.5C23.9 23 23.9 23.3002 24.1 23.2002C24.4 23.1002 24.9 22.8999 25.1 22.8999C24.7 23.2999 24.7 23.4999 25.2 23.3999C25.4 23.3999 25.2 23.7001 24.6 24.1001C24.5 24.2001 24.4 24.1002 24.3 23.7002C24.3 23.9002 24.2 23.8998 24.1 23.7998L24 24.6001H23.8V24.1001C23.7 24.0001 23.6 24.0001 23.5 24.1001L23.4 24.7002L23.1 24.6001C23 24.8001 22.9 25.0002 22.7 25.2002C22.5 25.0002 22.4 25.0002 22.3 25.2002C22.2 25.2002 22.1 25.2002 22 25.2002C21.9 25.5002 21.8 25.4998 21.7 25.2998C21.5 25.3998 21.2 25.5999 21 25.8999L20.9 25.6001C20.7 25.9001 20.5 26.1 20.4 26L20.2 25.7998L19.9 26.3999L19.3 26.5C19.3 26.6 19.5 26.6001 19.9 26.6001C20.4 26.6001 21.3 26.3001 21.9 26.1001C22.5 25.9001 23.2 25.8 23.9 25.5C24.5 25.2 25.1 24.6999 25.8 24.3999C25.9 24.4999 25.8 24.7998 24.6 25.7998L24 25.7002L24.3 26.2002C24.2 26.3002 24 26.3999 23.9 26.3999L23.3 26.1001L23.5 26.7002C23.1 26.7002 22.9 26.1999 22.6 26.3999L22.7 26.8999L21.9 26.7002L22 27.2998L21.3 27L21.2 27.2998C21 27.2998 20.9 27.2999 20.8 27.3999C22.4 27.6999 24.2 27.1002 26 26.2002C26.1 26.2002 26.1 26.1999 26.1 26.3999C26 27.0999 25.4 27.7998 24.6 28.2998L24.8 27.2998C24.2 27.4998 23.6 28.6999 23.2 28.8999L23.7 27.6001L22.3 28.7998C22.2 28.6998 22.3 28.2999 22.7 27.8999C22.3 27.8999 21.5 28.8998 21.4 28.7998C21.1 28.6998 21.6 28.3001 21.8 28.1001C21.4 28.1001 21.1 28.4001 20.8 28.6001C20.8 28.4001 21 28.1998 21.4 27.7998L20.2 28.3999C20.2 28.1999 20.7 28.0002 20.8 27.7002C20.2 28.1002 19.8 28.2998 19.6 28.2998L20 27.7002L19 28.2998L19.7 27.6001L18.5 28L18.8 27.3999L18 27.8999L18.3 27.2002C17.9 27.5002 17.5 27.7998 17.3 27.7998C17.5 27.4998 17.7 27.3001 17.6 27.1001C17.2 27.4001 16.8 27.6001 16.7 27.6001L16.8 27.1001C16.5 27.4001 16.1 27.5998 15.8 27.7998L16.2 27.2002C16.2 27.1002 16.2 27.0001 16.1 27.1001L15.3 27.7998C15.5 27.4998 15.6 27.2001 15.4 27.1001L14.8 27.3999V27.1001L14.1 27.7998C14 27.7998 14.1 27.6002 14.2 27.2002L13.5 27.7002C13.9 27.0002 14.5 26.5002 15.3 26.2002C16.3 25.9002 17.1 25.8998 17.7 25.7998C18.8 25.6998 19.5 25.6001 20.3 25.1001C20.7 25.0001 21.2 24.7999 21.6 24.3999C21.8 24.1999 21.7 24.2002 21.5 24.2002H20.4V23.7002L20 24.2998L19.9 23.7002L19.5 24.7002L19.4 23.5L19.2 24.8999L19.1 23.7002L18.6 25.1001L18.5 23.6001L18.3 25.1001L18 23.6001L17.8 25.1001L17.5 23.7002L17.4 25.1001L17 23.7002V25.2002L16.5 23.7998L16.4 25L16.1 23.7998L16 24.8999L15.8 23.8999L15.7 25C15.2 24.1 15 23.4001 15.4 23.1001C15.7 22.3001 16.3 22.1998 16.9 22.2998ZM13.1 28.8999L13 29.2002C13.1 29.2002 13.3 28.9999 13.4 28.8999L13.3 29.5C13.5 29.5 13.9 29.0998 14.2 28.7998L14 29.3999C14.3 29.3999 14.5 28.9998 14.7 28.7998L14.6 29.3999C14.9 29.3999 15.2 28.9002 15.4 28.7002V29.2998C15.6 29.2998 15.8 28.9002 16.1 28.7002L16.2 29.1001C16.4 29.1001 16.5 28.8002 16.7 28.7002L16.8 29.1001L17.3 28.6001L17.4 29L17.9 28.7998L18 29L18.5 28.7998V29.2998L19.1 29.1001V29.3999L19.5 29.2002V29.6001L20 29.5V29.8999L20.7 29.6001L20.5 30.2002L21.2 29.7998L21.1 30.2002L21.8 29.8999L21.4 30.6001C21.9 30.6001 22 30.3001 22.3 30.1001L22.1 30.7002C22.6 30.6002 23 30.1998 23.3 29.7998C23.4 29.8998 23.3 30.2002 23 30.7002C23.5 30.5002 23.7 30.0998 23.9 29.7998L23.8 30.5C24.1 30.5 24.4 30.1998 24.7 29.7998V30.2998C24.9 30.0998 25.1 29.9001 25.3 29.6001C25.6 29.7001 26 29.6 26.1 29C26.3 28.5 26.1 28.4 25.8 28.5C24.5 29.4 22.7 29.6999 20.2 28.8999C18.5 28.3999 16.8 28.3998 15.1 28.2998C14 28.0998 13.3 28.0999 13.1 28.8999ZM23.2 31C23.3 30.8 23.4 30.6998 23.5 30.7998C23.5 30.7998 23.5 31.0002 23.4 31.2002C23.3 31.3002 23.2 31.3999 23.1 31.3999C23 31.3999 23.1 31.2 23.2 31ZM23.8 30.8999C23.9 30.6999 24.1 30.6001 24.1 30.6001C24.1 30.6001 24.1 30.9001 24 31.1001C23.9 31.3001 23.7 31.3999 23.6 31.3999C23.6 31.2999 23.6 31.0999 23.8 30.8999ZM24.5 30.6001C24.7 30.3001 24.9 30.1998 25 30.2998C25 30.3998 25 30.6999 24.8 30.8999C24.6 31.1999 24.4 31.3002 24.3 31.2002C24.2 31.1002 24.3 30.8001 24.5 30.6001ZM22.4 31C22.7 31 22.9 31.1002 22.9 31.2002C22.9 31.3002 22.7 31.3999 22.4 31.3999C22.1 31.3999 21.8 31.3002 21.8 31.2002C21.8 31.1002 22.1 31 22.4 31ZM34.5 15C34.5 14.8 35.3 14.2 36.3 13.5C36.8 13.1 37.2 13 37.6 13C37.7 13 37.9 13 38.2 13C38.4 13.1 38.3 13.2998 38.1 13.2998C38 13.1998 37.9 13.1998 37.7 13.2998C37.4 13.2998 37.4 13.5001 37.2 13.6001L37.1 13.3999C36.7 13.5999 36.5 14.3002 36.2 14.7002V14.3999C36 14.3999 35.9 14.8001 35.6 15.1001C35.6 14.9001 35.6 14.7002 35.5 14.7002C35 15.0002 34.6 15.1 34.5 15Z" fill="#0092D4"/>
<path d="M87.6 0V10.1001H88.3V14.3003H86.1V11.8999H81.2V14.3003H79V10.1001H79.7C80.5 8.4001 80.8 7.0002 80.8 3.7002V0H87.6ZM83 1.80029V4.5C83 7.2 82.6 8.6001 81.9 10.1001H85.2V1.80029H83Z" fill="white"/>
<path d="M96.4 0V1.80029H92.3V4.6001H96V6.3999H92.3V10.1001H96.4V11.8999H90V0H96.4Z" fill="white"/>
<path d="M104.6 0V11.8999H102.3V1.80029H99.3V11.8999H97V0H104.6Z" fill="white"/>
<path d="M109.1 0H112.1L114.7 11.8999H112.3L111.7 8.80029H109.1L108.4 11.8999H106L109.1 0ZM111.5 7L110.6 1.5L109.5 7H111.5Z" fill="white"/>
<path d="M117.3 11.8999H115V0H119.3C121.2 0 122.4 1.6 122.4 3.5C122.4 5.5 121.2 7.1001 119.2 7.1001H117.2V11.8999H117.3ZM117.3 5.30029H118.4C119.5 5.30029 120.1 4.7 120.1 3.5C120.1 2.4 119.5 1.80029 118.4 1.80029H117.3V5.30029Z" fill="white"/>
<path d="M129.1 11.8999H126.8V1.80029H124V0H131.9V1.80029H129.1V11.8999Z" fill="white"/>
<path d="M135.1 0H138.1L140.7 11.8999H138.3L137.7 8.80029H135.1L134.4 11.8999H132L135.1 0ZM137.5 7L136.6 1.5L135.5 7H137.5Z" fill="white"/>
<path d="M145.6 0L147.2 7.7002L148.8 0H152.4V11.8999H150.3V1.1001L148 11.8999H146.4L144.1 1.1001V11.8999H142V0H145.6Z" fill="white"/>
<path d="M160.4 0V1.80029H156.3V4.6001H160V6.3999H156.3V10.1001H160.4V11.8999H154V0H160.4Z" fill="white"/>
<path d="M163.3 4.6001H166.3V0H168.6V11.8999H166.3V6.3999H163.3V11.8999H161V0H163.3V4.6001Z" fill="white"/>
<path d="M175.1 11.8999H172.8V1.80029H170V0H177.9V1.80029H175.1V11.8999Z" fill="white"/>
<path d="M81.3 22.2002L84 17H86.6L83.6 22.2002L86.7 28.9004H84.2L82.2 24.2002L81.3 25.4004V29H79V17.1001H81.3V22.2002Z" fill="white"/>
<path d="M90.6 17L92.4 23.3003L94.2 17H96.7L93.5 26.6001C92.9 28.5001 92.2 29.2002 91.1 29.2002C90.6 29.2002 90.1 29.1 89.7 29V27.3003C89.8 27.3003 90 27.4004 90.3 27.4004C90.7 27.4004 91.1 27.1004 91.3 26.4004L88 17H90.6Z" fill="white"/>
<path d="M105.7 17V28.9004H103.4V18.8003H101V23.4004C101 27.4004 100.3 29.1001 98.4 29.1001C97.9 29.1001 97.5 29.1 97 29V27.3003C97.1 27.3003 97.5 27.4004 97.7 27.4004C98.4 27.4004 98.7 27.0002 98.7 22.7002V17H105.7Z" fill="white"/>
<path d="M110.3 21.6001H112.2C114 21.6001 115.2 23.4001 115.2 25.1001C115.2 27.4001 114.2 28.9004 112.4 28.9004H108V17H110.3V21.6001ZM110.3 27.2002H111.6C112.4 27.2002 112.9 26.7004 112.9 25.4004C112.9 24.2004 112.4 23.4004 111.6 23.4004H110.3V27.2002Z" fill="white"/>
<path d="M119.1 28.9004H116.8V18.8003H114V17H121.9V18.8003H119.1V28.9004Z" fill="white"/>
<path d="M125.6 17L127.4 23.3003L129.2 17H131.7L128.5 26.6001C127.9 28.5001 127.2 29.2002 126.1 29.2002C125.6 29.2002 125.1 29.1 124.7 29V27.3003C124.8 27.3003 125 27.4004 125.3 27.4004C125.7 27.4004 126.1 27.1004 126.3 26.4004L123 17H125.6Z" fill="white"/>
<path d="M135.3 28.9004H133V17H137.3C139.2 17 140.4 18.6 140.4 20.5C140.4 22.5 139.2 24.1001 137.2 24.1001H135.2V28.9004H135.3ZM135.3 22.3003H136.4C137.5 22.3003 138.1 21.7 138.1 20.5C138.1 19.4 137.5 18.8003 136.4 18.8003H135.3V22.3003Z" fill="white"/>
<path d="M143.3 21.6001H146.3V17H148.6V28.9004H146.3V23.4004H143.3V28.9004H141V17H143.3V21.6001Z" fill="white"/>
<path d="M154.9 17C157.2 17 158.7 18.0001 158.7 21.1001V25.3999C158.7 28.3999 157.2 29.3999 154.9 29.3999C152.6 29.3999 151 28.3999 151 25.3999V21.1001C151.1 18.1001 152.7 17 154.9 17ZM153.4 20.7998V25.6997C153.4 26.8997 153.9 27.6001 155 27.6001C156 27.6001 156.5 26.8997 156.5 25.6997V20.8999C156.5 19.5999 156 18.8999 155 18.8999C153.9 18.7999 153.4 19.5998 153.4 20.7998Z" fill="white"/>
<path d="M167.3 17V18.8003H163.3V28.9004H161V17H167.3Z" fill="white"/>
<path d="M172.9 17C175.2 17 176.7 18.0001 176.7 21.1001V25.3999C176.7 28.3999 175.2 29.3999 172.9 29.3999C170.6 29.3999 169 28.3999 169 25.3999V21.1001C169 18.1001 170.6 17 172.9 17ZM171.3 20.7998V25.6997C171.3 26.8997 171.8 27.6001 172.9 27.6001C173.9 27.6001 174.4 26.8997 174.4 25.6997V20.8999C174.4 19.5999 173.9 18.8999 172.9 18.8999C171.8 18.7999 171.3 19.5998 171.3 20.7998Z" fill="white"/>
<path d="M81.3 39.6001H84.3V35H86.6V46.9004H84.3V41.4004H81.3V46.9004H79V35H81.3V39.6001Z" fill="white"/>
<path d="M91.1 35H94.1L96.7 46.9004H94.3L93.7 43.8003H91.1L90.4 46.9004H88L91.1 35ZM93.5 42L92.6 36.5L91.5 42H93.5Z" fill="white"/>
<path d="M101.9 39.1001V38.7998C101.9 37.2998 101.5 36.7998 100.6 36.7998C99.6 36.7998 99.2 37.2998 99.2 38.7998V43.5C99.2 45 99.6 45.6001 100.6 45.6001C101.5 45.6001 102 45.1 102 43.5V42.8999H104.3V43.3999C104.3 45.5999 103.5 47.3999 100.7 47.3999C97.7 47.3999 97 45.4999 97 43.3999V39.1001C97 36.3001 98.3 35 100.7 35C103 35 104.3 36.3 104.3 38.5V39.1001H101.9Z" fill="white"/>
<path d="M113.7 35V46.9004H111.4V36.8003H109V41.4004C109 45.4004 108.3 47.1001 106.4 47.1001C105.9 47.1001 105.5 47.1 105 47V45.3003C105.1 45.3003 105.5 45.4004 105.7 45.4004C106.4 45.4004 106.7 45.0002 106.7 40.7002V35H113.7Z" fill="white"/>
<path d="M122.4 35V36.8003H118.3V39.6001H122V41.4004H118.3V45.1001H122.4V46.9004H116V35H122.4Z" fill="white"/>
<path d="M131.5 35V45.1001H132.2V49.3003H130V46.9004H125.2V49.3003H123V45.1001H123.7C124.5 43.4001 124.8 42.0002 124.8 38.7002V35H131.5ZM127 36.8003V39.5C127 42.2 126.6 43.6001 125.9 45.1001H129.2V36.8003H127Z" fill="white"/>
<path d="M136.1 35V39.4004C136.1 40.8004 136 42.6001 135.8 43.6001L139.1 35H141.5V46.9004H139.4V42.4004C139.4 40.6004 139.4 39.3003 139.7 38.3003L136.4 46.9004H134V35H136.1Z" fill="white"/>
<path d="M147.5 42.1001L145.5 46.9004H143L145.3 41.8003C144.1 41.3003 143.4 40 143.4 38.5C143.4 36.6 144.5 35 146.5 35H150.9V46.9004H148.6V42.1001H147.5ZM148.6 36.8003H147.5C146.4 36.8003 145.8 37.4 145.8 38.5C145.8 39.6 146.4 40.3003 147.5 40.3003H148.6V36.8003Z" fill="white"/>
<path d="M84 57V58.1001H80.2V67.7002H79V57H84Z" fill="white"/>
<path d="M85 62.5C85 60.1 85.4 57 88.5 57C91.6 57 92 60.1 92 62.5C92 65.4 91.6 68.1001 88.5 68.1001C85.4 68.1001 85 65.5 85 62.5ZM88.5 58.1001C86.7 58.1001 86.2 60.0004 86.2 62.4004C86.2 65.5004 86.5 67.1001 88.5 67.1001C90.5 67.1001 90.8 65.5004 90.8 62.4004C90.8 60.0004 90.3 58.1001 88.5 58.1001Z" fill="white"/>
<path d="M95.2 67.7002H94V57H97C98.9 57 100.2 57.9 100.2 60C100.2 62.5 98.7 63.1001 96.8 63.1001H95.2V67.7002ZM95.2 62.1001H96.4C98 62.1001 99 61.8 99 60C99 58.5 98.2 58.1001 96.7 58.1001H95.2V62.1001Z" fill="white"/>
<path d="M102 62.5C102 60.1 102.4 57 105.5 57C108.6 57 109 60.1 109 62.5C109 65.4 108.6 68.1001 105.5 68.1001C102.4 68.1001 102 65.5 102 62.5ZM105.5 58.1001C103.7 58.1001 103.2 60.0004 103.2 62.4004C103.2 65.5004 103.5 67.1001 105.5 67.1001C107.5 67.1001 107.8 65.5004 107.8 62.4004C107.8 60.0004 107.3 58.1001 105.5 58.1001Z" fill="white"/>
<path d="M117.5 57V66.6001H118.3V70.2002H117.2V67.7002H111.1V70.2002H110V66.6001H110.7C111.7 64.9001 111.8 62.9002 111.8 59.7002V57H117.5ZM113 58.1001V60.8999C113 63.3999 112.7 65.3002 112 66.7002H116.3V58.2002H113V58.1001Z" fill="white"/>
<path d="M122 57H123.6L126.6 67.7002H125.3L124.5 64.6001H121.1L120.3 67.7002H119L122 57ZM122.8 57.8999L121.4 63.6001H124.2L122.8 57.8999Z" fill="white"/>
<path d="M134.1 57L136.2 65.2998C136.3 65.6998 136.4 66.1999 136.4 66.8999C136.5 66.3999 136.5 65.8998 136.7 65.2998L138.8 57H140.9V67.7002H139.7V58.8999C139.7 58.3999 139.7 58.0001 139.7 57.6001C139.6 58.2001 139.4 58.6 139.3 59L137.1 67.7002H135.7L133.5 58.8999C133.4 58.4999 133.3 58.2001 133.2 57.6001C133.2 58.2001 133.2 58.5 133.2 59V67.7002H132V57H134.1Z" fill="white"/>
<path d="M143 62.5C143 60.1 143.4 57 146.5 57C149.6 57 150 60.1 150 62.5C150 65.4 149.6 68.1001 146.5 68.1001C143.4 68.1001 143 65.5 143 62.5ZM146.5 58.1001C144.7 58.1001 144.2 60.0004 144.2 62.4004C144.2 65.5004 144.5 67.1001 146.5 67.1001C148.5 67.1001 148.8 65.5004 148.8 62.4004C148.8 60.0004 148.4 58.1001 146.5 58.1001Z" fill="white"/>
<path d="M156.2 60.3003C156.2 59.0003 155.8 58 154.3 58C152.2 58 152.2 60.9003 152.2 62.3003C152.2 64.5003 152.3 67 154.3 67C155.8 67 156.1 65.7 156.2 64H157.4C157.3 66.5 156.7 68.1001 154.4 68.1001C151.3 68.1001 151 64.8999 151 62.3999C151 59.9999 151.4 57 154.4 57C156.4 57 157.4 58.4999 157.4 60.3999H156.2V60.3003Z" fill="white"/>
<path d="M161.1 62.5L165 57H166.5L163.1 61.5L166.6 67.7002H165.2L162.4 62.3999L161.2 64V67.7002H160V57H161.2V62.5H161.1Z" fill="white"/>
<path d="M168 57H170.8C172.8 57 173.7 58.1002 173.7 59.7002C173.7 60.9002 173.2 61.8 172.1 62C173.1 62.1 174 63.1001 174 64.6001C174 66.6001 172.9 67.6001 170.9 67.6001H168V57ZM169.2 61.5H170.7C171.9 61.5 172.6 61.1002 172.6 59.7002C172.6 58.5002 171.9 58 170.9 58H169.3V61.5H169.2ZM169.2 66.6001H171C172.3 66.6001 172.9 66.0001 172.9 64.6001C172.9 63.2001 172.2 62.6001 170.9 62.6001H169.2V66.6001Z" fill="white"/>
<path d="M176.2 61.6001H177.6C179.5 61.6001 181 62.3002 181 64.7002C181 66.8002 179.7 67.7002 177.8 67.7002H175V57H176.2V61.6001ZM176.2 66.7002H177.5C178.9 66.7002 179.8 66.3003 179.8 64.8003C179.8 63.1003 178.8 62.7002 177.2 62.7002H176.2V66.7002ZM183.8 67.8003H182.6V57.1001H183.8V67.8003Z" fill="white"/>
</svg>
