<svg width="331" height="165" viewBox="0 0 331 165" fill="none" xmlns="http://www.w3.org/2000/svg">
<path d="M12.7724 18.3595C12.094 12.3506 11.7084 6.16537 11.7084 0H0.291016C0.291016 6.63463 0.705518 13.2494 1.42709 19.6405L12.7724 18.3595Z" fill="#FFEA03"/>
<path d="M318.326 18.3595C319.005 12.3507 319.39 6.1654 319.39 0H330.807C330.807 6.6346 330.393 13.2493 329.671 19.6405L318.326 18.3595Z" fill="#FFEA03"/>
<path d="M9.65785 55.018C7.60044 49.2526 5.85484 43.3401 4.44141 37.3009L15.5584 34.6991C16.8733 40.3172 18.4971 45.8172 20.4111 51.1806L9.65785 55.018Z" fill="#FFEA03"/>
<path d="M321.378 55.0146C319.475 60.3601 317.304 65.5782 314.882 70.6529L304.578 65.7347C306.832 61.0128 308.852 56.1582 310.622 51.1856L321.378 55.0146Z" fill="#FFEA03"/>
<path d="M48.9973 116.819C40.2685 108.162 32.4995 98.5407 25.8649 88.1273L35.494 81.9924C41.671 91.6876 48.9061 100.649 57.0369 108.712L48.9973 116.819Z" fill="#FFEA03"/>
<path d="M297.264 99.5092C290.419 108.502 282.672 116.771 274.158 124.183L266.661 115.572C274.591 108.669 281.806 100.968 288.179 92.594L297.264 99.5092Z" fill="#FFEA03"/>
<path d="M111.116 155.653C99.3783 151.566 88.2428 146.196 77.8786 139.712L83.9343 130.033C93.5842 136.07 103.948 141.068 114.87 144.87L111.116 155.653Z" fill="#FFEA03"/>
<path d="M246.533 143.668C236.765 149.157 226.383 153.686 215.514 157.124L212.071 146.238C222.184 143.039 231.846 138.825 240.938 133.715L246.533 143.668Z" fill="#FFEA03"/>
<path d="M165.5 164.809C159.272 164.809 153.122 164.464 147.068 163.792L148.328 152.444C153.964 153.07 159.694 153.391 165.5 153.391C170.819 153.391 176.074 153.122 181.252 152.597L182.403 163.957C176.844 164.52 171.205 164.809 165.5 164.809Z" fill="#FFEA03"/>
</svg>
