<svg width="487" height="201" viewBox="0 0 487 201" fill="none" xmlns="http://www.w3.org/2000/svg">
<path d="M365.5 36.5C357 31.8 348.7 26.8 340.3 22C327.4 14.6 314.6 7.2 302 0C302 25.8 302 51.6 302 77.5C323 65.3 344.2 53.0004 365.4 40.9004C368.4 39.2004 368.8 38.3 365.5 36.5Z" fill="#40C93E"/>
<path d="M67.5889 34.8844C72.8692 33.8386 78.3237 33.291 83.8997 33.291H103.862V44.7084H83.8997C79.0727 44.7084 74.3612 45.1823 69.8073 46.0843L67.5889 34.8844Z" fill="#FFEA03"/>
<path d="M143.787 33.291H183.712V44.7084H143.787V33.291Z" fill="#FFEA03"/>
<path d="M223.637 33.291H243.6V44.7084H223.637V33.291Z" fill="#FFEA03"/>
<path d="M14.3858 70.4476C20.4889 61.3351 28.3348 53.4891 37.4472 47.386L43.8008 56.8723C35.9272 62.1457 29.1455 68.9274 23.8722 76.801L14.3858 70.4476Z" fill="#FFEA03"/>
<path d="M0.291016 116.9C0.291016 111.324 0.838555 105.87 1.88443 100.589L13.0842 102.808C12.1822 107.362 11.7084 112.073 11.7084 116.9C11.7084 121.727 12.1822 126.439 13.0842 130.993L1.88443 133.211C0.838555 127.931 0.291016 122.476 0.291016 116.9Z" fill="#FFEA03"/>
<path d="M37.4472 186.414C28.3349 180.311 20.4889 172.465 14.3858 163.353L23.8722 156.999C29.1455 164.873 35.9272 171.655 43.8008 176.928L37.4472 186.414Z" fill="#FFEA03"/>
<path d="M83.8997 200.509C78.3237 200.509 72.8692 199.962 67.5889 198.916L69.8073 187.716C74.3612 188.618 79.0727 189.092 83.8997 189.092H105.531V200.509H83.8997Z" fill="#FFEA03"/>
<path d="M192.056 200.509H148.793V189.092H192.056V200.509Z" fill="#FFEA03"/>
<path d="M278.581 200.509H235.318V189.092H278.581V200.509Z" fill="#FFEA03"/>
<path d="M365.106 200.509H321.843V189.092H365.106V200.509Z" fill="#FFEA03"/>
<path d="M430 200.509H408.368V189.092H430V200.509Z" fill="#FFEA03"/>
<path d="M468 189.291H487V200.708H468V189.291Z" fill="#FFEA03"/>
<path d="M263 44.7084H282.1V33.291H263V44.7084Z" fill="#FFEA03"/>
</svg>
