<svg width="525" height="385" viewBox="0 0 525 385" fill="none" xmlns="http://www.w3.org/2000/svg">
<path d="M65.7413 0C65.7413 26 65.7413 51.7 65.7413 77.5C53.2413 70.3 40.3414 62.9 27.4414 55.5C19.0414 50.7 10.7413 45.7 2.24134 41C-0.958656 39.2 -0.55868 38.2996 2.34132 36.5996C23.5413 24.4996 44.6413 12.2 65.7413 0Z" fill="#FFED00"/>
<path d="M105 43.7089H86V32.2915H105V43.7089Z" fill="#45DB44"/>
<path d="M160.225 43.7089H144V32.2915H160.225V43.7089Z" fill="#45DB44"/>
<path d="M208.9 43.7089H192.675V32.2915H208.9C215.057 32.2915 221.079 32.8962 226.909 34.0509L224.69 45.2507C219.587 44.2398 214.308 43.7089 208.9 43.7089Z" fill="#45DB44"/>
<path d="M276.16 79.669C270.252 70.847 262.653 63.2485 253.831 57.3398L260.185 47.8536C270.246 54.5919 278.908 63.2547 285.647 73.3153L276.16 79.669Z" fill="#45DB44"/>
<path d="M289.791 124.6C289.791 119.193 289.26 113.913 288.25 108.81L299.449 106.592C300.604 112.421 301.209 118.443 301.209 124.6V145.5H289.791V124.6Z" fill="#45DB44"/>
<path d="M289.791 229.1V187.3H301.209V229.1H289.791Z" fill="#45DB44"/>
<path d="M289.791 291.8V270.9H301.209V291.8C301.209 297.208 301.74 302.487 302.75 307.59L291.551 309.809C290.396 303.979 289.791 297.957 289.791 291.8Z" fill="#45DB44"/>
<path d="M330.815 368.547C320.754 361.808 312.092 353.146 305.353 343.085L314.84 336.731C320.748 345.553 328.347 353.152 337.169 359.061L330.815 368.547Z" fill="#45DB44"/>
<path d="M382.1 384.109C375.943 384.109 369.921 383.504 364.091 382.349L366.31 371.15C371.413 372.16 376.692 372.691 382.1 372.691H408.225V384.109H382.1Z" fill="#45DB44"/>
<path d="M486.6 384.109H460.475V372.691H486.6V384.109Z" fill="#45DB44"/>
<path d="M506 383.709H525V372.292H506V383.709Z" fill="#45DB44"/>
</svg>
