<svg width="48" height="35" viewBox="0 0 48 35" fill="none" xmlns="http://www.w3.org/2000/svg">
<path d="M40.3159 19.5097H0V15.49H40.3156L27.6848 2.84236L30.5234 0L48 17.5L30.5234 35L27.6848 32.1576L40.3159 19.5097Z" fill="#FFED00"/>
</svg>
