<svg width="24" height="36" viewBox="0 0 24 36" fill="none" xmlns="http://www.w3.org/2000/svg">
<path fill-rule="evenodd" clip-rule="evenodd" d="M11.8648 18L24 29.754L18.0676 35.5L-1.11724e-06 17.9999L18.0676 0.5L24 6.24606L11.8648 18Z" fill="white"/>
</svg>
