<svg width="211" height="56" viewBox="0 0 211 56" fill="none" xmlns="http://www.w3.org/2000/svg">
<path fill-rule="evenodd" clip-rule="evenodd" d="M13.3 1H0V54.5H6.5V28.3008L18.4 54.5H26.2L14.4 30.3008C21.7 29.9008 25.8 25.5002 25.8 16.7002V14.6006C25.8 5.80059 21.2 1 13.3 1ZM6.5 24.4004V7.60059H12.6C17.4 7.60059 19.3 9.70078 19.3 15.3008V16C19.3 22 17.4 24.4004 12.6 24.4004H6.5Z" fill="white"/>
<path d="M34.4 1V38C34.4 45.8 36.1 48.6006 40.9 48.6006C45.7 48.6006 47.4 45.8 47.4 38V1H54V38C54 49.6 49.8 55.2002 41 55.2002C32.2 55.2002 28 49.6 28 38V1H34.4Z" fill="white"/>
<path d="M67.8 0C74.8 0 79.2 4.5998 79.2 14.2998V17.5996H72.7V14.5C72.7 9 71.5 6.59961 67.9 6.59961C64.5 6.59961 63.2 8.89922 63.2 13.1992C63.2 17.4992 64.6 19.8998 67.8 22.2998L72 26.3994C76.4 29.7994 80 33.7992 80 40.6992C80 50.2992 75.2 55 68 55C60.7 55 56 49.8992 56 40.6992V36.6992H62.5V40.1992C62.5 45.2992 64 48.3994 68 48.3994C72 48.3994 73.5 45.7996 73.5 41.5996C73.5 37.1996 72.1 34.2998 68.8 31.7998L64.2 27.8994C59.8 24.4994 56.7 20.2992 56.7 13.1992C56.5 3.79922 61 0 67.8 0Z" fill="white"/>
<path d="M93.9 0C100.9 0 105.3 4.5998 105.3 14.2998V17.5996H98.8V14.5C98.8 9 97.6 6.59961 94 6.59961C90.6 6.59961 89.3 8.89922 89.3 13.1992C89.3 17.4992 90.7 19.8998 93.9 22.2998L98.1 26.3994C102.5 29.7994 106.6 33.7992 106.6 40.6992C106.6 50.2992 99.8 55 94 55C86.7 55 82 49.8992 82 40.6992V36.6992H88.5V40.1992C88.5 45.2992 90 48.3994 94 48.3994C98 48.3994 99.5 45.7996 99.5 41.5996C99.5 37.1996 98.1 34.2998 94.8 31.7998L90.2 27.8994C85.8 24.4994 82.7 20.2992 82.7 13.1992C82.6 3.79922 87.1 0 93.9 0Z" fill="white"/>
<path d="M171.8 0C178.8 0 183.2 4.5998 183.2 14.2998V17.5996H176.7V14.5C176.7 9 175.5 6.59961 171.9 6.59961C168.5 6.59961 167.2 8.89922 167.2 13.1992C167.2 17.4992 168.6 19.8998 171.8 22.2998L176 26.3994C180.4 29.7994 184 33.7992 184 40.6992C184 50.2992 179.2 55 172 55C164.7 55 160 49.8992 160 40.6992V36.6992H166.5V40.1992C166.5 45.2992 168 48.3994 172 48.3994C176 48.3994 177.5 45.7996 177.5 41.5996C177.5 37.1996 176.1 34.2998 172.8 31.7998L168.2 27.8994C163.8 24.4994 160.7 20.2992 160.7 13.1992C160.6 3.79922 165 0 171.8 0Z" fill="white"/>
<path d="M198 0C205 0 209.4 4.5998 209.4 14.2998V17.5996H202.9V14.5C202.9 9 201.7 6.59961 198.1 6.59961C194.7 6.59961 193.4 8.89922 193.4 13.1992C193.4 17.4992 194.8 19.8998 198 22.2998L202.2 26.3994C206.6 29.7994 210.7 33.7992 210.7 40.6992C210.7 50.2992 203.9 55 198.1 55C190.8 55 186 49.8992 186 40.6992V36.6992H192.5V40.1992C192.5 45.2992 194 48.3994 198 48.3994C202 48.3994 203.5 45.7996 203.5 41.5996C203.5 37.1996 202.1 34.2998 198.8 31.7998L194.2 27.8994C189.8 24.4994 186.7 20.2992 186.7 13.1992C186.8 3.79922 191.2 0 198 0Z" fill="white"/>
<path fill-rule="evenodd" clip-rule="evenodd" d="M122.1 1H109V54.5H115.5V34.1006H122C129.9 34.1006 134.4 28.8006 134.4 19.1006V15.2002C134.5 6.0002 130 1 122.1 1ZM115.5 27.6006V7.60059H121.4C126.1 7.60059 127.9 10 127.9 16V18.4004C127.9 24.9004 126.1 27.5 121.4 27.5H115.5V27.6006Z" fill="white"/>
<path fill-rule="evenodd" clip-rule="evenodd" d="M150.7 1H140.9L131 54.5H137.6L140.2 41.4004H151.5L154 54.5H160.6L150.7 1ZM145.8 6.7002L150.7 34.8008H141.5L145.8 6.7002Z" fill="white"/>
</svg>
