<svg width="25" height="25" viewBox="0 0 25 25" fill="none" xmlns="http://www.w3.org/2000/svg">
<path d="M17.7 24.8999H7.5C3.6 24.8999 0.5 21.7999 0.5 17.8999V7.69995C0.5 3.79995 3.6 0.699951 7.5 0.699951H17.7C21.6 0.699951 24.7 3.79995 24.7 7.69995V17.8999C24.7 21.7999 21.6 24.8999 17.7 24.8999ZM7.59998 3.49995C5.29998 3.49995 3.40002 5.39995 3.40002 7.69995V17.8999C3.40002 20.1999 5.29998 22.1 7.59998 22.1H17.8C20.1 22.1 22 20.1999 22 17.8999V7.69995C22 5.39995 20.1 3.49995 17.8 3.49995H7.59998Z" fill="white"/>
<path d="M12.7 18C9.89995 18 7.5 15.7 7.5 12.8C7.5 9.89997 9.79995 7.59998 12.7 7.59998C15.5 7.59998 17.9 9.89997 17.9 12.8C17.9 15.7 15.5 18 12.7 18ZM12.7 10.5C11.4 10.5 10.4 11.6 10.4 12.8C10.4 14 11.5 15.1 12.7 15.1C14 15.1 15 14 15 12.8C15 11.6 13.9 10.5 12.7 10.5Z" fill="white"/>
</svg>
