<svg width="76" height="69" viewBox="0 0 76 69" fill="none" xmlns="http://www.w3.org/2000/svg">
<path fill-rule="evenodd" clip-rule="evenodd" d="M71.6533 0V51.2133H8.11825L17.8325 41.4991L14.8343 38.501L0.00195312 53.3334L14.8343 68.1658L17.8325 65.1677L8.11816 55.4533H75.8933V0H71.6533Z" fill="#FFD500"/>
</svg>
