<svg width="216" height="58" viewBox="0 0 216 58" fill="none" xmlns="http://www.w3.org/2000/svg">
<path fill-rule="evenodd" clip-rule="evenodd" d="M14.05 1.61963H0.469971V56.3096H7.15002V29.5496L19.27 56.3096H27.29L15.25 31.5896C22.67 31.1796 26.86 26.6996 26.86 17.6596V15.4696C26.88 6.43964 22.13 1.61963 14.05 1.61963ZM7.15002 25.5396V8.32962L13.38 8.30963C18.26 8.30963 20.2 10.4296 20.2 16.1796V16.9396C20.2 23.0596 18.25 25.5396 13.38 25.5396H7.15002Z" fill="white"/>
<path d="M35.6801 1.61963V39.4696C35.6801 47.4896 37.44 50.3396 42.3 50.3396C47.16 50.3396 48.9301 47.4896 48.9301 39.4696V1.61963H55.63V39.4696C55.63 51.3496 51.31 57.0396 42.29 57.0396C33.26 57.0396 28.99 51.3496 28.99 39.4696V1.61963H35.6801Z" fill="white"/>
<path d="M70.3 0.889648C77.45 0.889648 81.9399 5.62963 81.9399 15.4696V18.8296H75.26V15.6996C75.26 10.0796 74.0501 7.59964 70.3101 7.59964C66.7901 7.59964 65.49 9.94963 65.49 14.3096C65.49 18.6696 66.97 21.1696 70.24 23.5696L74.52 27.7996C79 31.2296 82.6801 35.3796 82.6801 42.4596C82.6801 52.2296 77.79 57.0496 70.36 57.0496C62.92 57.0496 58.04 51.8696 58.04 42.4596V38.3796H64.72V41.9496C64.72 47.1296 66.26 50.3396 70.34 50.3396C74.42 50.3396 75.96 47.7096 75.96 43.3396C75.96 38.8196 74.55 35.8996 71.14 33.3496L66.45 29.3396C61.9 25.9096 58.8199 21.6096 58.8199 14.3196C58.7899 4.74964 63.35 0.889648 70.3 0.889648Z" fill="white"/>
<path d="M96.49 0.889648C103.64 0.889648 108.13 5.62963 108.13 15.4696V18.8296H101.45V15.6996C101.45 10.0796 100.24 7.59964 96.5 7.59964C92.98 7.59964 91.6801 9.94963 91.6801 14.3096C91.6801 18.6696 93.1601 21.1696 96.4301 23.5696L100.71 27.7996C105.19 31.2296 109.43 35.3796 109.43 42.4596C109.43 52.2296 102.48 57.0496 96.55 57.0496C89.13 57.0496 84.23 51.8696 84.23 42.4596V38.3796H90.91V41.9496C90.91 47.1296 92.46 50.3396 96.53 50.3396C100.6 50.3396 102.16 47.7096 102.16 43.3396C102.16 38.8196 100.75 35.8996 97.34 33.3496L92.65 29.3396C88.11 25.9096 85.02 21.6096 85.02 14.3196C84.97 4.74964 89.54 0.889648 96.49 0.889648Z" fill="white"/>
<path d="M176.48 0.889648C183.63 0.889648 188.12 5.62963 188.12 15.4696V18.8296H181.43V15.6996C181.43 10.0796 180.22 7.59964 176.48 7.59964C172.96 7.59964 171.66 9.94963 171.66 14.3096C171.66 18.6696 173.14 21.1696 176.41 23.5696L180.7 27.7996C185.18 31.2296 188.84 35.3796 188.84 42.4596C188.84 52.2296 183.96 57.0496 176.52 57.0496C169.08 57.0496 164.2 51.8696 164.2 42.4596V38.3796H170.88V41.9496C170.88 47.1296 172.43 50.3396 176.5 50.3396C180.57 50.3396 182.13 47.7096 182.13 43.3396C182.13 38.8196 180.72 35.8996 177.31 33.3496L172.62 29.3396C168.08 25.9096 164.99 21.6096 164.99 14.3196C164.98 4.74964 169.53 0.889648 176.48 0.889648Z" fill="white"/>
<path d="M202.68 0.889648C209.83 0.889648 214.32 5.62963 214.32 15.4696V18.8296H207.63V15.6996C207.63 10.0796 206.41 7.59964 202.68 7.59964C199.16 7.59964 197.85 9.94963 197.85 14.3096C197.85 18.6696 199.33 21.1696 202.6 23.5696L206.89 27.7996C211.37 31.2296 215.6 35.3796 215.6 42.4596C215.6 52.2296 208.65 57.0496 202.73 57.0496C195.31 57.0496 190.41 51.8696 190.41 42.4596V38.3796H197.09V41.9496C197.09 47.1296 198.63 50.3396 202.71 50.3396C206.79 50.3396 208.33 47.7096 208.33 43.3396C208.33 38.8196 206.92 35.8996 203.51 33.3496L198.82 29.3396C194.28 25.9096 191.19 21.6096 191.19 14.3196C191.19 4.74964 195.73 0.889648 202.68 0.889648Z" fill="white"/>
<path fill-rule="evenodd" clip-rule="evenodd" d="M125.83 1.61963H112.46V56.3096H119.14V35.4596H125.83C133.92 35.4596 138.54 30.0596 138.54 20.1396V16.1996C138.54 6.64965 133.91 1.61963 125.83 1.61963ZM119.14 28.7496V8.32962H125.16C129.97 8.32962 131.86 10.7296 131.86 16.9396V19.4196C131.86 26.0596 129.98 28.7596 125.16 28.7596H119.14V28.7496Z" fill="white"/>
<path fill-rule="evenodd" clip-rule="evenodd" d="M154.61 1.61963H144.58L134.48 56.2996H141.23L143.84 42.8796H155.35L157.95 56.2996H164.7L154.61 1.61963ZM149.58 7.44965L154.56 36.1796L145.18 36.1596L149.58 7.44965Z" fill="white"/>
</svg>
