<svg width="70" height="637" viewBox="0 0 70 637" fill="none" xmlns="http://www.w3.org/2000/svg">
<path d="M65.4133 2C64.24 4.4 63.12 6.80001 62 9.25334" stroke="white" stroke-width="8" stroke-miterlimit="10"/>
<path d="M53.5157 29C-44.5643 266.44 29.5157 545.267 51.9157 617.853" stroke="white" stroke-width="8" stroke-miterlimit="10" stroke-dasharray="30.67 30.67"/>
<path d="M55 628C56.6 632.96 57.56 635.573 57.56 635.573" stroke="white" stroke-width="8" stroke-miterlimit="10"/>
</svg>
