<svg width="558" height="51" viewBox="0 0 558 51" fill="none" xmlns="http://www.w3.org/2000/svg">
<path fill-rule="evenodd" clip-rule="evenodd" d="M77.6918 0.0344033C79.6824 0.295988 81.1706 1.99262 81.1706 4.00031V4.10016C81.1706 4.60799 81.0742 5.1042 80.8927 5.56519L74.1384 30.8204C74.1378 30.8225 74.1373 30.8245 74.1367 30.8265C73.1989 34.3887 73.8655 37.2288 75.2355 39.0997C76.5888 40.948 78.9527 42.3004 82.3707 42.3004C85.7776 42.3004 89.6163 40.9646 92.8817 38.369L92.8961 38.3576L139.823 1.40841C140.679 0.403651 142.008 -0.147486 143.392 0.0344033C145.382 0.295988 146.871 1.99262 146.871 4.00031V4.10016C146.871 4.60797 146.774 5.10416 146.593 5.56513L139.838 30.8204C139.838 30.8225 139.837 30.8245 139.837 30.8265C138.899 34.3887 139.566 37.2288 140.935 39.0997C142.289 40.948 144.653 42.3004 148.071 42.3004C151.478 42.3004 155.316 40.9646 158.582 38.369L158.596 38.3576L206.096 0.957418C207.449 -0.10815 209.333 -0.187708 210.771 0.75994C212.21 1.70759 212.88 3.46961 212.435 5.1336L205.538 30.9203C205.538 30.9221 205.537 30.9239 205.537 30.9258C204.599 34.4882 205.265 37.3286 206.635 39.1996C207.989 41.0479 210.353 42.4002 213.771 42.4002C217.178 42.4002 221.016 41.0644 224.282 38.4689L224.296 38.4574L271.223 1.509C272.078 0.503777 273.407 -0.0476766 274.792 0.134256C276.782 0.395839 278.271 2.09247 278.271 4.10016V4.20026C278.271 4.70825 278.174 5.20461 277.993 5.66573L271.238 30.9203C271.238 30.9233 271.237 30.9263 271.236 30.9294C270.299 34.4902 270.966 37.3292 272.335 39.1996C273.689 41.0479 276.053 42.4002 279.471 42.4002C282.878 42.4002 286.716 41.0644 289.982 38.4689L289.996 38.4574L337.496 1.05751C338.849 -0.00805521 340.733 -0.0876074 342.171 0.860044C343.61 1.80769 344.28 3.56971 343.835 5.23371L336.938 31.0204C336.938 31.0236 336.937 31.0268 336.936 31.03C335.999 34.5905 336.666 37.4294 338.035 39.2997C339.389 41.148 341.753 42.5003 345.171 42.5003C348.578 42.5003 352.416 41.1645 355.682 38.569L355.696 38.5575L402.623 1.60909C403.478 0.603872 404.807 0.0524204 406.192 0.234354C408.182 0.495939 409.671 2.19257 409.671 4.20026V4.30035C409.671 4.80834 409.574 5.30471 409.393 5.76582L402.638 31.0204C402.638 31.0236 402.637 31.0268 402.636 31.03C401.699 34.5905 402.366 37.4294 403.735 39.2997C405.089 41.148 407.453 42.5003 410.871 42.5003C414.278 42.5003 418.116 41.1645 421.382 38.569L421.396 38.5575L468.896 1.15761C470.25 0.0920415 472.133 0.01249 473.571 0.960144C475.01 1.9078 475.68 3.66982 475.235 5.33381L468.338 31.1202C468.337 31.1236 468.337 31.127 468.336 31.1304C467.399 34.6907 468.066 37.5293 469.435 39.3996C470.789 41.2478 473.153 42.6002 476.571 42.6002C479.978 42.6002 483.816 41.2645 487.082 38.6691L487.096 38.6576L534.023 1.70847C534.879 0.703705 536.208 0.152562 537.592 0.334452C539.582 0.596037 541.071 2.29267 541.071 4.30035V4.40021C541.071 4.908 540.974 5.40418 540.793 5.86514L534.038 31.1202C534.037 31.1235 534.037 31.1267 534.036 31.1299C533.099 34.6904 533.766 37.5292 535.135 39.3995C536.489 41.2478 538.853 42.6002 542.271 42.6002C545.678 42.6002 549.516 41.2645 552.782 38.6691L557.76 44.9316C553.225 48.5362 547.664 50.6002 542.271 50.6002C536.589 50.6002 531.702 48.2525 528.681 44.1258C525.676 40.0228 524.843 34.6151 526.303 29.0801L526.306 29.0667L530.067 15.0058L492.06 44.9316C492.057 44.9338 492.054 44.9359 492.051 44.9381C487.518 48.5386 481.96 50.6002 476.571 50.6002C470.889 50.6002 466.002 48.2525 462.981 44.1258C459.977 40.0228 459.143 34.615 460.603 29.0801L460.606 29.0667L464.401 14.8793L426.36 44.8316C426.358 44.8331 426.356 44.8346 426.354 44.8361C421.82 48.4377 416.261 50.5003 410.871 50.5003C405.189 50.5003 400.302 48.1526 397.281 44.0259C394.277 39.9229 393.443 34.5152 394.903 28.9802L394.906 28.9669L398.667 14.9059L360.66 44.8316C360.658 44.8331 360.656 44.8346 360.654 44.8361C356.12 48.4377 350.561 50.5003 345.171 50.5003C339.489 50.5003 334.602 48.1526 331.581 44.0259C328.577 39.9229 327.743 34.5152 329.203 28.9802L329.206 28.9669L333.001 14.7791L294.96 44.7315C294.958 44.733 294.956 44.7345 294.954 44.736C290.42 48.3376 284.861 50.4002 279.471 50.4002C273.789 50.4002 268.902 48.0525 265.881 43.9258C262.877 39.8228 262.043 34.4151 263.503 28.8801L263.506 28.8668L267.267 14.8058L229.26 44.7315C229.257 44.7334 229.255 44.7354 229.252 44.7374C224.719 48.3382 219.161 50.4002 213.771 50.4002C208.089 50.4002 203.202 48.0525 200.181 43.9258C197.176 39.8228 196.343 34.4151 197.803 28.8801L197.806 28.8668L201.601 14.6791L163.56 44.6316C163.557 44.6333 163.555 44.635 163.553 44.6367C159.02 48.238 153.461 50.3004 148.071 50.3004C142.389 50.3004 137.502 47.9527 134.481 43.826C131.476 39.7229 130.643 34.3152 132.103 28.7803L132.106 28.7669L135.867 14.7057L97.8596 44.6316C97.8572 44.6335 97.8548 44.6354 97.8524 44.6374C93.3191 48.2382 87.7609 50.3004 82.3707 50.3004C76.6887 50.3004 71.8025 47.9527 68.7808 43.826C65.7765 39.723 64.9431 34.3153 66.4029 28.7803L66.4064 28.7669L70.167 14.7057L32.1596 44.6316C32.1571 44.6336 32.1546 44.6355 32.1522 44.6375C27.6189 48.2383 22.0608 50.3004 16.6706 50.3004C10.9886 50.3004 6.10244 47.9527 3.0808 43.826C0.0765016 39.723 -0.756881 34.3152 0.702888 28.7803L8.43838 30.8204C7.49815 34.3855 8.16477 37.2278 9.53547 39.0997C10.8888 40.948 13.2526 42.3004 16.6706 42.3004C20.0776 42.3004 23.9163 40.9646 27.1817 38.369L27.1961 38.3576L74.1234 1.40839C74.9789 0.403646 76.3077 -0.147485 77.6918 0.0344033Z" fill="#FA3B2E"/>
</svg>
