<svg width="1000" height="813" viewBox="0 0 1000 813" fill="none" xmlns="http://www.w3.org/2000/svg">
<path d="M308.904 389.473L372.872 191.497H415.787L351.819 389.473H374.491L500.402 0.809814H477.73L420.645 177.327H377.73L434.815 0.809814H412.143L286.232 389.473H308.904Z" fill="white"/>
<path d="M359.11 21.0526C359.11 7.28748 348.178 0 325.911 0C309.312 0 297.166 3.23887 288.664 9.31172C280.162 15.7894 273.685 26.7206 268.422 42.51L170.041 346.153C167.207 354.655 165.588 362.347 165.588 368.015C165.588 382.185 176.924 389.473 199.191 389.473C215.79 389.473 227.531 386.639 236.033 380.161C244.535 373.683 251.013 362.752 256.276 346.558L354.656 42.9149C357.49 34.008 359.11 27.1255 359.11 21.0526ZM333.604 39.676L232.389 351.011C226.316 370.039 215.79 379.351 202.025 379.351C191.904 379.351 187.045 375.707 187.045 367.61C187.045 363.967 188.665 358.703 190.689 351.011L291.498 39.676C297.571 20.2429 308.098 10.5263 321.863 10.5263C331.984 10.5263 336.842 14.17 336.842 22.2671C337.247 26.3157 335.628 31.9837 333.604 39.676Z" fill="white"/>
<path d="M172.065 198.38C172.065 184.615 163.563 178.138 146.154 178.138L238.056 4.45386H215.384L129.15 178.138H118.219L174.089 4.45386H151.417L27.9355 387.044H50.6076L114.17 189.069H134.818C145.344 189.069 150.607 192.712 150.607 200.405C150.607 204.048 148.988 209.716 146.154 218.623L91.4981 387.449H113.765L167.206 222.267C170.445 211.336 172.065 204.048 172.065 198.38Z" fill="white"/>
<path d="M442.507 386.234L506.07 188.259H526.717C537.244 188.259 542.507 191.903 542.507 199.595C542.507 203.239 540.887 208.907 538.053 217.814L483.398 386.234H505.665L559.106 221.052C562.345 211.741 563.964 204.048 563.964 198.38C563.964 184.615 555.462 178.138 538.053 178.138L629.956 4.45386H607.284L521.049 178.138H510.118L565.988 4.45386H543.316L419.835 387.044H442.507V386.234Z" fill="white"/>
<path d="M966.799 0.405273C950.605 0.405273 938.46 3.64412 929.553 9.31212C921.051 15.7898 914.573 26.721 909.31 42.5104L810.525 346.558C807.691 355.06 806.071 362.752 806.071 368.42C806.071 382.59 817.407 389.878 839.674 389.878C856.274 389.878 868.014 387.044 876.516 380.566C885.018 374.088 891.496 363.157 896.759 346.963L924.289 262.753H902.022L873.277 351.012C867.205 370.04 856.678 379.352 842.913 379.352C832.792 379.352 827.934 375.708 827.934 367.611C827.934 363.967 829.553 358.299 831.577 351.012L932.387 39.6764C938.459 20.2433 948.986 10.5267 962.751 10.5267C972.872 10.5267 977.731 14.1704 977.731 22.2675C977.731 25.9112 976.111 31.5793 974.087 39.2716L948.176 119.028H970.443L995.544 42.5104C998.378 33.6035 999.998 26.3161 999.998 20.6481C999.998 7.28784 989.067 0.405273 966.799 0.405273Z" fill="white"/>
<path d="M691.092 386.234L732.387 259.109C757.084 259.109 773.278 257.489 781.375 254.655C794.33 249.392 804.047 236.437 810.929 216.599L865.99 46.1538C868.824 37.2469 870.444 29.9594 870.444 24.2914C870.444 10.5263 858.298 4.04858 834.006 4.04858H792.711L669.229 386.639H691.092V386.234ZM811.334 14.9798H826.314C840.079 14.9798 846.962 18.6235 846.962 27.5303C846.962 31.174 845.342 36.4372 843.318 43.7246L785.424 221.862C782.185 231.983 777.731 238.866 773.278 243.319C768.42 247.773 761.132 249.392 750.606 249.392H735.626L811.334 14.9798Z" fill="white"/>
<path d="M557.895 386.234H579.757L757.084 4.04858H735.222L654.251 178.542L687.044 4.04858H664.777L617.409 257.489L557.895 386.234Z" fill="white"/>
<path d="M544.938 461.538C551.011 442.105 561.537 432.388 575.302 432.388C585.424 432.388 590.282 436.032 590.282 444.129C590.282 447.773 588.663 453.441 586.638 461.133L560.728 540.89H582.995L608.096 464.372C610.93 455.465 612.549 448.178 612.549 442.51C612.549 428.745 601.618 421.457 579.351 421.457C563.157 421.457 551.011 424.696 542.104 430.364C533.602 436.842 527.124 447.773 521.861 463.562L422.671 768.42C419.837 776.922 418.218 784.614 418.218 790.282C418.218 804.452 429.554 811.739 451.821 811.739C468.42 811.739 480.161 808.905 488.663 802.428C497.165 795.95 503.643 785.019 508.906 768.824L536.436 684.614H514.169L485.424 772.873C479.351 791.901 468.825 801.213 455.06 801.213C444.938 801.213 440.08 797.569 440.08 789.472C440.08 785.828 441.699 780.16 443.724 772.873L544.938 461.538Z" fill="white"/>
<path d="M618.218 772.873C612.146 791.901 601.619 801.213 587.854 801.213C577.733 801.213 572.874 797.569 572.874 789.472C572.874 785.828 574.494 780.16 576.518 772.873L677.328 461.538C683.4 442.105 693.927 432.388 707.692 432.388C717.813 432.388 722.672 436.032 722.672 444.129C722.672 447.773 721.052 453.441 719.028 461.133L693.117 540.89H715.384L740.485 464.372C743.319 455.465 744.939 448.178 744.939 442.51C744.939 428.745 734.008 421.457 711.74 421.457C695.546 421.457 683.401 424.696 674.494 430.364C665.992 436.842 659.514 447.773 654.251 463.562L555.87 767.61C553.036 776.112 551.417 783.804 551.417 789.472C551.417 803.642 562.753 810.93 585.02 810.93C601.619 810.93 613.36 808.095 621.862 801.618C630.364 795.14 636.842 784.209 642.105 768.015L669.635 683.804H647.368L618.218 772.873Z" fill="white"/>
<path d="M477.732 431.174C472.469 425.506 462.347 422.267 446.153 422.267C423.886 422.267 408.501 429.554 399.595 443.319C395.951 448.987 392.712 456.275 389.473 465.182L364.777 541.7H387.044L412.955 461.943C415.384 454.251 417.813 448.583 420.242 444.939C425.505 436.842 433.198 433.198 443.319 433.198C457.084 433.198 461.133 442.51 454.655 462.348L410.121 599.594H378.947L374.493 613.764H405.667L353.846 773.683C351.417 780.97 349.392 786.638 346.963 790.282C341.7 798.379 334.008 802.023 323.886 802.023C310.121 802.023 306.073 792.711 312.145 773.683L340.485 685.424H318.218L291.093 769.634C285.83 785.829 285.425 796.76 289.474 803.237C293.522 809.715 303.643 812.549 320.243 812.549C342.51 812.549 358.704 805.262 367.611 791.092C371.255 785.424 374.898 777.731 377.732 769.229L476.922 465.182C481.376 448.987 481.781 438.056 477.732 431.174Z" fill="white"/>
<path d="M801.214 422.672L675.304 811.335H741.7L746.154 796.76H703.239L762.753 613.765H794.332L799.19 599.19H767.611L820.243 436.842H861.133L865.182 422.672H801.214Z" fill="white"/>
<path d="M260.728 623.075C268.825 580.97 267.611 540.484 263.562 511.335C259.513 482.185 253.441 464.371 253.441 464.371C253.441 464.371 244.534 477.731 229.554 497.569C214.979 517.002 194.331 542.508 172.874 567.205C162.348 579.35 158.299 594.33 160.728 612.549C161.943 623.48 163.157 630.767 163.157 630.767C163.157 630.767 161.538 626.719 159.109 619.836C156.68 612.954 153.441 603.642 150.202 593.52C147.368 596.354 144.534 599.998 141.295 604.047C138.056 608.095 134.817 612.144 131.579 616.597C127.935 620.646 124.696 625.099 121.457 628.743C118.218 632.387 114.979 636.03 112.55 639.269C109.311 642.913 107.287 647.367 106.477 652.63C105.668 657.893 105.668 663.561 107.287 670.038C109.716 680.565 110.931 689.472 112.145 695.949C112.55 699.188 112.955 702.022 113.36 703.642C113.765 705.261 113.765 706.476 113.765 706.476C113.765 706.476 111.741 700.808 108.502 691.901C105.668 682.994 101.619 670.848 97.1657 657.893C94.7366 661.132 92.3074 664.37 90.2831 667.609C88.2588 670.443 86.2345 673.682 84.2102 676.516C80.1617 681.779 76.9228 687.447 74.0888 692.306C71.2548 697.164 68.8257 702.022 66.8014 706.476C64.7771 710.929 63.1577 715.383 62.348 719.431C60.3237 727.933 59.5139 736.03 59.9188 744.127C60.3237 752.225 61.9431 760.322 64.3723 768.014C65.9917 767.204 67.2063 765.99 68.4208 765.585C86.6394 753.034 102.024 740.079 115.384 727.528C118.623 724.289 121.862 721.05 125.101 718.216C128.34 715.382 131.174 711.739 134.008 708.905C139.676 702.832 144.939 696.759 149.797 691.091C169.23 668.014 182.186 648.176 191.902 632.792C196.761 625.099 200.809 618.622 204.048 612.954C207.287 607.286 210.121 602.832 212.145 599.593C216.194 592.711 218.218 589.472 218.218 589.472C196.356 640.079 166.801 687.852 127.935 727.123C91.9025 763.965 48.178 792.71 0 810.929L8.50196 811.334C16.1942 811.738 23.4817 810.524 30.3643 807.285L41.7002 801.617C45.3439 799.998 48.9877 797.568 52.6314 795.544C56.2751 793.52 59.9188 791.496 63.5626 789.471L74.0888 782.589C78.1374 787.447 82.9957 791.496 89.0686 794.735C94.7366 797.569 101.214 799.593 109.311 799.593C113.36 799.593 117.409 799.593 121.862 798.783C126.315 797.973 130.769 796.759 135.627 795.139C140.485 793.52 145.749 791.496 151.012 788.257C156.275 785.423 162.348 782.184 168.016 777.73C154.655 776.516 142.915 774.087 135.222 771.658C131.174 770.443 127.935 769.633 125.911 768.824C123.886 768.014 122.672 767.609 122.672 767.609C122.672 767.609 123.886 768.014 126.315 768.014C128.745 768.419 131.983 768.419 136.032 768.824C164.372 771.253 189.878 761.131 206.477 742.103C208.501 739.674 210.526 737.245 212.55 734.816C214.574 732.386 216.599 729.552 218.623 726.718C221.052 723.884 223.076 720.646 225.101 717.407C227.125 714.168 229.149 710.929 231.173 707.69C235.222 701.213 238.461 693.925 242.105 687.043C229.959 695.949 217.813 701.617 208.906 705.261C199.999 708.905 193.927 710.119 193.927 710.119C193.927 710.119 205.263 703.642 219.837 692.71C240.485 676.111 255.465 650.605 260.728 623.075Z" fill="#FA3B2E"/>
</svg>
