<svg width="460" height="51" viewBox="0 0 460 51" fill="none" xmlns="http://www.w3.org/2000/svg">
<path d="M79.6115 4.00031C79.6115 1.99262 78.1518 0.295988 76.1994 0.0344034C74.8415 -0.147529 73.538 0.403912 72.6988 1.40912L26.6725 38.3576L26.6583 38.369C23.4556 40.9646 19.6905 42.3004 16.349 42.3004C12.9965 42.3004 10.6781 40.948 9.35064 39.0997C8.00622 37.2277 7.35238 34.3854 8.27456 30.8204L0.687481 28.7803C-0.744287 34.3153 0.0731423 39.723 3.01983 43.826C5.98352 47.9527 10.776 50.3004 16.349 50.3004C21.6357 50.3004 27.0872 48.2383 31.5334 44.6375L31.5408 44.6316L68.8189 14.706L65.1305 28.7669L65.1271 28.7803C63.6953 34.3152 64.5127 39.7229 67.4593 43.826C70.423 47.9527 75.2154 50.3004 80.7884 50.3004C86.0751 50.3004 91.5266 48.2383 95.9729 44.6375L95.9802 44.6316L133.258 14.706L129.57 28.7669L129.566 28.7803C128.135 34.3152 128.952 39.7229 131.899 43.826C134.862 47.9527 139.655 50.3004 145.228 50.3004C150.515 50.3004 155.966 48.2383 160.412 44.6375L160.42 44.6316L197.731 14.6792L194.01 28.867L194.006 28.8804C192.574 34.4153 193.392 39.823 196.338 43.9261C199.302 48.0528 204.094 50.4005 209.667 50.4005C214.955 50.4005 220.407 48.3381 224.853 44.7368L224.859 44.7317L262.137 14.8059L258.449 28.867L258.446 28.8804C257.014 34.4153 257.831 39.823 260.778 43.9261C263.741 48.0528 268.534 50.4005 274.107 50.4005C279.393 50.4005 284.845 48.3386 289.291 44.7381L289.299 44.7317L326.61 14.7792L322.888 28.9669L322.885 28.9802C321.453 34.5152 322.271 39.9229 325.217 44.0259C328.181 48.1526 332.974 50.5003 338.547 50.5003C343.836 50.5003 349.291 48.436 353.738 44.8316L348.856 38.569C345.653 41.1645 341.888 42.5003 338.547 42.5003C335.194 42.5003 332.876 41.148 331.548 39.2997C330.205 37.4294 329.551 34.5905 330.47 31.0301L330.472 31.0204L337.236 5.23371C337.673 3.56971 337.015 1.80769 335.605 0.86004C334.194 -0.0876102 332.347 -0.00805283 331.019 1.05752L284.43 38.4577L284.416 38.4691C281.214 41.0647 277.448 42.4005 274.107 42.4005C270.755 42.4005 268.436 41.0481 267.109 39.1998C265.765 37.3296 265.112 34.4907 266.03 30.9302L266.033 30.9205L272.657 5.66528C272.835 5.20429 272.93 4.70808 272.93 4.20026V4.1004C272.93 2.09272 271.47 0.396086 269.518 0.134501C268.16 -0.0473861 266.857 0.503732 266.018 1.50846L219.991 38.4577L219.977 38.4691C216.774 41.0647 213.009 42.4005 209.667 42.4005C206.315 42.4005 203.997 41.0481 202.669 39.1998C201.325 37.3287 200.672 34.4882 201.592 30.9255L201.593 30.9205L208.357 5.13384C208.794 3.46984 208.136 1.70783 206.726 0.760185C205.315 -0.187461 203.467 -0.107906 202.14 0.957655L155.551 38.3576L155.537 38.369C152.335 40.9646 148.569 42.3004 145.228 42.3004C141.875 42.3004 139.557 40.948 138.23 39.0997C136.886 37.2288 136.232 34.3887 137.152 30.8266L137.154 30.8204L143.778 5.56591C143.956 5.10479 144.051 4.60841 144.051 4.1004V4.00031C144.051 1.99262 142.591 0.295988 140.639 0.0344034C139.281 -0.147529 137.977 0.40391 137.138 1.40912L91.112 38.3576L91.0978 38.369C87.8951 40.9646 84.13 42.3004 80.7884 42.3004C77.436 42.3004 75.1176 40.948 73.7902 39.0997C72.4465 37.2288 71.7927 34.3887 72.7125 30.8266L72.7141 30.8204L79.3387 5.56597C79.5168 5.10483 79.6115 4.60843 79.6115 4.1004V4.00031Z" fill="#FFD500"/>
<path d="M383.496 51H393.305V43H383.496V51Z" fill="#FFD500"/>
<path d="M419.051 51H411.94V43H419.051V51Z" fill="#FFD500"/>
<path d="M440.384 51H433.273V43H440.384V51Z" fill="#FFD500"/>
<path d="M450.192 51H460V43H450.192V51Z" fill="#FFD500"/>
</svg>
