<svg width="76" height="44" viewBox="0 0 76 44" fill="none" xmlns="http://www.w3.org/2000/svg">
<path fill-rule="evenodd" clip-rule="evenodd" d="M38 44L3.34621e-06 5.72381L5.68252 -6.14735e-06L38 32.5524L70.3175 -4.96781e-07L76 5.72381L38 44Z" fill="white"/>
</svg>
