<svg width="362" height="95" viewBox="0 0 362 95" fill="none" xmlns="http://www.w3.org/2000/svg">
<path fill-rule="evenodd" clip-rule="evenodd" d="M23.2 1.19995H0.400024V93H11.6V48.1L31.9 93H45.4L25.2 51.5C37.7 50.8 44.7 43.3 44.7 28.1V24.3999C44.7 9.29995 36.7 1.19995 23.2 1.19995ZM11.6 41.3999V12.5H22C30.2 12.5 33.5 16.1 33.5 25.7V27C33.5 37.3 30.2 41.3999 22 41.3999H11.6Z" fill="#F6474F"/>
<path d="M59.5 1.19995V64.7C59.5 78.2 62.5 82.8999 70.6 82.8999C78.8 82.8999 81.7 78.1 81.7 64.7V1.19995H93V64.7C93 84.6 85.8 94.2 70.6 94.2C55.5 94.2 48.3 84.6 48.3 64.7V1.19995H59.5Z" fill="#F6474F"/>
<path d="M117.6 0C129.6 0 137.1 8 137.1 24.5V30.1H125.9V24.8C125.9 15.4 123.9 11.2 117.6 11.2C111.7 11.2 109.5 15.1 109.5 22.5C109.5 29.8 112 34 117.5 38L124.7 45.1C132.2 50.9 138.4 57.8 138.4 69.7C138.4 86.1 130.2 94.2 117.7 94.2C105.2 94.2 97 85.5 97 69.7V62.9H108.2V68.9C108.2 77.6 110.8 83 117.6 83C124.4 83 127 78.6 127 71.2C127 63.6 124.6 58.7 118.9 54.4L111 47.7C103.4 41.9 98.2 34.7 98.2 22.5C98.3 6.5 105.9 0 117.6 0Z" fill="#F6474F"/>
<path d="M161.5 0C173.5 0 181 8 181 24.5V30.1H169.8V24.8C169.8 15.4 167.8 11.2 161.5 11.2C155.6 11.2 153.4 15.1 153.4 22.5C153.4 29.8 155.9 34 161.4 38L168.6 45.1C176.1 50.9 183.2 57.8 183.2 69.7C183.2 86.1 171.5 94.2 161.6 94.2C149.2 94.2 140.9 85.5 140.9 69.7V62.9H152.1V68.9C152.1 77.6 154.7 83 161.5 83C168.3 83 170.9 78.6 170.9 71.2C170.9 63.6 168.5 58.7 162.8 54.4L154.9 47.7C147.3 41.9 142.1 34.7 142.1 22.5C142.2 6.5 149.9 0 161.5 0Z" fill="#F6474F"/>
<path d="M295.8 0C307.8 0 315.3 8 315.3 24.5V30.1H304.1V24.8C304.1 15.4 302.1 11.2 295.8 11.2C289.9 11.2 287.7 15.1 287.7 22.5C287.7 29.8 290.2 34 295.7 38L302.9 45.1C310.4 50.9 316.6 57.8 316.6 69.7C316.6 86.1 308.4 94.2 295.9 94.2C283.4 94.2 275.2 85.5 275.2 69.7V62.9H286.4V68.9C286.4 77.6 289 83 295.8 83C302.6 83 305.2 78.6 305.2 71.2C305.2 63.6 302.8 58.7 297.1 54.4L289.2 47.7C281.6 41.9 276.4 34.7 276.4 22.5C276.5 6.5 284.1 0 295.8 0Z" fill="black"/>
<path d="M339.7 0C351.7 0 359.2 8 359.2 24.5V30.1H348V24.8C348 15.4 346 11.2 339.7 11.2C333.8 11.2 331.6 15.1 331.6 22.5C331.6 29.8 334.1 34 339.6 38L346.8 45.1C354.3 50.9 361.4 57.8 361.4 69.7C361.4 86.1 349.7 94.2 339.8 94.2C327.3 94.2 319.1 85.5 319.1 69.7V62.9H330.3V68.9C330.3 77.6 332.9 83 339.7 83C346.5 83 349.1 78.6 349.1 71.2C349.1 63.6 346.7 58.7 341 54.4L333.1 47.7C325.5 41.9 320.3 34.7 320.3 22.5C320.5 6.5 328.1 0 339.7 0Z" fill="black"/>
<path fill-rule="evenodd" clip-rule="evenodd" d="M210.8 1.19995H188.4V47.1V93H199.6V58H210.8C224.4 58 232.1 48.8999 232.1 32.2999V25.7C232.1 9.69997 224.3 1.19995 210.8 1.19995ZM199.5 46.7999V12.5H209.6C217.7 12.5 220.8 16.4999 220.8 26.8999V31.1C220.8 42.2 217.6 46.7999 209.6 46.7999H199.5Z" fill="black"/>
<path fill-rule="evenodd" clip-rule="evenodd" d="M259.1 1.19995H242.3L225.3 93H236.6L241 70.5H260.3L264.7 93H276L259.1 1.19995ZM250.6 11L259 59.2H243.3L250.6 11Z" fill="black"/>
</svg>
