<svg width="71" height="61" viewBox="0 0 71 61" fill="none" xmlns="http://www.w3.org/2000/svg">
<path d="M0.800049 4.6H70.8" stroke="white" stroke-width="8" stroke-miterlimit="10"/>
<path d="M0.800049 30.6H70.8" stroke="white" stroke-width="8" stroke-miterlimit="10"/>
<path d="M0.800049 56.6H70.8" stroke="white" stroke-width="8" stroke-miterlimit="10"/>
</svg>
