<svg width="25" height="42" viewBox="0 0 25 42" fill="none" xmlns="http://www.w3.org/2000/svg">
<path d="M12.1999 21.8001C17.9999 21.9001 22.8999 17.3 22.9999 11.5C23.0999 5.70001 18.4999 0.799964 12.6999 0.699964C6.89994 0.599964 1.99995 5.20001 1.89995 11C1.69995 16.8 6.39994 21.7001 12.1999 21.8001ZM12.5999 6.80006C14.9999 6.90006 16.9 8.90006 16.9 11.3001C16.8 13.7001 14.8 15.6 12.4 15.6C9.99995 15.5 8.09991 13.5 8.09991 11.1C8.09991 8.69999 10.0999 6.80006 12.5999 6.80006Z" fill="white"/>
<path d="M16.3 30.5C18.5 30.1 20.6 29.3 22.5 28.1C24 27.2 24.5 25.3001 23.6 23.8001C22.7 22.3001 20.8 21.8 19.3 22.7C14.9 25.3 9.29997 25.2 4.99997 22.4C3.59997 21.5 1.59999 21.8001 0.699987 23.3001C-0.200013 24.7001 0.0999506 26.7 1.59995 27.6C3.49995 28.8 5.49999 29.7001 7.69999 30.3001L1.59995 36.1C0.399951 37.3 0.299975 39.2 1.49997 40.5C2.09997 41.1 2.89999 41.4 3.69999 41.5C4.49999 41.5 5.3 41.2 5.9 40.6L11.9 34.9L17.6 40.9C18.8 42.1 20.7 42.2 22 41C23.2 39.8 23.3 37.9 22.1 36.6L16.3 30.5Z" fill="white"/>
</svg>
