<svg width="28" height="24" viewBox="0 0 28 24" fill="none" xmlns="http://www.w3.org/2000/svg">
<path d="M11.8 15.4L11.4 21.3C12 21.3 12.3 21 12.6 20.7L15.4 18L22.9 23.2L27.2 3.39996L27.9 0.599976L0.599976 11.2L8.69995 13.8L22 5.49997C22.6 5.09997 23.2 5.29998 22.7 5.69998L11.8 15.4Z" fill="white"/>
</svg>
