<svg width="92" height="36" viewBox="0 0 92 36" fill="none" xmlns="http://www.w3.org/2000/svg">
<path d="M72.6 1.8999L88.6 17.8999L72.6 33.8999" stroke="black" stroke-width="4" stroke-miterlimit="10"/>
<path d="M0.899963 17.8999H88.6" stroke="black" stroke-width="4" stroke-miterlimit="10"/>
</svg>
